Date,Open,High,Low,Close,Volume
2013-06-24,15.101,15.101,14.525,14.843,792910
2013-06-25,14.824,14.986,14.679,14.977,590128
2013-06-26,14.862,14.871,14.641,14.794,942096
2013-06-27,14.135,15.052,14.019,14.699,3406731
2013-06-28,14.623,14.995,14.585,14.709,1875596
2013-07-01,14.804,14.824,14.192,14.221,4541792
2013-07-02,14.039,14.525,14.029,14.336,9078867
2013-07-03,14.229,14.461,14.192,14.317,2368441
2013-07-05,14.307,15.244,14.307,14.928,3629376
2013-07-08,15.14,15.378,14.871,15.32,4193819
2013-07-09,15.12,15.32,14.981,15.042,3823115
2013-07-10,14.824,14.918,14.555,14.775,3147863
2013-07-11,15.11,15.11,14.402,14.545,3795963
2013-07-12,14.345,14.517,14.317,14.336,3181116
2013-07-15,14.345,14.421,13.886,14.154,5574820
2013-07-16,14.069,14.794,14.059,14.719,2834789
2013-07-17,14.614,15.417,14.614,15.32,3908329
2013-07-18,15.339,15.541,14.784,14.918,2957005
2013-07-19,14.699,15.55,14.699,15.417,3905899
2013-07-22,15.444,15.55,15.063,15.205,2257692
2013-07-23,15.157,15.349,15.023,15.157,2200953
2013-07-24,15.101,15.349,14.938,15.225,2305690
2013-07-25,15.215,15.344,14.958,15.072,2192986
2013-07-26,15.072,15.454,14.824,15.388,980351
2013-07-29,15.283,15.367,14.928,15.023,3655173
2013-07-30,15.042,15.474,14.986,15.434,3595075
2013-07-31,15.388,15.657,15.339,15.388,2502034
2013-08-01,15.407,15.702,15.388,15.674,2040757
2013-08-02,15.578,15.913,15.541,15.78,2136825
2013-08-05,15.692,15.761,15.378,15.502,1178984
2013-08-06,15.425,15.731,15.329,15.674,1396298
2013-08-07,15.532,15.588,15.339,15.454,1296411
2013-08-08,15.607,15.789,15.444,15.664,2205853
2013-08-09,15.692,15.692,15.512,15.532,1433451
2013-08-12,15.398,15.588,15.279,15.407,2005075
2013-08-13,15.522,15.522,15.301,15.349,1718632
2013-08-14,15.301,15.502,15.176,15.474,2121641
2013-08-15,15.358,15.674,15.239,15.607,1413302
2013-08-16,15.55,15.731,15.454,15.483,2242599
2013-08-19,15.502,15.512,15.181,15.196,638585
2013-08-20,15.215,15.283,15.028,15.186,1038649
2013-08-21,15.14,15.301,15.015,15.244,2037064
2013-08-22,15.291,15.329,15.13,15.186,1685233
2013-08-23,15.15,15.32,15.082,15.225,1753070
2013-08-26,15.244,15.425,15.244,15.358,1145340
2013-08-27,15.283,15.493,15.234,15.244,4024406
2013-08-28,15.274,15.32,15.196,15.274,7566236
2013-08-29,15.283,15.383,15.14,15.264,833882
2013-08-30,15.215,15.274,15.072,15.15,1655639
2013-09-03,15.32,15.493,15.186,15.301,611054
2013-09-04,15.225,15.568,15.205,15.502,2130411
2013-09-05,15.493,15.722,15.368,15.674,1999360
2013-09-06,15.684,15.77,15.522,15.627,1731533
2013-09-09,15.627,15.78,15.588,15.77,808176
2013-09-10,15.809,15.99,15.692,15.99,884924
2013-09-11,15.98,16.449,15.953,16.449,1601517
2013-09-12,16.44,16.697,16.362,16.544,629071
2013-09-13,16.535,16.535,16.237,16.362,430386
2013-09-16,16.525,16.622,16.257,16.42,807402
2013-09-17,16.411,16.535,16.371,16.469,573659
2013-09-18,16.449,16.583,16.326,16.493,995256
2013-09-19,16.583,16.631,16.171,16.381,924555
2013-09-20,16.354,16.479,15.99,16.171,1485126
2013-09-23,16.087,16.113,15.884,16.057,736084
2013-09-24,16.037,16.668,16.037,16.573,1468228
2013-09-25,16.479,16.544,16.247,16.344,1177518
2013-09-26,16.371,16.371,15.751,15.943,2654955
2013-09-27,15.751,15.865,15.657,15.836,860891
2013-09-30,15.799,15.799,15.578,15.712,639630
2013-10-01,15.731,15.731,15.454,15.578,544999
2013-10-02,15.464,15.846,15.32,15.77,1351202
2013-10-03,15.78,15.865,15.502,15.558,2285946
2013-10-04,15.532,15.684,15.493,15.558,1164912
2013-10-07,15.444,15.647,15.407,15.558,1158382
2013-10-08,15.502,15.637,15.464,15.522,697874
2013-10-09,15.502,15.684,15.464,15.627,4587939
2013-10-10,15.674,15.943,15.674,15.923,1117915
2013-10-11,15.875,16.316,15.875,16.181,2362461
2013-10-14,16.028,16.391,16.018,16.316,789370
2013-10-15,16.296,16.43,16.201,16.411,1502404
2013-10-16,16.449,16.535,16.334,16.505,1298292
2013-10-17,16.43,16.515,16.354,16.505,900522
2013-10-18,16.603,16.631,16.488,16.563,2126977
2013-10-21,16.603,16.687,16.488,16.544,589648
2013-10-22,16.603,16.765,16.525,16.687,1650053
2013-10-23,16.687,16.87,16.535,16.727,1601951
2013-10-24,16.812,17.023,16.736,16.946,974288
2013-10-25,16.956,16.966,16.736,16.792,1596723
2013-10-28,16.784,16.956,16.66,16.907,1092610
2013-10-29,16.916,17.148,16.899,17.09,930010
2013-10-30,17.214,17.214,16.946,16.976,708330
2013-10-31,16.966,17.343,16.956,17.153,1892982
2013-11-01,17.09,17.366,17.023,17.319,1354444
2013-11-04,17.366,17.443,17.292,17.338,423144
2013-11-05,17.338,17.463,17.1,17.309,727988
2013-11-06,17.3,17.443,16.936,16.995,648079
2013-11-07,16.976,17.329,16.812,16.841,690763
2013-11-08,16.812,17.184,16.774,17.158,542488
2013-11-11,17.08,17.194,16.907,17.004,563297
2013-11-12,16.631,16.88,16.257,16.727,1187348
2013-11-13,16.65,16.832,16.515,16.765,871870
2013-11-14,16.736,16.899,16.707,16.746,600071
2013-11-15,16.832,17.292,16.832,17.233,880566
2013-11-18,17.242,17.282,16.841,16.916,831404
2013-11-19,16.899,17.128,16.841,16.956,493134
2013-11-20,16.976,17.214,16.926,17.07,842175
2013-11-21,17.06,17.184,16.985,17.023,312843
2013-11-22,17.1,17.138,16.916,16.936,1258556
2013-11-25,16.916,17.05,16.746,16.841,750114
2013-11-26,16.832,17.04,16.736,16.985,1215162
2013-11-27,16.936,17.214,16.832,17.109,1086805
2013-11-29,17.119,17.214,17.09,17.184,409891
2013-12-02,17.119,17.166,16.851,16.89,929944
2013-12-03,16.756,16.832,16.64,16.765,585988
2013-12-04,16.65,16.832,16.535,16.736,564865
2013-12-05,16.697,16.697,16.505,16.612,537715
2013-12-06,16.707,16.841,16.459,16.603,1812443
2013-12-09,16.603,16.668,16.42,16.603,2076368
2013-12-10,16.391,16.792,16.354,16.736,980516
2013-12-11,16.687,16.841,16.573,16.707,779875
2013-12-12,16.631,16.736,16.554,16.593,488009
2013-12-13,16.668,16.784,16.469,16.736,672674
2013-12-16,16.66,16.88,16.622,16.86,751411
2013-12-17,16.563,16.622,16.277,16.459,837469
2013-12-18,16.535,16.64,16.211,16.593,555205
2013-12-19,16.515,16.554,16.306,16.459,404460
2013-12-20,16.525,17.004,16.525,16.812,590902
2013-12-23,16.832,17.05,16.802,17.004,401638
2013-12-24,17.023,17.119,16.86,17.04,91700
2013-12-26,17.06,17.166,16.812,16.926,251063
2013-12-27,16.89,16.926,16.697,16.907,334297
2013-12-30,16.907,17.05,16.832,16.976,322446
2013-12-31,16.86,17.138,16.86,17.05,310561
2014-01-02,17.06,17.242,16.985,17.109,793164
2014-01-03,17.166,17.166,16.851,16.956,451257
2014-01-06,17.04,17.09,16.668,16.784,648360
2014-01-07,16.746,16.784,16.469,16.563,1227918
2014-01-08,16.505,16.573,16.326,16.488,659079
2014-01-09,16.573,16.707,16.449,16.544,621330
2014-01-10,16.525,16.65,16.479,16.583,317655
2014-01-13,16.525,16.612,16.286,16.334,479121
2014-01-14,16.334,16.535,16.334,16.488,621295
2014-01-15,16.497,16.497,16.344,16.401,502231
2014-01-16,16.316,16.42,16.247,16.296,529103
2014-01-17,16.221,16.334,16.143,16.277,850541
2014-01-21,16.371,16.371,15.933,16.028,926348
2014-01-22,16.008,16.267,15.846,15.943,673527
2014-01-23,15.855,15.855,15.674,15.827,389612
2014-01-24,15.98,15.998,15.358,15.444,876996
2014-01-27,15.434,15.789,15.349,15.444,3150155
2014-01-28,15.398,15.558,15.301,15.311,1269954
2014-01-29,15.166,15.32,15.11,15.225,1341793
2014-01-30,15.349,15.349,15.062,15.11,2025712
2014-01-31,15.032,15.13,14.899,14.928,819380
2014-02-03,14.871,15.042,14.402,14.412,2056432
2014-02-04,14.517,14.689,14.345,14.412,4697619
2014-02-05,14.525,14.814,14.461,14.641,2612368
2014-02-06,14.728,15.052,14.517,14.977,1524337
2014-02-07,15.78,16.736,15.78,16.257,1996587
2014-02-10,16.277,16.44,15.998,16.401,962774
2014-02-11,16.391,16.786,16.334,16.736,1072622
2014-02-12,16.687,16.812,16.488,16.544,464049
2014-02-13,16.459,16.631,16.277,16.505,564763
2014-02-14,16.43,16.631,16.362,16.469,667070
2014-02-18,16.525,16.622,16.326,16.535,1147844
2014-02-19,16.66,16.756,16.449,16.497,919897
2014-02-20,16.488,16.525,16.229,16.362,468558
2014-02-21,16.334,16.554,16.267,16.469,758300
2014-02-24,16.469,16.851,16.469,16.736,848692
2014-02-25,16.812,16.936,16.812,16.851,1102964
2014-02-26,16.936,16.956,16.746,16.822,899987
2014-02-27,16.784,16.907,16.727,16.89,575580
2014-02-28,16.746,17.184,16.746,17.109,692397
2014-03-03,16.936,17.109,16.746,16.926,684243
2014-03-04,17.04,17.158,17.013,17.109,667430
2014-03-05,17.07,17.233,16.926,17.109,565715
2014-03-06,17.08,17.224,16.971,17.08,336515
2014-03-07,17.1,17.194,16.707,16.774,409688
2014-03-10,16.774,16.87,16.573,16.717,613509
2014-03-11,16.717,16.756,16.535,16.612,892701
2014-03-12,16.573,16.822,16.349,16.736,718394
2014-03-13,16.841,16.841,16.286,16.326,539733
2014-03-14,16.237,16.449,16.206,16.306,841780
2014-03-17,16.401,16.497,16.171,16.334,682697
2014-03-18,16.326,16.668,16.306,16.593,816421
2014-03-19,16.563,16.65,16.371,16.488,798617
2014-03-20,16.362,16.479,16.229,16.362,496929
2014-03-21,16.362,16.505,16.128,16.267,1651053
2014-03-24,16.354,16.469,16.171,16.221,478388
2014-03-25,16.257,16.375,16.028,16.104,202109
2014-03-26,16.113,16.133,15.789,15.799,645904
2014-03-27,15.722,15.962,15.722,15.78,462108
2014-03-28,15.865,16.028,15.77,15.819,230108
2014-03-31,15.846,15.998,15.78,15.971,249468
2014-04-01,15.98,16.237,15.933,16.191,554586
2014-04-02,16.143,16.247,16.067,16.211,381583
2014-04-03,16.211,16.277,15.933,15.962,796507
2014-04-04,15.933,16.326,15.933,15.98,820104
2014-04-07,15.923,16.181,15.846,15.998,626714
2014-04-08,15.962,16.247,15.846,15.923,307660
2014-04-09,15.962,16.181,15.904,16.087,240113
2014-04-10,16.047,16.191,15.741,15.761,370504
2014-04-11,15.647,15.855,15.407,15.55,614480
2014-04-14,15.761,15.761,15.474,15.684,342870
2014-04-15,15.761,15.761,15.283,15.578,377617
2014-04-16,15.627,15.836,15.588,15.692,279093
2014-04-17,15.751,15.865,15.637,15.751,175865
2014-04-21,15.865,15.933,15.493,15.933,539889
2014-04-22,15.875,16.057,15.799,16.028,695470
2014-04-23,16.067,16.196,16.028,16.181,330765
2014-04-24,16.257,16.257,15.998,16.211,454247
2014-04-25,16.104,16.221,16.028,16.047,352972
2014-04-28,15.904,16.176,15.809,16.047,641530
2014-04-29,16.067,16.311,15.998,16.077,726211
2014-04-30,16.018,16.077,15.622,15.819,1202705
2014-05-01,15.875,16.133,15.855,16.028,619080
2014-05-02,16.018,16.221,15.976,16.096,634971
2014-05-05,15.953,16.181,15.943,16.104,638938
2014-05-06,16.047,16.067,15.904,15.923,500656
2014-05-07,16.008,16.008,15.702,15.819,631044
2014-05-08,15.761,15.894,15.637,15.846,682269
2014-05-09,15.998,16.672,15.998,16.64,1630108
2014-05-12,16.66,16.88,16.563,16.687,979326
2014-05-13,16.677,16.727,16.449,16.554,585085
2014-05-14,16.469,16.53,16.067,16.077,861777
2014-05-15,16.087,16.087,15.799,15.836,610373
2014-05-16,15.904,15.998,15.607,15.971,397203
2014-05-19,15.971,16.067,15.855,15.943,172039
2014-05-20,15.884,15.884,15.637,15.712,809717
2014-05-21,15.761,15.943,15.664,15.78,450846
2014-05-22,15.789,16.037,15.692,16.037,394622
2014-05-23,16.113,16.113,15.855,16.008,450994
2014-05-27,16.057,16.143,15.962,16.123,331881
2014-05-28,16.153,16.153,15.923,15.98,324375
2014-05-29,15.98,15.99,15.827,15.913,412161
2014-05-30,15.904,15.99,15.836,15.865,351501
2014-06-02,15.923,16.087,15.846,16.047,1124264
2014-06-03,16.067,16.286,15.998,16.181,625481
2014-06-04,16.153,16.411,16.143,16.267,335875
2014-06-05,16.229,16.515,16.143,16.515,594493
2014-06-06,16.525,16.677,16.42,16.515,764372
2014-06-09,16.479,16.756,16.43,16.497,461122
2014-06-10,16.449,16.535,16.326,16.43,414081
2014-06-11,16.401,16.515,16.306,16.42,548570
2014-06-12,16.326,16.326,16.104,16.113,639661
2014-06-13,16.171,16.171,15.913,15.998,358910
2014-06-16,15.913,16.008,15.712,15.998,865401
2014-06-17,16.018,16.133,15.855,16.077,422972
2014-06-18,16.028,16.344,16.008,16.326,763685
2014-06-19,16.411,16.43,16.037,16.411,563000
2014-06-20,16.381,16.544,16.113,16.362,654235
2014-06-23,16.296,16.391,16.033,16.104,490717
2014-06-24,16.113,16.381,16.104,16.257,692612
2014-06-25,16.257,16.515,16.162,16.449,681802
2014-06-26,16.515,16.774,16.296,16.774,1975809
2014-06-27,16.677,16.832,16.588,16.784,1298380
2014-06-30,16.792,16.841,16.622,16.687,1111686
2014-07-01,16.687,16.894,16.677,16.832,718987
2014-07-02,16.784,17.004,16.707,16.946,575742
2014-07-03,16.995,17.04,16.907,16.995,306638
2014-07-07,16.995,16.995,16.792,16.86,825214
2014-07-08,16.88,16.899,16.697,16.812,1567845
2014-07-09,16.926,17.004,16.792,16.899,704104
2014-07-10,16.746,16.822,16.631,16.746,792306
2014-07-11,16.756,16.899,16.697,16.792,909682
2014-07-14,16.936,16.936,16.728,16.822,794483
2014-07-15,16.851,17.004,16.832,16.89,1421035
2014-07-16,16.966,17.013,16.802,16.86,881127
2014-07-17,16.841,16.87,16.697,16.736,744457
2014-07-18,16.774,16.976,16.727,16.88,1095246
2014-07-21,16.86,16.946,16.756,16.774,527789
2014-07-22,16.86,16.899,16.697,16.746,296749
2014-07-23,16.707,16.784,16.603,16.784,462428
2014-07-24,16.746,16.966,16.746,16.956,841365
2014-07-25,16.926,16.926,16.792,16.841,881944
2014-07-28,16.765,16.89,16.612,16.727,511576
2014-07-29,16.717,16.88,16.578,16.631,562895
2014-07-30,16.66,16.736,16.525,16.622,635051
2014-07-31,16.479,16.677,16.415,16.459,762828
2014-08-01,16.401,16.64,16.354,16.603,402323
2014-08-04,16.603,16.668,16.43,16.631,452245
2014-08-05,16.469,16.583,16.411,16.469,907156
2014-08-06,16.381,16.44,16.306,16.401,757734
2014-08-07,16.449,16.505,16.191,16.257,1112598
2014-08-08,15.789,16.153,15.311,16.018,2978079
2014-08-11,16.123,16.286,15.998,16.201,744250
2014-08-12,16.153,16.316,16.072,16.096,729096
2014-08-13,16.201,16.201,15.904,16.028,682848
2014-08-14,16.087,16.237,15.933,16.229,1130404
2014-08-15,16.306,16.306,16.047,16.077,954936
2014-08-18,16.201,16.381,16.047,16.104,1236905
2014-08-19,16.143,16.143,15.971,16.018,303804
2014-08-20,15.971,16.381,15.971,16.344,1166751
2014-08-21,16.334,16.469,16.286,16.44,973259
2014-08-22,16.469,16.469,16.296,16.391,1010680
2014-08-25,16.44,16.563,16.349,16.554,1357288
2014-08-26,16.525,16.554,16.479,16.497,375698
2014-08-27,16.535,16.563,16.44,16.535,882820
2014-08-28,16.469,16.603,16.242,16.535,566709
2014-08-29,16.593,16.593,16.411,16.505,739056
2014-09-02,16.497,16.583,16.316,16.316,1068076
2014-09-03,16.42,16.515,16.42,16.497,1390198
2014-09-04,16.535,16.677,16.488,16.544,709166
2014-09-05,16.563,16.65,16.497,16.631,633340
2014-09-08,16.554,16.593,16.459,16.505,736969
2014-09-09,16.459,16.544,16.201,16.229,1610738
2014-09-10,16.191,16.42,16.133,16.371,951387
2014-09-11,16.306,16.391,16.191,16.211,647977
2014-09-12,16.181,16.181,15.99,16.057,458581
2014-09-15,16.018,16.077,15.827,15.99,378610
2014-09-16,15.913,16.1,15.894,15.98,427787
2014-09-17,15.98,16.037,15.904,15.943,769763
2014-09-18,15.943,15.99,15.865,15.962,373411
2014-09-19,15.971,16.123,15.933,16.104,475406
2014-09-22,16.028,16.028,15.913,15.953,591344
2014-09-23,15.923,15.99,15.855,15.933,923614
2014-09-24,15.894,15.943,15.799,15.904,358458
2014-09-25,15.836,15.875,15.674,15.702,795909
2014-09-26,15.722,15.953,15.674,15.904,429556
2014-09-29,15.77,15.88,15.692,15.78,1931345
2014-09-30,15.647,15.712,15.368,15.425,1664099
2014-10-01,15.358,15.398,15.072,15.13,1477621
2014-10-02,15.062,15.242,14.852,14.968,871661
2014-10-03,15.091,15.13,15.023,15.072,683327
2014-10-06,15.072,15.196,15.032,15.072,825956
2014-10-07,15.032,15.062,14.65,14.655,575741
2014-10-08,14.604,15.062,14.575,15.052,1032686
2014-10-09,15.015,15.015,14.517,14.595,763500
2014-10-10,14.585,14.627,14.298,14.317,995570
2014-10-13,14.239,14.393,13.876,13.896,713689
2014-10-14,13.905,14.069,13.886,13.944,778132
2014-10-15,13.723,14.074,13.628,13.847,1471542
2014-10-16,13.522,13.828,13.475,13.619,2401184
2014-10-17,13.838,13.896,13.551,13.638,1890094
2014-10-20,13.59,13.801,13.59,13.796,1948776
2014-10-21,13.972,14.402,13.905,14.354,1515424
2014-10-22,14.363,14.412,14.192,14.211,3844705
2014-10-23,14.345,14.555,14.336,14.441,847611
2014-10-24,14.431,14.689,14.431,14.65,834899
2014-10-27,14.641,14.641,14.354,14.412,461017
2014-10-28,14.461,14.48,14.269,14.412,989963
2014-10-29,14.412,14.555,14.354,14.48,664690
2014-10-30,14.431,14.525,14.326,14.402,497583
2014-10-31,14.604,14.689,14.259,14.393,392782
2014-11-03,14.363,14.565,14.363,14.441,365627
2014-11-04,14.345,14.451,14.049,14.096,649613
2014-11-05,14.229,14.345,14.125,14.211,325471
2014-11-06,14.336,14.765,14.307,14.336,1722818
2014-11-07,14.373,14.402,14.163,14.192,1029989
2014-11-10,14.183,14.317,14.125,14.288,307604
2014-11-11,14.317,14.393,14.207,14.269,552861
2014-11-12,14.183,14.456,14.183,14.345,1045028
2014-11-13,14.412,14.412,14.024,14.168,1700518
2014-11-14,14.183,14.358,14.135,14.326,1218907
2014-11-17,14.259,14.407,14.135,14.288,2091339
2014-11-18,14.249,14.345,14.183,14.259,2047785
2014-11-19,14.269,14.363,14.183,14.326,4954194
2014-11-20,13.733,14.211,13.714,14.115,5694314
2014-11-21,14.288,14.336,14.154,14.183,2271632
2014-11-24,14.259,14.446,14.149,14.393,3942200
2014-11-25,14.441,14.471,14.349,14.363,2742689
2014-11-26,14.373,14.565,14.336,14.535,1811212
2014-11-28,14.614,14.614,14.363,14.393,1025004
2014-12-01,14.317,14.517,14.307,14.393,3041806
2014-12-02,14.383,14.614,14.259,14.565,2128978
2014-12-03,14.623,14.623,14.461,14.585,2814616
2014-12-04,14.497,14.604,14.431,14.497,2045303
2014-12-05,14.489,14.585,14.441,14.565,2131580
2014-12-08,14.489,14.618,14.298,14.336,1744970
2014-12-09,14.259,14.451,14.221,14.451,3306579
2014-12-10,14.431,14.431,14.211,14.221,2011567
2014-12-11,14.354,14.398,14.12,14.135,1497102
2014-12-12,14.115,14.135,13.99,14.01,2060330
2014-12-15,14.115,14.115,13.619,13.628,2205178
2014-12-16,13.59,13.925,13.59,13.619,1710413
2014-12-17,13.647,13.791,13.551,13.742,1525221
2014-12-18,13.925,14.01,13.791,13.847,1282420
2014-12-19,13.886,14.039,13.886,13.954,2851737
2014-12-22,14.029,14.229,13.944,14.105,1703961
2014-12-23,14.125,14.407,14.096,14.336,1168906
2014-12-24,14.383,14.383,14.125,14.269,346495
2014-12-26,14.345,14.393,14.293,14.383,515009
2014-12-29,14.402,14.53,14.373,14.471,542569
2014-12-30,14.461,14.575,14.298,14.517,726735
2014-12-31,14.575,14.65,14.412,14.421,673521
2015-01-02,14.471,14.614,14.154,14.326,946311
2015-01-05,14.259,14.259,13.896,14,1065031
2015-01-06,14.01,14.029,13.694,13.838,1251763
2015-01-07,13.935,13.935,13.628,13.781,1123515
2015-01-08,13.886,14.192,13.801,14.096,927489
2015-01-09,14.125,14.283,14.039,14.229,946887
2015-01-12,14.211,14.221,13.99,14.077,561594
2015-01-13,14.154,14.239,13.915,14.059,694793
2015-01-14,13.935,14.02,13.656,13.99,1475113
2015-01-15,14.059,14.059,13.838,13.905,1037201
2015-01-16,13.925,13.981,13.847,13.905,331087
2015-01-20,13.937,13.944,13.628,13.81,874857
2015-01-21,13.733,13.886,13.656,13.81,539276
2015-01-22,13.886,14.125,13.752,14.064,802256
2015-01-23,14.125,14.192,13.962,14.029,845989
2015-01-26,14.029,14.336,13.925,14.326,432291
2015-01-27,14.154,14.393,14.1,14.259,1203722
2015-01-28,14.259,14.317,14.074,14.115,1699743
2015-01-29,14.115,14.154,13.647,13.828,768433
2015-01-30,13.723,14.02,13.656,13.81,2035511
2015-02-02,13.905,13.905,13.656,13.847,914548
2015-02-03,13.905,14.535,13.905,14.471,1239070
2015-02-04,14.393,14.545,14.373,14.451,838368
2015-02-05,14.461,14.614,14.326,14.555,923577
2015-02-06,14.699,15.15,14.699,15.082,1587247
2015-02-09,15.072,15.532,15.072,15.464,1156397
2015-02-10,15.502,15.637,15.135,15.588,2008646
2015-02-11,15.541,15.692,15.512,15.588,1720908
2015-02-12,15.568,15.77,15.558,15.647,457940
2015-02-13,15.692,15.827,15.657,15.692,476921
2015-02-17,15.692,15.846,15.598,15.836,752351
2015-02-18,15.865,15.887,15.684,15.789,661921
2015-02-19,15.789,15.846,15.684,15.827,376490
2015-02-20,15.846,16.028,15.637,15.943,745499
2015-02-23,15.865,16.171,15.865,16.162,1404288
2015-02-24,16.028,16.237,15.99,16.171,1226160
2015-02-25,16.171,16.362,16.171,16.267,937242
2015-02-26,16.201,16.326,16.057,16.123,808784
2015-02-27,16.087,16.201,16.057,16.087,1206385
2015-03-02,16.153,16.326,16.087,16.257,666191
2015-03-03,16.267,16.267,15.962,15.99,745558
2015-03-04,15.953,16.008,15.741,15.894,1242871
2015-03-05,15.998,16.018,15.865,15.923,1267026
2015-03-06,15.904,16.047,15.627,15.692,737608
2015-03-09,15.731,15.836,15.532,15.578,790624
2015-03-10,15.464,15.588,15.205,15.234,1957581
2015-03-11,15.311,15.417,15.186,15.358,1038653
2015-03-12,15.444,15.761,15.444,15.607,562566
2015-03-13,15.647,15.741,15.425,15.674,1540049
2015-03-16,15.722,15.884,15.674,15.855,804531
2015-03-17,15.77,15.77,15.607,15.741,708748
2015-03-18,15.664,15.943,15.578,15.865,964308
2015-03-19,15.799,15.799,15.532,15.684,1124504
2015-03-20,15.741,15.943,15.741,15.819,630428
2015-03-23,15.855,15.953,15.836,15.884,1092087
2015-03-24,15.789,15.923,15.741,15.836,1333634
2015-03-25,15.819,15.875,15.522,15.532,1363646
2015-03-26,15.425,15.474,15.254,15.32,1021924
2015-03-27,15.264,15.388,15.234,15.254,671105
2015-03-30,15.358,15.532,15.311,15.339,490623
2015-03-31,15.234,15.349,15.12,15.176,996201
2015-04-01,15.166,15.274,15.052,15.234,1636040
2015-04-02,15.254,15.358,15.166,15.283,623318
2015-04-06,15.234,15.493,15.176,15.388,295190
2015-04-07,15.378,15.454,15.254,15.254,340094
2015-04-08,15.301,15.464,15.15,15.196,1243813
2015-04-09,15.157,15.254,14.995,15.032,771856
2015-04-10,15.015,15.13,14.995,15.042,472116
2015-04-13,15.062,15.254,15.062,15.244,630846
2015-04-14,15.264,15.329,15.15,15.157,919031
2015-04-15,15.196,15.264,15.12,15.15,663256
2015-04-16,15.12,15.12,14.89,15.015,1451436
2015-04-17,14.948,14.948,14.728,14.814,1181386
2015-04-20,14.862,14.928,14.779,14.804,940323
2015-04-21,14.881,14.928,14.679,14.679,731393
2015-04-22,14.669,14.833,14.595,14.738,2918837
2015-04-23,14.748,14.833,14.632,14.784,1069814
2015-04-24,14.765,14.871,14.659,14.756,485185
2015-04-27,14.833,15.052,14.775,14.794,1846322
2015-04-28,14.756,15.186,14.728,15.166,1579889
2015-04-29,15.072,15.186,14.968,14.977,1712163
2015-04-30,14.899,15.052,14.852,14.89,1919727
2015-05-01,14.986,15.244,14.986,15.234,1300801
2015-05-04,15.196,15.378,15.15,15.368,894248
2015-05-05,15.417,15.464,15.12,15.225,1614396
2015-05-06,14.497,14.555,14.135,14.259,4077162
2015-05-07,14.288,14.298,14.183,14.259,1812185
2015-05-08,14.363,14.451,14.307,14.431,491461
2015-05-11,14.412,15.015,14.363,14.908,2248588
2015-05-12,14.804,14.862,14.431,14.517,1474261
2015-05-13,14.535,14.565,14.421,14.441,1565145
2015-05-14,14.48,14.535,14.354,14.48,1047333
2015-05-15,14.497,14.679,14.451,14.632,844971
2015-05-18,14.575,14.714,14.456,14.679,1243681
2015-05-19,14.709,14.748,14.595,14.719,475670
2015-05-20,14.709,14.756,14.641,14.659,826385
2015-05-21,14.614,14.719,14.575,14.689,423177
2015-05-22,14.65,14.679,14.535,14.575,552214
2015-05-26,14.555,14.641,14.307,14.383,887422
2015-05-27,14.431,14.595,14.345,14.471,801603
2015-05-28,14.421,14.441,14.336,14.436,795302
2015-05-29,14.402,14.471,14.259,14.298,927814
2015-06-01,14.363,14.402,14.211,14.345,628546
2015-06-02,14.288,14.383,14.211,14.259,738500
2015-06-03,14.336,14.373,14.211,14.288,518333
2015-06-04,14.239,14.288,14.049,14.077,633566
2015-06-05,14.087,14.087,13.925,14,816661
2015-06-08,13.954,14.039,13.915,13.935,641513
2015-06-09,13.876,13.962,13.666,13.675,906415
2015-06-10,13.704,13.828,13.628,13.666,1330452
2015-06-11,13.742,13.742,13.595,13.638,898280
2015-06-12,13.619,13.656,13.456,13.56,786964
2015-06-15,13.532,13.57,13.417,13.436,673510
2015-06-16,13.436,13.484,13.38,13.38,569467
2015-06-17,13.38,13.513,13.274,13.341,778391
2015-06-18,13.426,13.694,13.426,13.609,1197281
2015-06-19,13.551,14.02,13.551,13.944,1779819
2015-06-22,14,14.154,13.99,14.039,843117
2015-06-23,14.039,14.154,14.02,14.02,1243062
2015-06-24,14,14.115,13.81,13.838,1803555
2015-06-25,13.847,13.905,13.704,13.714,1452840
2015-06-26,13.781,14.096,13.647,13.981,8825895
2015-06-29,13.905,13.972,13.407,13.417,1304461
2015-06-30,13.475,13.675,13.302,13.619,1628265
2015-07-01,13.723,13.771,13.599,13.675,1112163
2015-07-02,13.733,14.01,13.58,13.59,1147927
2015-07-06,13.436,13.475,13.187,13.226,2725722
2015-07-07,13.226,13.446,13.044,13.417,1505228
2015-07-08,13.331,13.38,13.168,13.207,1103695
2015-07-09,13.312,13.407,13.141,13.149,1069606
2015-07-10,13.246,13.36,13.158,13.226,445346
2015-07-13,13.35,13.466,13.292,13.39,1156813
2015-07-14,13.35,13.426,13.302,13.407,493505
2015-07-15,13.407,13.494,13.341,13.484,860496
2015-07-16,13.58,13.666,13.522,13.666,647787
2015-07-17,13.647,13.791,13.609,13.723,933775
2015-07-20,13.771,13.847,13.685,13.847,597595
2015-07-21,13.801,13.828,13.599,13.619,774311
2015-07-22,13.59,13.733,13.504,13.638,1016590
2015-07-23,13.628,13.781,13.541,13.781,964099
2015-07-24,13.656,13.838,13.59,13.801,1500105
2015-07-27,13.771,13.981,13.675,13.723,1330080
2015-07-28,13.819,13.819,13.39,13.666,720250
2015-07-29,13.638,13.752,13.551,13.714,1513801
2015-07-30,13.656,13.694,13.513,13.666,942350
2015-07-31,13.714,13.819,13.609,13.647,734681
2015-08-03,13.704,13.704,13.385,13.446,1064598
2015-08-04,13.436,13.685,13.407,13.513,658347
2015-08-05,13.599,13.647,13.466,13.58,1085082
2015-08-06,13.599,13.599,12.867,13.112,1631744
2015-08-07,13.044,13.236,12.91,13.226,451203
2015-08-10,13.274,13.446,13.177,13.407,713872
2015-08-11,13.331,13.39,13.044,13.141,1188296
2015-08-12,12.997,13.37,12.89,13.246,1286684
2015-08-13,13.81,14.938,13.81,14.239,1790589
2015-08-14,14.202,14.354,14.173,14.259,1424294
2015-08-17,14.229,14.431,14.229,14.402,1304670
2015-08-18,14.345,14.431,14.269,14.326,1045870
2015-08-19,14.326,14.373,14.096,14.239,936180
2015-08-20,14.105,14.135,13.532,13.551,1079122
2015-08-21,13.484,13.628,13.246,13.266,2209062
2015-08-24,12.547,12.671,12.069,12.471,3413962
2015-08-25,12.796,13.083,12.527,12.595,4345869
2015-08-26,12.89,12.997,12.453,12.844,2393517
2015-08-27,12.987,13.266,12.89,13.207,1657894
2015-08-28,13.149,13.484,13.149,13.407,1359777
2015-08-31,13.321,13.331,13.073,13.226,1302684
2015-09-01,12.987,13.006,12.633,12.729,2667584
2015-09-02,12.872,13.149,12.614,12.748,2162531
2015-09-03,12.748,13.141,12.661,12.987,1324016
2015-09-04,12.796,12.863,12.48,12.517,1270373
2015-09-08,12.757,12.92,12.681,12.872,1577065
2015-09-09,12.969,13.063,12.72,12.748,1375147
2015-09-10,12.711,12.796,12.537,12.577,1387883
2015-09-11,12.508,12.587,12.443,12.577,1010525
2015-09-14,12.587,12.595,12.363,12.432,1280740
2015-09-15,12.461,12.577,12.344,12.507,971918
2015-09-16,12.517,12.587,12.382,12.517,1081111
2015-09-17,12.488,12.981,12.392,12.672,3321534
2015-09-18,12.778,12.778,12.325,12.363,19501239
2015-09-21,12.412,12.739,12.392,12.432,2229308
2015-09-22,12.267,12.537,12.228,12.442,3160134
2015-09-23,12.432,12.47,12.267,12.363,1366662
2015-09-24,12.248,12.484,12.248,12.412,1189552
2015-09-25,12.527,12.527,12.325,12.392,1297862
2015-09-28,12.527,12.527,11.977,11.987,1843752
2015-09-29,12.017,12.143,11.882,11.969,1119168
2015-09-30,12.161,12.363,11.969,12.353,1187347
2015-10-01,12.382,12.595,12.19,12.402,1336569
2015-10-02,11.806,12.662,11.796,12.662,1462027
2015-10-05,12.778,13.028,12.739,12.99,1187771
2015-10-06,12.952,13.153,12.893,13.057,1731313
2015-10-07,13.077,13.327,13.028,13.192,1684720
2015-10-08,13.163,13.588,13.163,13.588,1490669
2015-10-09,13.578,13.646,13.396,13.598,1048397
2015-10-12,13.578,13.684,13.491,13.578,756326
2015-10-13,13.539,13.693,13.463,13.52,528401
2015-10-14,13.549,13.732,13.463,13.674,865449
2015-10-15,13.703,13.936,13.578,13.926,1064377
2015-10-16,13.982,14.166,13.665,14.137,690388
2015-10-19,14.041,14.232,14.001,14.223,963823
2015-10-20,14.214,14.282,14.107,14.252,631550
2015-10-21,14.282,14.311,13.886,13.896,859120
2015-10-22,14.001,14.321,13.896,14.301,1024945
2015-10-23,14.367,14.61,14.282,14.601,1136499
2015-10-26,14.601,14.647,14.079,14.311,864722
2015-10-27,14.223,14.272,14.021,14.195,1344974
2015-10-28,14.292,14.484,14.107,14.476,1545978
2015-10-29,14.436,14.686,14.107,14.619,1026813
2015-10-30,14.656,14.947,14.476,14.917,1471471
2015-11-02,14.907,15.167,14.696,15.12,1102475
2015-11-03,15.052,15.15,14.869,15.004,927193
2015-11-04,15.062,15.101,14.831,15.042,1387292
2015-11-05,15.004,15.052,14.792,14.831,1205715
2015-11-06,14.86,15.032,14.262,14.591,1765973
2015-11-09,14.512,14.512,13.982,14.147,1851582
2015-11-10,14.098,14.186,13.963,14.107,871986
2015-11-11,14.147,14.214,13.955,14.061,1169394
2015-11-12,13.926,14.195,13.732,13.761,1342691
2015-11-13,13.751,13.751,13.423,13.453,1470224
2015-11-16,13.463,13.761,13.376,13.741,988106
2015-11-17,13.723,13.906,13.491,13.713,702944
2015-11-18,13.781,13.847,13.674,13.838,703981
2015-11-19,13.838,13.876,13.646,13.741,1153103
2015-11-20,13.81,13.945,13.723,13.896,946079
2015-11-23,13.896,14.098,13.741,13.936,596059
2015-11-24,13.876,14.079,13.847,14.071,731377
2015-11-25,14.089,14.098,13.955,14.071,567522
2015-11-27,14.079,14.127,13.801,13.847,296784
2015-11-30,13.866,13.991,13.761,13.936,1105989
2015-12-01,14.031,14.262,13.982,14.242,648481
2015-12-02,14.232,14.262,14.021,14.079,758559
2015-12-03,14.079,14.156,13.327,13.53,1975938
2015-12-04,13.568,13.801,13.453,13.791,858911
2015-12-07,13.741,13.791,13.588,13.655,895439
2015-12-08,13.482,13.52,13.256,13.288,710973
2015-12-09,13.212,13.558,13.192,13.317,1221591
2015-12-10,13.28,13.703,13.28,13.598,902702
2015-12-11,13.366,13.443,13.106,13.163,632068
2015-12-14,13.222,13.251,12.99,13.145,1233674
2015-12-15,13.27,13.491,13.182,13.308,908618
2015-12-16,13.386,13.655,13.327,13.568,1038435
2015-12-17,13.588,13.646,13.251,13.251,1008964
2015-12-18,13.182,13.288,13.057,13.126,2218309
2015-12-21,13.212,13.347,13.067,13.327,1609176
2015-12-22,13.386,13.433,13.207,13.347,1046137
2015-12-23,13.473,13.791,13.433,13.732,1602844
2015-12-24,13.741,13.926,13.703,13.713,472583
2015-12-28,13.626,13.923,13.376,13.549,507719
2015-12-29,13.626,13.819,13.626,13.771,668554
2015-12-30,13.703,13.847,13.549,13.588,539992
2015-12-31,13.52,13.588,13.433,13.453,521737
2016-01-04,13.212,13.226,13.053,13.172,1376068
2016-01-05,13.163,13.212,12.587,12.633,2058267
2016-01-06,12.432,12.831,12.353,12.749,1384777
2016-01-07,12.488,12.647,12.432,12.537,1775484
2016-01-08,12.643,12.672,12.432,12.537,1350337
2016-01-11,12.595,12.623,12.046,12.2,1796746
2016-01-12,12.325,12.432,12.181,12.358,699774
2016-01-13,12.412,12.479,12.007,12.075,801970
2016-01-14,12.123,12.692,12.085,12.614,1108209
2016-01-15,12.228,12.567,12.151,12.344,1533690
2016-01-19,12.497,12.497,12.027,12.267,1105471
2016-01-20,12.094,12.171,11.689,12.027,1514100
2016-01-21,12.055,12.442,11.94,12.258,580488
2016-01-22,12.488,12.595,12.402,12.567,1045419
2016-01-25,12.497,12.577,12.316,12.358,728673
2016-01-26,12.442,12.702,12.316,12.682,728738
2016-01-27,12.623,12.846,12.517,12.587,602485
2016-01-28,12.739,12.817,12.432,12.697,535119
2016-01-29,12.768,12.903,12.712,12.864,608449
2016-02-01,12.712,12.846,12.407,12.643,812362
2016-02-02,12.507,12.507,12.047,12.113,860253
2016-02-03,12.238,12.382,11.902,12.228,1587350
2016-02-04,12.2,12.517,12.2,12.316,2159370
2016-02-05,11.912,11.912,11.092,11.486,5520355
2016-02-08,11.304,11.381,10.563,10.85,2747675
2016-02-09,10.678,10.875,10.563,10.687,1911495
2016-02-10,10.715,10.985,10.707,10.725,1394150
2016-02-11,10.715,10.715,10.344,10.493,1018879
2016-02-12,10.638,10.88,10.629,10.86,2214232
2016-02-16,11.043,11.237,10.899,11.121,1189742
2016-02-17,11.255,11.41,11.088,11.178,1143503
2016-02-18,11.217,11.217,11.015,11.033,907997
2016-02-19,11.033,11.255,10.918,11.168,1892010
2016-02-22,11.313,11.39,11.217,11.323,578555
2016-02-23,11.255,11.41,11.178,11.198,1410196
2016-02-24,11.023,11.149,10.967,11.131,659668
2016-02-25,11.149,11.168,10.889,11.073,770827
2016-02-26,11.149,11.232,11.043,11.158,450951
2016-02-29,11.158,11.203,10.995,10.995,703215
2016-03-01,11.073,11.112,10.889,10.985,846234
2016-03-02,10.948,11.158,10.938,11.149,603875
2016-03-03,11.149,11.178,11.005,11.158,738301
2016-03-04,11.217,11.381,11.073,11.304,1205826
2016-03-07,11.255,11.649,11.255,11.615,571879
2016-03-08,11.576,11.615,11.246,11.265,799177
2016-03-09,11.333,11.683,11.304,11.508,1098180
2016-03-10,11.527,11.576,11.226,11.401,815319
2016-03-11,11.527,12.053,11.372,12.053,707372
2016-03-14,12.003,12.043,11.702,11.809,839460
2016-03-15,11.712,11.974,11.625,11.946,1345972
2016-03-16,11.926,12.437,11.875,12.422,4072875
2016-03-17,12.432,12.902,12.432,12.732,927036
2016-03-18,12.791,12.907,12.513,12.548,1237224
2016-03-21,12.538,12.684,12.47,12.645,530545
2016-03-22,12.558,12.849,12.558,12.83,1007555
2016-03-23,12.811,12.922,12.645,12.654,1843179
2016-03-24,12.548,12.694,12.461,12.684,681932
2016-03-28,12.742,13.014,12.674,12.985,805277
2016-03-29,12.947,13.073,12.806,13.023,393091
2016-03-30,13.083,13.109,12.761,12.878,924784
2016-03-31,12.887,12.995,12.82,12.878,492175
2016-04-01,12.771,13.169,12.635,13.15,518517
2016-04-04,13.132,13.132,12.835,12.84,867280
2016-04-05,12.694,12.82,12.645,12.684,516841
2016-04-06,12.714,12.902,12.588,12.878,931964
2016-04-07,12.82,12.873,12.523,12.625,1050342
2016-04-08,12.723,12.723,12.367,12.412,1345164
2016-04-11,12.422,12.538,12.362,12.362,428534
2016-04-12,12.402,12.616,12.392,12.548,447358
2016-04-13,12.606,12.732,12.568,12.723,581129
2016-04-14,12.781,12.947,12.781,12.811,752305
2016-04-15,12.801,12.82,12.635,12.732,501976
2016-04-18,12.664,12.723,12.518,12.558,786795
2016-04-19,12.558,12.747,12.461,12.616,402274
2016-04-20,12.616,12.752,12.596,12.606,464744
2016-04-21,12.625,12.976,12.625,12.84,621473
2016-04-22,12.82,12.995,12.82,12.927,756465
2016-04-25,12.907,12.927,12.654,12.714,634587
2016-04-26,12.714,12.957,12.654,12.897,568191
2016-04-27,12.887,13.014,12.723,12.82,707707
2016-04-28,12.723,12.937,12.645,12.694,596985
2016-04-29,12.664,12.723,12.402,12.593,620215
2016-05-02,12.616,12.878,12.578,12.811,622347
2016-05-03,12.684,12.742,12.412,12.47,632879
2016-05-04,12.392,12.47,12.286,12.334,724273
2016-05-05,12.412,12.412,12.266,12.372,395227
2016-05-06,12.372,12.811,12.062,12.791,1131834
2016-05-09,12.732,12.771,12.218,12.372,624891
2016-05-10,12.432,12.442,12.269,12.412,503680
2016-05-11,12.315,12.377,12.169,12.276,948394
2016-05-12,12.306,12.32,11.96,12.003,719188
2016-05-13,11.965,12.072,11.702,11.712,746084
2016-05-16,11.761,11.867,11.712,11.838,724540
2016-05-17,11.781,11.978,11.741,11.751,623601
2016-05-18,11.692,11.761,11.435,11.663,1601822
2016-05-19,11.615,11.692,11.566,11.605,1067174
2016-05-20,11.663,11.974,11.498,11.907,903612
2016-05-23,11.926,12.033,11.761,11.781,619993
2016-05-24,11.838,11.892,11.771,11.877,664217
2016-05-25,11.907,12.12,11.907,12.062,510127
2016-05-26,12.053,12.11,11.887,11.897,634348
2016-05-27,11.897,11.983,11.849,11.955,698370
2016-05-31,11.955,12.003,11.857,11.993,1166911
2016-06-01,11.955,12.082,11.867,12.043,1652700
2016-06-02,12.033,12.1,11.946,12.1,1274773
2016-06-03,12.053,12.1,11.8,11.993,591698
2016-06-06,12.003,12.203,12.003,12.169,515285
2016-06-07,12.169,12.169,11.838,11.887,843910
2016-06-08,11.877,11.974,11.818,11.887,792926
2016-06-09,11.847,11.867,11.683,11.79,1152958
2016-06-10,11.663,11.712,11.367,11.508,1000433
2016-06-13,11.46,11.731,11.46,11.556,565278
2016-06-14,11.537,11.615,11.304,11.45,689763
2016-06-15,11.469,11.847,11.469,11.653,665164
2016-06-16,11.625,11.625,11.313,11.391,758051
2016-06-17,11.401,11.411,11.236,11.289,619257
2016-06-20,11.45,11.556,11.372,11.44,423739
2016-06-21,11.45,11.556,11.294,11.527,686865
2016-06-22,11.527,11.813,11.508,11.717,1003260
2016-06-23,11.857,12.048,11.771,11.857,668303
2016-06-24,11.372,11.372,11.134,11.177,1176650
2016-06-27,11.012,11.041,10.594,10.633,1049666
2016-06-28,10.702,10.808,10.623,10.711,1354408
2016-06-29,10.838,11.197,10.633,11.197,1178888
2016-06-30,11.236,11.391,11.197,11.342,680528
2016-07-01,11.372,11.581,11.313,11.44,457250
2016-07-05,11.391,11.46,11.192,11.323,1430125
2016-07-06,11.313,11.372,11.177,11.347,1254712
2016-07-07,11.362,11.571,11.362,11.45,967059
2016-07-08,11.605,11.8,11.586,11.702,1147817
2016-07-11,11.731,11.946,11.731,11.907,576589
2016-07-12,12.1,12.276,12.013,12.236,805797
2016-07-13,12.324,12.392,12.236,12.382,610276
2016-07-14,12.528,12.635,12.334,12.47,526309
2016-07-15,12.538,12.538,12.1,12.442,842142
2016-07-18,12.47,12.674,12.412,12.568,569745
2016-07-19,12.568,12.645,12.447,12.616,900312
2016-07-20,12.654,12.737,12.558,12.664,1063211
2016-07-21,12.664,12.694,12.488,12.538,919178
2016-07-22,12.588,12.723,12.588,12.664,959898
2016-07-25,12.684,12.761,12.578,12.694,596320
2016-07-26,12.723,12.927,12.723,12.868,1009427
2016-07-27,12.859,12.937,12.674,12.791,1142102
2016-07-28,12.791,12.849,12.699,12.791,543417
2016-07-29,12.801,13.102,12.791,13.073,912086
2016-08-01,13.053,13.112,12.878,12.937,698361
2016-08-02,12.897,12.897,12.664,12.771,542777
2016-08-03,12.723,12.84,12.684,12.742,440663
2016-08-04,12.714,12.859,12.714,12.83,536727
2016-08-05,12.957,13.112,12.859,12.907,617674
2016-08-08,12.927,12.995,12.83,12.868,496038
2016-08-09,12.907,13.49,12.752,13.384,1061385
2016-08-10,13.374,13.411,13.159,13.345,990055
2016-08-11,13.394,13.607,13.228,13.5,906344
2016-08-12,13.53,13.656,13.53,13.647,632478
2016-08-15,13.753,13.83,13.714,13.763,426476
2016-08-16,13.694,13.83,13.666,13.763,741159
2016-08-17,13.753,13.83,13.733,13.783,1024249
2016-08-18,13.803,13.889,13.694,13.753,1119268
2016-08-19,13.704,13.763,13.637,13.709,745101
2016-08-22,13.743,13.83,13.588,13.83,1003507
2016-08-23,13.899,13.948,13.783,13.821,572061
2016-08-24,13.812,13.899,13.803,13.812,1138489
2016-08-25,13.753,13.899,13.685,13.83,1101941
2016-08-26,13.909,14.055,13.783,13.939,836547
2016-08-29,13.995,14.065,13.909,13.976,739991
2016-08-30,13.939,14,13.83,13.948,456833
2016-08-31,13.939,14.035,13.783,14.025,871040
2016-09-01,14.093,14.093,13.773,13.909,1382899
2016-09-02,13.976,13.995,13.733,13.849,1620174
2016-09-06,13.909,14.238,13.568,13.637,1377201
2016-09-07,13.656,13.723,13.598,13.685,1141469
2016-09-08,13.607,14,13.607,13.773,1421517
2016-09-09,13.743,13.743,13.354,13.354,919098
2016-09-12,13.208,14.207,13.208,14.197,3444045
2016-09-13,14,14.07,13.844,13.952,7771326
2016-09-14,14.04,14.055,13.863,14.04,5790099
2016-09-15,14.06,14.07,13.824,13.873,4460933
2016-09-16,13.776,13.868,13.677,13.707,3229181
2016-09-19,13.707,13.824,13.649,13.707,1378147
2016-09-20,13.824,13.853,13.707,13.776,1484096
2016-09-21,13.844,14.03,13.766,13.981,924765
2016-09-22,14.079,14.255,14.02,14.225,939181
2016-09-23,14.225,14.334,14.167,14.167,335608
2016-09-26,14.04,14.079,13.844,13.893,782431
2016-09-27,13.893,14.02,13.844,14.02,524311
2016-09-28,13.99,14.094,13.898,13.972,1678495
2016-09-29,13.952,14.099,13.761,13.834,1813682
2016-09-30,13.893,14.07,13.873,13.933,1977124
2016-10-03,13.834,14.696,13.834,14.617,4991941
2016-10-04,14.569,14.676,14.352,14.382,5491523
2016-10-05,14.362,14.901,14.324,14.852,4859470
2016-10-06,14.745,14.862,14.422,14.764,5409851
2016-10-07,14.774,14.784,14.148,14.216,1312932
2016-10-10,14.197,14.437,13.853,13.952,1405325
2016-10-11,14,14,13.56,13.707,831570
2016-10-12,13.658,13.756,13.463,13.463,881887
2016-10-13,13.413,13.658,13.291,13.56,567082
2016-10-14,14,14,13.364,13.463,583969
2016-10-17,13.463,13.511,13.34,13.511,410247
2016-10-18,13.707,13.756,13.364,13.609,697722
2016-10-19,13.707,13.806,13.511,13.707,650290
2016-10-20,13.952,13.952,13.218,13.511,758180
2016-10-21,13.316,13.56,13.267,13.413,483978
2016-10-24,13.463,13.56,12.924,12.924,2241443
2016-10-25,13.021,13.413,12.63,12.728,767430
2016-10-26,12.63,12.973,12.63,12.874,726910
2016-10-27,12.728,12.728,12.165,12.336,1374398
2016-10-28,12.336,12.532,12.19,12.238,792572
2016-10-31,12.238,12.435,12.141,12.141,1389242
2016-11-01,12.238,12.435,11.945,12.141,990535
2016-11-02,12.141,12.19,11.798,11.846,986682
2016-11-03,11.846,12.141,11.798,11.896,1139391
2016-11-04,11.993,12.141,11.846,11.896,1207721
2016-11-07,12.043,12.336,11.945,12.238,614688
2016-11-08,11.259,11.945,11.014,11.846,1294796
2016-11-09,11.749,12.288,11.602,12.092,736541
2016-11-10,12.092,12.288,11.798,12.092,1144229
2016-11-11,11.945,12.19,11.896,12.092,1248198
2016-11-14,12.092,12.435,11.993,12.238,1298282
2016-11-15,12.19,12.336,12.043,12.092,685965
2016-11-16,11.993,12.19,11.798,12.092,838027
2016-11-17,12.092,12.238,11.993,12.092,448233
2016-11-18,12.043,12.141,11.896,11.945,483674
2016-11-21,11.945,11.993,11.749,11.798,748725
2016-11-22,11.749,11.896,11.651,11.798,676882
2016-11-23,11.798,11.896,11.7,11.846,510292
2016-11-25,11.945,12.067,11.846,11.846,380979
2016-11-28,11.896,12.067,11.798,11.846,959867
2016-11-29,11.798,11.896,11.504,11.651,689516
2016-11-30,11.651,11.774,11.528,11.7,501415
2016-12-01,11.7,11.896,11.602,11.749,542369
2016-12-02,11.798,11.896,11.749,11.798,1052996
2016-12-05,11.798,11.896,11.7,11.798,711455
2016-12-06,11.798,11.896,11.7,11.798,1231556
2016-12-07,11.798,11.993,11.749,11.896,1578545
2016-12-08,11.896,12.092,11.846,11.945,1225103
2016-12-09,11.945,12.238,11.945,12.19,629061
2016-12-12,12.043,12.214,12.043,12.043,1079076
2016-12-13,12.092,12.288,11.896,11.993,2611164
2016-12-14,11.993,12.165,11.896,11.945,890359
2016-12-15,11.993,12.141,11.724,11.798,732814
2016-12-16,11.846,11.945,11.602,11.749,1257153
2016-12-19,11.749,11.896,11.7,11.896,475417
2016-12-20,11.896,11.945,11.651,11.7,983329
2016-12-21,11.749,11.871,11.602,11.846,697924
2016-12-22,11.798,11.896,11.7,11.798,313667
2016-12-23,11.846,11.896,11.749,11.798,182356
2016-12-27,11.846,11.993,11.846,11.993,302034
2016-12-28,11.993,12.043,11.749,11.798,378997
2016-12-29,11.749,11.846,11.602,11.798,699816
2016-12-30,11.896,11.896,11.504,11.553,562708
2017-01-03,11.7,11.993,11.651,11.798,924335
2017-01-04,11.798,12.043,11.798,11.993,576405
2017-01-05,11.945,12.092,11.921,11.993,802746
2017-01-06,11.993,12.141,11.846,11.993,373623
2017-01-09,11.993,12.19,11.993,12.141,479945
2017-01-10,12.092,12.238,12.018,12.19,588935
2017-01-11,12.19,12.288,12.067,12.288,801378
2017-01-12,12.238,12.336,12.043,12.19,1179619
2017-01-13,12.19,12.312,12.141,12.19,384048
2017-01-17,12.141,12.46,12.043,12.435,538166
2017-01-18,12.435,12.435,12.141,12.288,705533
2017-01-19,12.288,12.336,12.141,12.238,431794
2017-01-20,12.19,12.288,12.092,12.092,488907
2017-01-23,12.092,12.19,12.043,12.141,475008
2017-01-24,12.092,12.37,12.043,12.336,312413
2017-01-25,12.336,12.532,12.288,12.435,743225
2017-01-26,12.482,12.532,12.238,12.288,428044
2017-01-27,12.288,12.435,12.238,12.385,625934
2017-01-30,12.435,12.435,12.19,12.435,427122
2017-01-31,12.435,12.435,12.141,12.385,428352
2017-02-01,12.385,12.482,12.238,12.435,361843
2017-02-02,12.435,12.435,12.238,12.288,252313
2017-02-03,12.336,12.385,12.238,12.336,286052
2017-02-06,12.336,12.435,12.288,12.288,183192
2017-02-07,12.288,12.336,12.141,12.288,392813
2017-02-08,12.288,12.288,12.092,12.19,282817
2017-02-09,12.141,12.482,12.141,12.482,489901
2017-02-10,12.238,13.463,12.238,13.316,761136
2017-02-13,13.413,13.511,13.071,13.071,667223
2017-02-14,13.12,13.218,12.973,13.071,568315
2017-02-15,12.924,13.242,12.924,13.168,1506516
2017-02-16,13.168,13.218,12.997,13.12,566164
2017-02-17,13.12,13.267,12.924,13.218,612226
2017-02-21,13.218,13.511,13.12,13.364,837898
2017-02-22,13.364,13.364,13.12,13.316,396746
2017-02-23,13.364,13.364,13.096,13.218,432192
2017-02-24,13.218,13.218,12.949,13.12,279418
2017-02-27,13.12,13.218,13.021,13.12,524033
2017-02-28,13.071,13.12,12.826,12.899,467183
2017-03-01,13.021,13.218,12.973,13.12,350043
2017-03-02,13.12,13.168,12.874,12.973,462126
2017-03-03,12.973,12.973,12.826,12.973,309169
2017-03-06,12.874,13.021,12.826,12.973,332977
2017-03-07,12.924,13.12,12.63,12.728,444232
2017-03-08,12.63,12.777,12.507,12.532,464072
2017-03-09,12.63,12.63,12.39,12.532,394661
2017-03-10,12.582,12.63,12.288,12.532,287607
2017-03-13,12.532,12.582,12.359,12.384,447305
2017-03-14,12.384,12.532,12.334,12.532,298877
2017-03-15,12.582,12.779,12.434,12.729,391713
2017-03-16,12.631,12.804,12.631,12.729,278152
2017-03-17,12.779,12.877,12.68,12.779,495170
2017-03-20,12.828,12.828,12.655,12.729,213510
2017-03-21,12.828,12.877,12.631,12.68,619091
2017-03-22,12.779,12.779,12.582,12.779,601298
2017-03-23,12.779,12.853,12.68,12.779,814814
2017-03-24,12.828,12.902,12.705,12.779,514530
2017-03-27,12.729,12.877,12.68,12.779,560227
2017-03-28,12.779,13.125,12.779,13.075,553121
2017-03-29,13.075,13.321,13.025,13.272,787623
2017-03-30,13.321,13.618,13.223,13.519,2170676
2017-03-31,13.519,13.519,13.149,13.321,500451
2017-04-03,13.371,13.371,13.025,13.075,452256
2017-04-04,13.075,13.173,12.927,12.977,572638
2017-04-05,12.977,13.025,12.754,12.877,440874
2017-04-06,12.828,12.917,12.68,12.828,298605
2017-04-07,12.729,12.779,12.68,12.729,161353
2017-04-10,12.729,12.877,12.68,12.729,290969
2017-04-11,12.68,12.779,12.631,12.68,387419
2017-04-12,12.729,12.828,12.655,12.779,418090
2017-04-13,12.68,12.779,12.532,12.532,320899
2017-04-17,12.631,12.729,12.532,12.68,271162
2017-04-18,12.68,12.68,12.434,12.532,336836
2017-04-19,12.582,12.779,12.582,12.68,248131
2017-04-20,12.68,13.272,12.68,13.173,462378
2017-04-21,13.125,13.223,12.952,13.125,455556
2017-04-24,13.223,13.272,13.125,13.173,1108023
2017-04-25,13.223,13.321,13.173,13.272,202675
2017-04-26,13.223,13.321,13.075,13.075,721934
2017-04-27,13.125,13.198,13.025,13.025,531075
2017-04-28,13.075,13.075,12.729,12.828,906193
2017-05-01,12.877,12.927,12.753,12.828,237593
2017-05-02,12.828,12.877,12.729,12.729,320498
2017-05-03,12.68,12.779,12.582,12.68,376064
2017-05-04,12.729,12.729,12.582,12.68,352125
2017-05-05,12.631,12.828,12.631,12.828,195946
2017-05-08,12.779,12.927,12.779,12.927,374062
2017-05-09,12.977,13.223,12.927,13.173,797312
2017-05-10,12.779,13.42,12.482,12.877,692455
2017-05-11,12.877,12.977,12.705,12.828,561688
2017-05-12,12.828,12.927,12.779,12.877,399924
2017-05-15,12.877,13.149,12.877,13.125,303540
2017-05-16,13.075,13.173,13.025,13.125,337458
2017-05-17,13.025,13.075,12.852,12.877,489084
2017-05-18,12.927,13,12.798,12.877,555465
2017-05-19,12.877,13.05,12.828,13.025,234019
2017-05-22,13.025,13.371,13.025,13.371,217020
2017-05-23,13.371,13.494,13.223,13.321,309288
2017-05-24,13.371,13.47,13.321,13.47,232453
2017-05-25,13.47,13.519,13.371,13.42,190325
2017-05-26,13.42,13.618,13.42,13.618,318788
2017-05-30,13.618,13.618,13.371,13.47,247979
2017-05-31,13.519,13.568,13.297,13.519,333908
2017-06-01,13.519,13.815,13.519,13.815,426882
2017-06-02,13.766,13.864,13.618,13.766,1207663
2017-06-05,13.766,13.864,13.618,13.618,1377150
2017-06-06,13.667,13.766,13.519,13.691,1321892
2017-06-07,13.815,13.815,13.568,13.618,1325105
2017-06-08,13.568,13.766,13.371,13.766,418763
2017-06-09,13.766,13.914,13.643,13.914,295323
2017-06-12,13.864,14.062,13.815,13.864,257700
2017-06-13,13.864,13.939,13.741,13.766,204351
2017-06-14,13.864,13.914,13.716,13.815,973427
2017-06-15,13.815,13.889,13.716,13.864,259051
2017-06-16,13.914,14.062,13.815,13.963,825995
2017-06-19,13.963,14.111,13.963,14.062,193593
2017-06-20,14.062,14.062,13.766,13.815,417612
2017-06-21,13.815,13.914,13.716,13.766,331415
2017-06-22,13.766,13.864,13.568,13.766,197846
2017-06-23,13.716,13.914,13.618,13.864,544154
2017-06-26,13.864,13.963,13.766,13.914,200606
2017-06-27,13.914,14.062,13.815,13.914,380160
2017-06-28,13.963,14.21,13.963,14.111,377624
2017-06-29,14.111,14.21,13.643,13.864,513958
2017-06-30,13.914,14.012,13.815,13.963,219177
2017-07-03,14.111,14.16,13.914,14.111,229236
2017-07-05,14.111,14.111,13.914,13.963,277405
2017-07-06,13.914,13.914,13.47,13.47,369972
2017-07-07,13.519,13.667,13.42,13.568,477914
2017-07-10,13.519,13.667,13.346,13.371,291854
2017-07-11,13.47,13.593,13.321,13.568,317139
2017-07-12,13.618,13.667,13.42,13.42,304977
2017-07-13,13.42,13.568,13.42,13.519,252402
2017-07-14,13.519,13.864,13.494,13.815,489162
2017-07-17,13.815,14.062,13.766,13.914,399781
2017-07-18,13.864,13.939,13.766,13.864,200039
2017-07-19,13.914,14.234,13.914,14.16,211094
2017-07-20,14.21,14.357,14.111,14.16,228519
2017-07-21,14.062,14.357,14.062,14.259,514696
2017-07-24,14.21,14.309,14.16,14.259,354493
2017-07-25,14.357,14.407,14.062,14.357,381624
2017-07-26,14.457,14.555,14.407,14.407,316206
2017-07-27,14.457,14.605,14.457,14.505,413002
2017-07-28,14.457,14.703,14.457,14.605,284882
2017-07-31,14.605,14.654,14.457,14.505,220742
2017-08-01,14.605,14.703,14.505,14.654,423777
2017-08-02,14.605,14.605,14.407,14.555,600766
2017-08-03,14.555,14.605,14.259,14.407,247803
2017-08-04,14.407,14.505,14.309,14.407,378475
2017-08-07,14.357,14.654,14.357,14.605,188702
2017-08-08,14.555,14.555,14.309,14.407,293564
2017-08-09,14.407,14.457,14.21,14.357,246395
2017-08-10,14.357,14.357,13.766,13.815,692344
2017-08-11,14.062,14.21,13.593,13.618,316867
2017-08-14,13.766,13.815,13.519,13.618,371598
2017-08-15,13.716,13.716,13.47,13.519,259959
2017-08-16,13.568,13.667,13.42,13.47,571488
2017-08-17,13.47,13.691,13.42,13.47,373613
2017-08-18,13.42,13.667,13.297,13.568,737733
2017-08-21,13.519,13.618,13.42,13.568,478081
2017-08-22,13.568,13.667,13.519,13.618,249069
2017-08-23,13.519,13.543,13.321,13.321,454184
2017-08-24,13.42,13.42,13.272,13.42,275256
2017-08-25,13.47,13.667,13.371,13.568,225026
2017-08-28,13.618,13.667,13.47,13.618,301043
2017-08-29,13.47,13.568,13.42,13.519,283489
2017-08-30,13.47,13.568,13.321,13.42,627196
2017-08-31,13.42,13.568,13.42,13.519,404155
2017-09-01,13.519,13.667,13.519,13.618,604719
2017-09-05,13.568,13.618,13.321,13.371,682673
2017-09-06,13.42,13.618,13.371,13.47,509624
2017-09-07,13.519,13.716,13.519,13.618,459241
2017-09-08,13.618,13.716,13.223,13.223,636676
2017-09-11,13.371,13.519,13.272,13.47,287900
2017-09-12,13.47,13.569,13.345,13.42,1068157
2017-09-13,13.519,13.519,13.022,13.221,655215
2017-09-14,13.221,13.37,13.122,13.271,873144
2017-09-15,13.171,13.47,13.171,13.37,1306178
2017-09-18,13.42,13.47,13.271,13.37,433930
2017-09-19,13.37,13.42,13.221,13.42,602096
2017-09-20,13.42,13.519,13.37,13.519,645900
2017-09-21,13.42,13.494,13.271,13.37,538079
2017-09-22,13.32,13.42,13.246,13.32,180260
2017-09-25,13.37,13.519,13.271,13.519,330303
2017-09-26,13.519,13.519,13.271,13.32,723777
2017-09-27,13.271,13.569,13.271,13.519,444669
2017-09-28,13.42,13.718,13.32,13.619,1021105
2017-09-29,13.519,13.569,13.42,13.519,362338
2017-10-02,13.569,13.668,13.47,13.619,359523
2017-10-03,13.619,13.718,13.47,13.619,283494
2017-10-04,13.619,13.718,13.519,13.619,288886
2017-10-05,13.619,13.718,13.544,13.619,495376
2017-10-06,13.569,13.644,13.47,13.569,287018
2017-10-09,13.569,13.569,13.42,13.47,137336
2017-10-10,13.569,13.768,13.519,13.768,811265
2017-10-11,13.718,13.718,13.569,13.668,175283
2017-10-12,13.619,13.818,13.619,13.768,216006
2017-10-13,13.867,13.991,13.718,13.967,198967
2017-10-16,13.917,14.016,13.818,13.967,269949
2017-10-17,13.917,13.917,13.768,13.867,157914
2017-10-18,13.867,14.016,13.818,14.016,570390
2017-10-19,13.917,13.917,13.768,13.818,203356
2017-10-20,13.967,14.016,13.867,14.016,460003
2017-10-23,13.967,14.016,13.867,13.917,288105
2017-10-24,13.867,13.967,13.818,13.867,544855
2017-10-25,13.867,13.967,13.718,13.917,442121
2017-10-26,13.917,14.066,13.842,13.917,477658
2017-10-27,13.818,13.967,13.718,13.867,544348
2017-10-30,13.818,14.066,13.818,14.066,247259
2017-10-31,14.016,14.016,13.818,13.818,268977
2017-11-01,13.917,14.116,13.818,13.967,449973
2017-11-02,13.917,14.066,13.768,13.967,478591
2017-11-03,13.967,14.116,13.917,14.116,301547
2017-11-06,14.066,14.513,14.066,14.464,349051
2017-11-07,14.414,14.613,14.29,14.315,374656
2017-11-08,14.315,14.414,14.215,14.364,373786
2017-11-09,14.315,14.762,14.265,14.662,528632
2017-11-10,15.06,16.104,14.911,15.458,941573
2017-11-13,15.408,15.657,15.209,15.507,493925
2017-11-14,15.408,15.706,15.259,15.458,398502
2017-11-15,15.507,15.507,15.333,15.458,342212
2017-11-16,15.507,15.955,15.408,15.93,370426
2017-11-17,15.855,16.178,15.806,16.104,1225116
2017-11-20,16.054,16.054,15.781,15.855,737447
2017-11-21,15.855,15.955,15.781,15.855,2847004
2017-11-22,15.905,15.905,15.756,15.806,1887588
2017-11-24,15.855,15.905,15.688,15.806,198616
2017-11-27,15.905,15.905,15.756,15.855,670750
2017-11-28,15.756,16.253,15.756,16.253,800165
2017-11-29,16.104,16.477,16.104,16.352,971812
2017-11-30,16.203,16.501,16.154,16.228,917520
2017-12-01,16.402,16.402,15.955,16.352,769478
2017-12-04,16.352,16.949,16.253,16.651,1113200
2017-12-05,16.7,16.725,16.278,16.452,906922
2017-12-06,16.501,16.576,16.303,16.452,480333
2017-12-07,16.501,16.501,16.352,16.452,268086
2017-12-08,16.501,16.7,16.452,16.7,654653
2017-12-11,16.8,16.899,16.651,16.849,2742162
2017-12-12,16.899,16.899,16.352,16.452,566985
2017-12-13,16.452,16.551,16.303,16.402,844900
2017-12-14,16.352,16.551,16.303,16.352,859232
2017-12-15,16.402,16.402,16.203,16.253,1453401
2017-12-18,16.402,16.601,16.303,16.501,461560
2017-12-19,16.551,16.7,16.402,16.551,644673
2017-12-20,16.651,16.651,16.452,16.501,394474
2017-12-21,16.551,16.725,16.352,16.551,374630
2017-12-22,16.601,16.7,16.551,16.7,520792
2017-12-26,16.651,16.7,16.501,16.501,153977
2017-12-27,16.551,16.651,16.417,16.551,305856
2017-12-28,16.601,16.601,16.402,16.551,298342
2017-12-29,16.601,16.675,16.452,16.501,404761
2018-01-02,16.551,16.75,16.501,16.7,466685
2018-01-03,16.7,16.8,16.651,16.775,404955
2018-01-04,16.8,16.974,16.7,16.825,883269
2018-01-05,17.098,17.297,16.8,17.098,475888
2018-01-08,17.048,17.148,16.899,17.098,381112
2018-01-09,17.148,17.247,17.048,17.148,436078
2018-01-10,17.098,17.148,16.999,17.048,310735
2018-01-11,17.098,17.496,17.098,17.396,596532
2018-01-12,17.346,17.446,17.197,17.446,273668
2018-01-16,17.496,17.496,17.197,17.197,289814
2018-01-17,17.297,17.595,17.247,17.446,451170
2018-01-18,17.446,17.496,17.247,17.297,259023
2018-01-19,17.396,17.496,17.197,17.446,392013
2018-01-22,17.446,17.446,17.197,17.446,270216
2018-01-23,17.346,17.396,17.197,17.247,382422
2018-01-24,17.247,17.446,17.172,17.297,423221
2018-01-25,17.297,17.346,16.899,17.197,173615
2018-01-26,17.297,17.396,17.123,17.396,159424
2018-01-29,17.346,17.446,17.222,17.247,149769
2018-01-30,17.197,17.371,17.098,17.197,313263
2018-01-31,17.098,17.346,16.899,17.346,401758
2018-02-01,17.197,17.247,16.899,17.048,610833
2018-02-02,16.999,16.999,16.551,16.651,310126
2018-02-05,16.651,16.8,16.004,16.004,304882
2018-02-06,15.706,16.427,15.408,16.402,734749
2018-02-07,16.253,16.452,16.054,16.203,471763
2018-02-08,16.054,16.203,15.706,15.756,563574
2018-02-09,15.905,16.352,15.507,15.905,1157773
2018-02-12,16.004,16.402,15.905,16.054,1419262
2018-02-13,16.054,16.526,16.004,16.452,668855
2018-02-14,16.402,16.651,16.303,16.601,371574
2018-02-15,16.601,16.75,16.402,16.501,430524
2018-02-16,16.452,16.601,16.303,16.352,617872
2018-02-20,16.352,16.352,15.955,16.004,445171
2018-02-21,16.054,16.352,16.054,16.054,565217
2018-02-22,16.203,16.551,16.203,16.402,490509
2018-02-23,16.501,16.7,16.328,16.651,166651
2018-02-26,16.7,16.874,16.651,16.8,282597
2018-02-27,16.75,16.849,16.526,16.601,261830
2018-02-28,16.651,16.651,16.303,16.303,346679
2018-03-01,16.203,16.352,15.93,16.004,443348
2018-03-02,15.855,16.054,15.806,16.054,549058
2018-03-05,16.004,16.352,15.955,16.303,288506
2018-03-06,16.303,16.551,16.228,16.501,283367
2018-03-07,16.402,16.501,16.253,16.402,233638
2018-03-08,16.501,16.551,16.253,16.303,471005
2018-03-09,16.452,16.7,16.352,16.7,414823
2018-03-12,16.75,16.899,16.626,16.75,377363
2018-03-13,16.9,16.95,16.55,16.65,177271
2018-03-14,16.75,16.8,16.55,16.65,320703
2018-03-15,16.75,16.8,16.65,16.75,302799
2018-03-16,16.85,17.025,16.8,17,740456
2018-03-19,16.95,17.1,16.7,16.75,1239700
2018-03-20,16.75,16.8,16.625,16.75,330937
2018-03-21,16.8,16.95,16.75,16.9,1154877
2018-03-22,16.85,16.95,16.65,16.7,1320462
2018-03-23,16.7,16.75,15.95,16,1687927
2018-03-26,16.15,16.2,15.7,16.1,985791
2018-03-27,16.1,16.25,15.9,15.95,363032
2018-03-28,15.95,16.025,15.75,15.8,390657
2018-03-29,15.8,16.25,15.8,16.1,506339
2018-04-02,16.1,16.1,15.5,15.65,489491
2018-04-03,15.7,16,15.55,16,515624
2018-04-04,15.8,16.05,15.65,16,305007
2018-04-05,15.95,16.15,15.85,16,374648
2018-04-06,15.95,16,15.6,15.8,316014
2018-04-09,15.85,16.15,15.7,15.85,317127
2018-04-10,16,16.375,15.95,16.2,413631
2018-04-11,16,16.15,15.925,16,323081
2018-04-12,16.05,16.175,15.9,16.1,159772
2018-04-13,16.1,16.15,15.9,15.9,189479
2018-04-16,16.1,16.25,15.95,16.2,234205
2018-04-17,16.25,16.35,16.1,16.25,251383
2018-04-18,16.35,16.4,16.2,16.25,200675
2018-04-19,16.25,16.425,16.25,16.4,179917
2018-04-20,16.4,16.4,16.25,16.35,308299
2018-04-23,16.3,16.45,16.25,16.35,375613
2018-04-24,16.45,16.5,16.05,16.15,389552
2018-04-25,16.15,16.25,15.975,16.15,355238
2018-04-26,16.15,16.3,16.125,16.2,182125
2018-04-27,16.2,16.25,16.075,16.25,140661
2018-04-30,16.35,16.425,16.15,16.25,401555
2018-05-01,16.2,16.2,16,16.2,380880
2018-05-02,16.15,16.225,15.85,15.85,300700
2018-05-03,15.95,16.25,15.8,16.2,679257
2018-05-04,16.15,16.4,16.1,16.35,277291
2018-05-07,16.35,16.65,16.35,16.6,364828
2018-05-08,16.65,16.75,16.5,16.6,315081
2018-05-09,16.75,16.75,16.5,16.65,911437
2018-05-10,16.75,16.8,16.575,16.675,1046179
2018-05-11,16.75,16.75,15.35,15.5,962941
2018-05-14,15.75,16.35,15.75,16.25,1629978
2018-05-15,16.25,16.325,15.95,16.25,584980
2018-05-16,16.2,16.4,16.125,16.25,594644
2018-05-17,16.25,16.35,16.1,16.2,981592
2018-05-18,16.15,16.2,16,16.1,1104766
2018-05-21,16.1,16.275,16.1,16.2,677153
2018-05-22,16.2,16.3,16,16.05,1311517
2018-05-23,16.1,16.1,15.85,16,506683
2018-05-24,16.1,16.1,15.85,16,731380
2018-05-25,15.95,16.1,15.95,16.05,159529
2018-05-29,16,16.1,15.5,15.55,573572
2018-05-30,15.75,15.95,15.675,15.875,289916
2018-05-31,15.85,15.9,15.4,15.45,430421
2018-06-01,15.5,15.75,15.5,15.6,307581
2018-06-04,15.75,15.775,15.6,15.65,251245
2018-06-05,15.65,16.05,15.65,16.05,239521
2018-06-06,16,16.2,15.95,16.1,291172
2018-06-07,16.1,16.2,16,16.1,286751
2018-06-08,16.1,16.3,16.05,16.15,449110
2018-06-11,16,16.325,16,16.2,264996
2018-06-12,16.25,16.45,16.25,16.4,213780
2018-06-13,16.35,16.675,16.05,16.1,903072
2018-06-14,16.2,16.25,16,16.15,803181
2018-06-15,16,16.45,15.95,16.25,1883836
2018-06-18,16.1,16.3,16.05,16.3,400507
2018-06-19,16.1,16.2,16.05,16.1,643535
2018-06-20,16.15,16.3,16.1,16.15,820068
2018-06-21,16.1,16.2,15.9,16,716133
2018-06-22,16.15,16.15,16,16.05,541024
2018-06-25,16,16.1,15.7,15.75,313040
2018-06-26,15.75,15.85,15.6,15.7,370510
2018-06-27,15.75,16,15.7,15.75,346061
2018-06-28,15.8,15.85,15.65,15.8,285729
2018-06-29,15.75,15.95,15.75,15.85,379695
2018-07-02,15.7,15.8,15.4,15.45,469935
2018-07-03,15.6,15.7,15.55,15.55,226072
2018-07-05,15.55,15.6,15.35,15.5,477752
2018-07-06,15.45,15.7,15.45,15.6,169549
2018-07-09,15.75,15.775,15.6,15.7,209782
2018-07-10,15.7,16.1,15.7,16.05,260744
2018-07-11,15.9,16.15,15.75,15.8,258053
2018-07-12,15.9,15.9,15.65,15.75,156100
2018-07-13,15.75,15.85,15.75,15.8,115934
2018-07-16,15.75,15.8,15.6,15.65,159612
2018-07-17,15.6,15.625,15.475,15.55,338029
2018-07-18,15.45,15.85,15.45,15.65,523782
2018-07-19,15.55,15.825,15.5,15.6,394504
2018-07-20,15.55,15.7,15.45,15.5,254275
2018-07-23,15.55,15.725,15.4,15.5,365234
2018-07-24,15.55,15.55,15.2,15.25,145310
2018-07-25,15.25,15.4,15.2,15.4,244601
2018-07-26,15.4,15.4765,15.25,15.25,202850
2018-07-27,15.3,15.375,15,15.1,212845
2018-07-30,15.15,15.25,15,15.15,233171
2018-07-31,15.15,15.35,15.1,15.3,173802
2018-08-01,15.2,15.3,15.1,15.25,312287
2018-08-02,15.1,15.25,15.1,15.2,158370
2018-08-03,15.15,15.3,15.1,15.3,123260
2018-08-06,15.25,15.45,15.225,15.35,226658
2018-08-07,15.35,15.45,15.225,15.3,176141
2018-08-08,15.35,15.4,15.175,15.3,262747
2018-08-09,15.35,15.625,15.25,15.4,386221
2018-08-10,15.2,15.2,13.2,13.45,940131
2018-08-13,13.6,14.05,13.6,13.95,1560202
2018-08-14,14.15,14.3,13.9,14.15,1609372
2018-08-15,14.15,14.2,13.95,14.1,1667797
2018-08-16,14.3,14.4,14.15,14.3,817136
2018-08-17,14.35,14.45,14.1,14.45,1320955
2018-08-20,14.05,14.15,13.75,14.05,910850
2018-08-21,14.15,14.15,13.9,14.05,1638099
2018-08-22,14.1,14.2,14,14.2,469894
