,Unnamed: 0,Date,Open,High,Low,Close,Volume
0,0,2014-03-27,568.0,568.0,552.92,558.46,13052
1,1,2014-03-28,561.2,566.43,558.67,559.99,41003
2,2,2014-03-31,566.89,567.0,556.93,556.97,10772
3,3,2014-04-01,558.71,568.45,558.71,567.16,7932
4,4,2014-04-02,599.99,604.83,562.19,567.0,146697
5,5,2014-04-03,569.85,587.28,564.13,569.74,5087500
6,6,2014-04-04,574.65,577.77,543.0,543.14,6377600
7,7,2014-04-07,540.74,548.48,527.15,538.15,4368717
8,8,2014-04-08,543.07,555.0,541.61,554.9,3148563
9,9,2014-04-09,559.77,565.37,552.95,564.14,3323579
10,10,2014-04-10,564.99,565.0,539.9,540.95,4027113
11,11,2014-04-11,532.5,540.0,526.53,530.6,3915647
12,12,2014-04-14,537.74,544.1,529.56,532.52,2565391
13,13,2014-04-15,536.82,538.45,518.46,536.44,3846267
14,14,2014-04-16,543.0,557.0,540.0,556.54,4869745
15,15,2014-04-17,548.81,549.5,531.15,536.1,6792593
16,16,2014-04-21,536.1,536.7,525.6,528.62,2559924
17,17,2014-04-22,528.64,537.23,527.51,534.81,2358993
18,18,2014-04-23,533.79,533.87,526.25,526.94,2049887
19,19,2014-04-24,529.97,531.65,522.12,525.16,1879376
20,20,2014-04-25,522.51,524.7,515.42,516.18,2096997
21,21,2014-04-28,517.55,518.6,502.8,517.15,3325565
22,22,2014-04-29,516.91,529.46,516.32,527.7,2691849
23,23,2014-04-30,527.6,528.0,522.52,526.66,1746405
24,24,2014-05-01,527.15,532.93,523.88,531.35,1900411
25,25,2014-05-02,533.76,534.0,525.61,527.93,1684811
26,26,2014-05-05,524.73,528.9,521.32,527.81,1021301
27,27,2014-05-06,525.23,526.81,515.06,515.14,1647435
28,28,2014-05-07,515.79,516.68,503.3,509.96,3215781
29,29,2014-05-08,508.41,517.23,506.45,511.0,2015769
30,30,2014-05-09,510.75,519.9,504.2,518.73,2432671
31,31,2014-05-12,523.51,530.19,519.01,529.92,1907512
32,32,2014-05-13,530.89,536.07,529.51,533.09,1648167
33,33,2014-05-14,533.0,533.0,525.29,526.65,1191754
34,34,2014-05-15,525.7,525.87,517.42,519.98,1702167
35,35,2014-05-16,521.39,521.8,515.44,520.63,1481243
36,36,2014-05-19,519.7,529.78,517.58,528.86,1276212
37,37,2014-05-20,529.74,536.23,526.3,529.77,1779878
38,38,2014-05-21,532.9,539.18,531.91,538.94,1193037
39,39,2014-05-22,541.13,547.6,540.78,545.06,1611408
40,40,2014-05-23,547.26,553.64,543.7,552.7,1929328
41,41,2014-05-27,556.0,566.0,554.35,565.95,2099837
42,42,2014-05-28,564.57,567.84,561.0,561.68,1647630
43,43,2014-05-29,563.47,564.0,558.71,560.08,1350576
44,44,2014-05-30,560.8,561.35,555.91,559.89,1766212
45,45,2014-06-02,560.7,560.9,545.73,553.93,1434964
46,46,2014-06-03,550.65,552.34,542.55,544.94,1861757
47,47,2014-06-04,541.5,548.61,538.75,544.66,1811683
48,48,2014-06-05,545.62,554.95,544.45,553.9,1684584
49,49,2014-06-06,558.06,558.06,548.93,556.33,1732230
50,50,2014-06-09,556.99,562.9,556.04,562.12,1525766
51,51,2014-06-10,560.51,563.6,557.9,560.55,1349400
52,52,2014-06-11,558.0,559.88,555.02,558.84,1097160
53,53,2014-06-12,557.63,557.99,548.46,551.35,1456195
54,54,2014-06-13,552.25,552.3,545.56,551.76,1217151
55,55,2014-06-16,549.26,549.62,541.52,544.28,1703947
56,56,2014-06-17,544.2,545.32,539.33,543.01,1445815
57,57,2014-06-18,544.86,553.56,544.0,553.37,1737113
58,58,2014-06-19,554.24,555.0,548.51,554.9,2451308
59,59,2014-06-20,556.89,557.58,550.39,556.36,4496612
60,60,2014-06-23,555.0,565.0,554.25,564.95,1534262
61,61,2014-06-24,565.19,572.65,561.01,564.62,2201744
62,62,2014-06-25,565.26,579.96,565.22,578.65,1964197
63,63,2014-06-26,581.0,582.45,571.85,576.0,1736760
64,64,2014-06-27,577.18,579.87,573.8,577.24,2231027
65,65,2014-06-30,578.66,579.57,574.75,575.28,1310883
66,66,2014-07-01,578.32,584.4,576.65,582.67,1446244
67,67,2014-07-02,583.35,585.44,580.39,582.34,1054900
68,68,2014-07-03,583.35,585.01,580.92,584.73,712210
69,69,2014-07-07,583.76,586.43,579.59,582.25,1061733
70,70,2014-07-08,577.66,579.53,566.14,571.09,1908582
71,71,2014-07-09,571.58,576.72,569.38,576.08,1113907
72,72,2014-07-10,565.91,576.59,565.01,571.1,1353108
73,73,2014-07-11,571.91,580.85,571.42,579.18,1617369
74,74,2014-07-14,582.6,585.21,578.03,584.87,1851650
75,75,2014-07-15,585.74,585.8,576.56,584.78,1618617
76,76,2014-07-16,588.0,588.4,582.2,582.66,1394327
77,77,2014-07-17,579.53,580.99,568.61,573.73,3011977
78,78,2014-07-18,593.0,596.8,582.0,595.08,4005766
79,79,2014-07-21,591.75,594.4,585.23,589.47,2058451
80,80,2014-07-22,590.72,599.65,590.6,594.74,1694527
81,81,2014-07-23,593.23,597.85,592.5,595.98,1229831
82,82,2014-07-24,596.45,599.5,591.77,593.35,1033269
83,83,2014-07-25,590.4,591.86,587.03,589.02,931892
84,84,2014-07-28,588.07,592.5,584.75,590.6,984121
85,85,2014-07-29,588.75,589.7,583.52,585.61,1346492
86,86,2014-07-30,586.55,589.5,584.0,587.42,1013742
87,87,2014-07-31,580.6,583.65,570.0,571.6,2099265
88,88,2014-08-01,570.4,575.96,562.85,566.07,1949981
89,89,2014-08-04,569.04,575.35,564.1,573.15,1427169
90,90,2014-08-05,571.03,571.98,562.61,565.07,1556183
91,91,2014-08-06,561.78,570.7,560.0,566.37,1330782
92,92,2014-08-07,568.0,569.89,561.1,563.36,1108264
93,93,2014-08-08,564.0,570.25,560.35,568.77,1492470
94,94,2014-08-11,569.99,570.49,566.0,567.88,1215761
95,95,2014-08-12,564.52,565.9,560.88,562.73,1537758
96,96,2014-08-13,567.3,575.0,565.75,574.78,1437834
97,97,2014-08-14,576.18,577.9,570.88,574.65,982926
98,98,2014-08-15,577.86,579.38,570.52,573.48,1517056
99,99,2014-08-18,576.11,584.51,576.0,582.16,1282182
100,100,2014-08-19,585.0,587.34,584.0,586.86,979275
101,101,2014-08-20,585.88,586.7,582.57,584.49,1033908
102,102,2014-08-21,583.74,584.5,581.14,583.37,912779
103,103,2014-08-22,583.59,585.24,580.64,582.56,788942
104,104,2014-08-25,584.72,585.0,579.0,580.2,1358570
105,105,2014-08-26,581.26,581.8,576.58,577.86,1635360
106,106,2014-08-27,577.27,578.49,570.1,571.0,1699812
107,107,2014-08-28,569.56,573.25,567.1,569.2,1295833
108,108,2014-08-29,571.37,572.04,567.07,571.6,1080847
109,109,2014-09-02,571.85,577.83,571.19,577.33,1576565
110,110,2014-09-03,580.22,582.99,575.0,577.94,1214564
111,111,2014-09-04,580.0,586.0,579.22,581.98,1459841
112,112,2014-09-05,583.98,586.55,581.95,586.08,1629456
113,113,2014-09-08,586.6,591.77,586.3,589.72,1429096
114,114,2014-09-09,588.9,589.0,580.0,581.01,1286716
115,115,2014-09-10,581.5,583.5,576.94,583.1,974789
116,116,2014-09-11,580.36,581.81,576.26,581.35,1217650
117,117,2014-09-12,580.95,581.64,574.46,575.62,1597626
118,118,2014-09-15,572.94,574.95,568.21,573.1,1596194
119,119,2014-09-16,572.76,581.5,572.66,579.95,1477504
120,120,2014-09-17,580.01,587.52,578.78,584.77,1690551
121,121,2014-09-18,587.3,589.54,585.0,589.27,1441508
122,122,2014-09-19,591.5,596.48,589.5,596.08,3726476
123,123,2014-09-22,593.82,593.95,583.46,587.37,1685121
124,124,2014-09-23,586.85,586.85,581.0,581.13,1467395
125,125,2014-09-24,581.46,589.63,580.52,587.99,1724537
126,126,2014-09-25,587.56,587.98,574.18,575.06,1924964
127,127,2014-09-26,576.06,579.25,574.66,577.1,1439807
128,128,2014-09-29,571.8,578.19,571.17,576.36,1281201
129,129,2014-09-30,576.93,579.85,572.85,577.36,1618437
130,130,2014-10-01,576.01,577.58,567.01,568.27,1444196
131,131,2014-10-02,567.31,571.91,563.32,570.08,1175267
132,132,2014-10-03,573.05,577.22,572.5,575.28,1138634
133,133,2014-10-06,579.0,581.0,574.44,577.35,1211320
134,134,2014-10-07,574.4,575.27,563.74,563.74,1906108
135,135,2014-10-08,565.57,573.88,557.49,572.5,1987688
136,136,2014-10-09,571.17,571.49,559.06,560.88,2519159
137,137,2014-10-10,558.34,565.13,544.05,544.49,3077521
138,138,2014-10-13,544.99,549.5,533.1,533.21,2576138
139,139,2014-10-14,538.9,547.19,533.17,537.94,2217210
140,140,2014-10-15,530.45,532.8,518.3,530.03,3709966
141,141,2014-10-16,519.0,529.43,515.0,524.51,3687669
142,142,2014-10-17,527.25,530.98,508.53,511.17,5530303
143,143,2014-10-20,509.45,521.76,508.1,520.84,2604933
144,144,2014-10-21,525.0,526.79,519.11,526.54,2331955
145,145,2014-10-22,529.89,539.8,528.8,532.71,2916572
146,146,2014-10-23,539.32,547.22,535.85,543.98,2345112
147,147,2014-10-24,544.36,544.88,535.79,539.78,1972043
148,148,2014-10-27,537.03,544.41,537.03,540.77,1184973
149,149,2014-10-28,543.0,548.98,541.62,548.9,1273272
150,150,2014-10-29,550.0,554.19,546.98,549.33,1767007
151,151,2014-10-30,548.95,552.8,543.51,550.31,1451667
152,152,2014-10-31,559.35,559.57,554.75,559.08,2032887
153,153,2014-11-03,555.5,557.9,553.23,555.22,1378504
154,154,2014-11-04,552.72,555.5,549.3,554.11,1240251
155,155,2014-11-05,556.8,556.8,544.05,545.92,2026692
156,156,2014-11-06,545.73,546.89,540.97,542.04,1328463
157,157,2014-11-07,546.21,546.21,538.67,541.01,1629159
158,158,2014-11-10,541.46,549.59,541.02,547.49,1131533
159,159,2014-11-11,548.49,551.94,546.3,550.29,964716
160,160,2014-11-12,550.38,550.46,545.17,547.31,1126301
161,161,2014-11-13,549.63,549.8,543.48,545.38,1335697
162,162,2014-11-14,546.68,546.68,542.15,544.4,1285841
163,163,2014-11-17,543.58,543.79,534.06,536.51,1721145
164,164,2014-11-18,537.5,541.94,534.17,535.03,1957367
165,165,2014-11-19,535.0,538.24,530.08,536.99,1388234
166,166,2014-11-20,531.25,535.11,531.08,534.83,1558476
167,167,2014-11-21,541.61,542.14,536.56,537.5,2218137
168,168,2014-11-24,537.65,542.7,535.62,539.27,1701562
169,169,2014-11-25,539.0,543.98,538.6,541.08,1784967
170,170,2014-11-26,541.47,541.55,537.04,540.37,1519474
171,171,2014-11-28,540.15,542.0,536.6,541.83,1145231
172,172,2014-12-01,538.9,541.41,531.86,533.8,2109498
173,173,2014-12-02,533.95,535.5,529.8,533.75,1522426
174,174,2014-12-03,531.44,536.0,529.26,531.32,1279137
175,175,2014-12-04,531.16,537.34,528.59,537.31,1392208
176,176,2014-12-05,531.0,532.89,524.28,525.26,2557697
177,177,2014-12-08,527.13,531.0,523.79,526.98,2326833
178,178,2014-12-09,522.65,534.19,520.5,533.37,1871268
179,179,2014-12-10,532.96,536.33,525.56,526.06,1716785
180,180,2014-12-11,527.8,533.92,527.1,528.34,1610954
181,181,2014-12-12,523.51,528.5,518.66,518.66,1988118
182,182,2014-12-15,522.74,523.1,513.27,513.8,2812509
183,183,2014-12-16,511.56,513.05,489.0,495.39,3947212
184,184,2014-12-17,497.0,507.0,496.81,504.89,2874963
185,185,2014-12-18,512.35,513.87,504.7,511.1,2918096
186,186,2014-12-19,511.51,517.72,506.91,516.35,3679797
187,187,2014-12-22,516.68,526.46,516.08,524.87,2723599
188,188,2014-12-23,527.0,534.56,526.29,530.59,2191455
189,189,2014-12-24,530.51,531.76,527.02,528.77,704035
190,190,2014-12-26,528.77,534.25,527.31,534.03,1037687
191,191,2014-12-29,532.19,535.48,530.01,530.33,2276094
192,192,2014-12-30,528.17,531.15,527.13,530.42,873863
193,193,2014-12-31,531.25,532.6,525.8,526.4,1370404
194,194,2015-01-02,529.01,531.27,524.1,524.81,1446432
195,195,2015-01-05,523.26,524.33,513.06,513.87,2052886
196,196,2015-01-06,515.0,516.17,501.05,501.96,2891303
197,197,2015-01-07,507.0,507.24,499.65,501.1,2059169
198,198,2015-01-08,497.99,503.48,491.0,502.68,3344104
199,199,2015-01-09,504.76,504.92,494.79,496.17,2065665
200,200,2015-01-12,494.94,495.98,487.56,492.55,2320364
201,201,2015-01-13,497.75,502.98,492.39,496.18,2365648
202,202,2015-01-14,494.65,503.23,493.0,500.87,2229598
203,203,2015-01-15,504.0,505.68,497.76,501.79,2710991
204,204,2015-01-16,500.01,508.19,500.0,508.08,2291740
205,205,2015-01-20,511.0,512.5,506.02,506.9,3480577
206,206,2015-01-21,507.25,519.28,506.2,518.04,3673165
207,207,2015-01-22,521.49,536.33,519.7,534.39,4591098
208,208,2015-01-23,535.59,542.17,533.0,539.95,3974914
209,209,2015-01-26,538.17,539.0,529.67,535.21,1538819
210,210,2015-01-27,529.97,530.7,518.19,518.63,1898200
211,211,2015-01-28,522.78,522.99,510.0,510.0,1659379
212,212,2015-01-29,511.0,511.09,501.2,510.66,4169949
213,213,2015-01-30,515.86,539.87,515.52,534.52,5590800
214,214,2015-02-02,531.46,533.0,518.55,528.48,2841867
215,215,2015-02-03,528.0,533.4,523.26,529.24,2033080
216,216,2015-02-04,529.24,532.67,521.27,522.76,1658697
217,217,2015-02-05,523.79,528.5,522.09,527.58,1844552
218,218,2015-02-06,528.13,537.2,526.41,531.0,1758502
219,219,2015-02-09,528.0,532.0,526.02,527.83,1263805
220,220,2015-02-10,529.3,537.7,526.92,536.94,1744835
221,221,2015-02-11,535.3,538.45,533.38,535.97,1373770
222,222,2015-02-12,537.11,544.82,534.67,542.93,1615822
223,223,2015-02-13,543.35,549.91,543.13,549.01,1878974
224,224,2015-02-17,546.83,550.0,541.09,542.84,1612238
225,225,2015-02-18,541.4,545.49,537.51,539.7,1448741
226,226,2015-02-19,538.04,543.11,538.01,542.87,987464
227,227,2015-02-20,543.13,543.75,535.8,538.95,1441212
228,228,2015-02-23,536.3,536.44,529.41,531.91,1453637
229,229,2015-02-24,529.7,536.79,528.25,536.09,1002393
230,230,2015-02-25,535.9,546.22,535.45,543.87,1821016
231,231,2015-02-26,543.0,556.14,541.5,555.48,2305009
232,232,2015-02-27,554.24,564.71,552.9,558.4,2403553
233,233,2015-03-02,560.53,572.15,558.75,571.34,2123700
234,234,2015-03-03,570.45,575.39,566.52,573.64,1700000
235,235,2015-03-04,571.87,577.11,568.01,573.37,1871600
236,236,2015-03-05,575.26,577.91,573.41,575.33,1385800
237,237,2015-03-06,574.96,576.68,566.76,567.68,1654500
238,238,2015-03-09,566.86,570.27,563.53,568.85,1059300
239,239,2015-03-10,563.71,564.85,554.73,555.01,1787300
240,240,2015-03-11,555.14,558.14,550.68,551.18,1815700
241,241,2015-03-12,553.63,556.37,545.36,545.38,1386450
242,242,2015-03-13,553.5,558.4,544.22,547.32,1698800
243,243,2015-03-16,550.0,556.85,546.0,554.51,1636400
244,244,2015-03-17,551.71,553.8,548.0,550.84,1800500
245,245,2015-03-18,552.5,559.78,547.0,559.5,2128700
246,246,2015-03-19,558.11,560.8,556.15,557.99,1194000
247,247,2015-03-20,561.65,561.72,559.05,560.36,2609600
248,248,2015-03-23,560.43,562.36,555.83,558.81,1639300
249,249,2015-03-24,562.56,574.59,561.21,570.19,2576200
250,250,2015-03-25,570.5,572.26,558.74,558.78,2146300
251,251,2015-03-26,557.59,558.9,550.65,555.17,1568300
252,252,2015-03-27,552.91,555.28,548.13,548.34,1892300
253,253,2015-03-30,551.62,553.47,548.17,552.03,1283900
254,254,2015-03-31,550.0,554.71,546.72,548.0,1583600
255,255,2015-04-01,548.6,551.14,539.5,542.56,1957700
256,256,2015-04-02,540.85,540.85,533.85,535.53,1711700
257,257,2015-04-06,532.22,538.41,529.57,536.77,1320700
258,258,2015-04-07,538.08,542.69,536.0,537.02,1299295
259,259,2015-04-08,538.74,543.85,538.38,541.61,1175300
260,260,2015-04-09,541.03,541.95,535.49,540.78,1551968
261,261,2015-04-10,542.29,542.29,537.31,540.01,1405500
262,262,2015-04-13,538.41,544.06,537.31,539.17,1640800
263,263,2015-04-14,536.06,537.57,528.09,530.39,2597000
264,264,2015-04-15,528.7,534.73,523.22,532.53,2305980
265,265,2015-04-16,529.9,535.59,529.61,533.8,1296304
266,266,2015-04-17,527.27,529.84,521.01,524.05,2145900
267,267,2015-04-20,525.6,536.09,524.5,535.38,1675487
268,268,2015-04-21,537.51,539.39,533.67,533.97,1839618
269,269,2015-04-22,534.4,541.08,531.75,539.36,1588911
270,270,2015-04-23,541.1,550.96,540.23,547.0,4173300
271,271,2015-04-24,566.1,571.14,557.25,565.06,4919000
272,272,2015-04-27,563.12,565.95,553.2,555.37,2398000
273,273,2015-04-28,553.85,556.02,550.37,553.68,1490900
274,274,2015-04-29,550.02,553.68,546.91,549.08,1698700
275,275,2015-04-30,547.87,548.59,535.05,537.34,2082200
276,276,2015-05-01,538.43,539.54,532.1,537.9,1768100
277,277,2015-05-04,538.53,544.07,535.06,540.78,1307900
278,278,2015-05-05,538.21,539.74,530.39,530.8,1383000
279,279,2015-05-06,531.24,532.38,521.09,524.22,1566967
280,280,2015-05-07,523.99,533.46,521.75,530.7,1546248
281,281,2015-05-08,536.61,541.15,536.0,538.22,1527600
282,282,2015-05-11,538.37,541.98,535.4,535.7,905200
283,283,2015-05-12,531.47,533.21,525.26,529.04,1634174
284,284,2015-05-13,530.56,534.32,528.66,529.62,1253000
285,285,2015-05-14,533.76,539.0,532.41,538.4,1403900
286,286,2015-05-15,539.18,539.27,530.38,533.85,1970842
287,287,2015-05-18,532.05,534.82,528.85,532.3,2003130
288,288,2015-05-19,533.55,540.66,533.04,537.36,1966900
289,289,2015-05-20,538.49,542.92,532.97,539.27,1430800
290,290,2015-05-21,538.68,543.84,535.98,542.51,1462600
291,291,2015-05-22,540.15,544.19,539.51,540.11,1176200
292,292,2015-05-26,538.12,539.0,529.88,532.32,2406480
293,293,2015-05-27,532.8,540.55,531.71,539.79,1525000
294,294,2015-05-28,538.01,540.61,536.25,539.78,1029849
295,295,2015-05-29,537.04,538.63,531.45,532.11,2597400
296,296,2015-06-01,535.6,536.79,529.76,533.99,1904300
297,297,2015-06-02,532.21,543.0,531.33,539.18,1938989
298,298,2015-06-03,539.91,543.5,537.11,540.31,1717000
299,299,2015-06-04,537.76,540.59,534.32,536.7,1348300
300,300,2015-06-05,536.35,537.2,532.52,533.33,1388200
301,301,2015-06-08,533.31,534.12,526.24,526.83,1524100
302,302,2015-06-09,527.56,529.2,523.01,526.69,1455266
303,303,2015-06-10,529.4,538.36,529.35,536.69,1814938
304,304,2015-06-11,538.42,538.98,533.02,534.61,1217536
305,305,2015-06-12,531.63,533.12,530.16,532.33,955400
306,306,2015-06-15,528.0,528.3,524.0,527.2,1632700
307,307,2015-06-16,528.4,529.64,525.56,528.15,1071800
308,308,2015-06-17,529.37,530.98,525.1,529.26,1294200
309,309,2015-06-18,531.0,538.15,530.79,536.73,1833100
310,310,2015-06-19,537.21,538.25,533.01,536.69,1893400
311,311,2015-06-22,539.59,543.74,537.53,538.19,1250200
312,312,2015-06-23,539.64,541.5,535.25,540.48,1197450
313,313,2015-06-24,540.0,540.0,535.66,537.84,1286600
314,314,2015-06-25,539.66,540.9,535.23,535.23,1335600
315,315,2015-06-26,537.26,537.76,531.35,531.69,2109100
316,316,2015-06-29,525.41,528.61,520.54,521.52,1937800
317,317,2015-06-30,526.2,526.25,520.5,520.51,2235595
318,318,2015-07-01,524.73,525.69,518.23,521.84,1961300
319,319,2015-07-02,521.08,524.65,521.08,523.4,1235900
320,320,2015-07-06,519.5,525.25,519.0,522.86,1280500
321,321,2015-07-07,523.13,526.18,515.18,525.02,1597200
322,322,2015-07-08,521.05,522.73,516.11,516.83,1296600
323,323,2015-07-09,523.12,523.77,520.35,520.68,1842300
324,324,2015-07-10,526.29,532.56,525.55,530.13,1956600
325,325,2015-07-13,532.88,547.11,532.4,546.55,2206400
326,326,2015-07-14,546.76,565.85,546.71,561.1,3244066
327,327,2015-07-15,560.13,566.5,556.79,560.22,1784234
328,328,2015-07-16,565.12,580.68,565.0,579.85,4768300
329,329,2015-07-17,649.0,674.47,645.0,672.93,11164900
330,330,2015-07-20,659.24,668.88,653.01,663.02,5860800
331,331,2015-07-21,655.21,673.0,654.3,662.3,3377100
332,332,2015-07-22,660.89,678.64,659.0,662.1,3929300
333,333,2015-07-23,661.27,663.63,641.0,644.28,3029100
334,334,2015-07-24,647.0,648.17,622.52,623.56,3625700
335,335,2015-07-27,621.0,634.3,620.5,627.26,2675300
336,336,2015-07-28,632.83,632.83,623.31,628.0,1727300
337,337,2015-07-29,628.8,633.36,622.65,631.93,1575000
338,338,2015-07-30,630.0,635.22,622.05,632.59,1474200
339,339,2015-07-31,631.38,632.91,625.5,625.61,1706100
340,340,2015-08-03,625.34,633.06,625.34,631.21,1304511
341,341,2015-08-04,628.42,634.81,627.16,629.25,1490800
342,342,2015-08-05,634.33,647.86,633.16,643.78,2334200
343,343,2015-08-06,645.0,645.38,632.25,642.68,1572235
344,344,2015-08-07,640.23,642.68,629.71,635.3,1403800
345,345,2015-08-10,639.48,643.44,631.25,633.73,1809200
346,346,2015-08-11,669.2,674.9,654.27,660.78,5027531
347,347,2015-08-12,663.08,665.0,652.29,659.56,2940800
348,348,2015-08-13,659.32,664.5,651.66,656.45,1810700
349,349,2015-08-14,655.01,659.85,652.66,657.12,1072000
350,350,2015-08-17,656.8,661.38,651.24,660.87,1051600
351,351,2015-08-18,661.9,664.0,653.46,656.13,1456000
352,352,2015-08-19,656.6,667.0,654.19,660.9,2134000
353,353,2015-08-20,655.46,662.99,642.9,646.83,2855200
354,354,2015-08-21,639.78,640.05,612.33,612.48,4265100
355,355,2015-08-24,573.0,614.0,565.05,589.61,5770302
356,356,2015-08-25,614.91,617.45,581.11,582.06,3537900
357,357,2015-08-26,610.35,631.71,599.05,628.62,4235800
358,358,2015-08-27,639.4,643.59,622.0,637.61,3491300
359,359,2015-08-28,632.82,636.88,624.56,630.38,1978700
360,360,2015-08-31,627.54,635.8,617.68,618.25,2176700
361,361,2015-09-01,602.36,612.86,594.1,597.79,3702100
362,362,2015-09-02,605.59,614.34,599.71,614.34,2575600
363,363,2015-09-03,617.0,619.71,602.82,606.25,1759500
364,364,2015-09-04,600.0,603.47,595.25,600.7,2089400
365,365,2015-09-08,612.49,616.31,604.12,614.66,2279500
366,366,2015-09-09,621.22,626.52,609.6,612.72,1702000
367,367,2015-09-10,613.1,624.16,611.43,621.35,1905176
368,368,2015-09-11,619.75,625.78,617.42,625.77,1373500
369,369,2015-09-14,625.7,625.86,619.43,623.24,1702200
370,370,2015-09-15,626.7,638.7,623.78,635.14,2084300
371,371,2015-09-16,635.47,637.95,632.32,635.98,1286400
372,372,2015-09-17,637.79,650.9,635.02,642.9,2274600
373,373,2015-09-18,636.79,640.0,627.02,629.25,5133300
374,374,2015-09-21,634.4,636.49,625.94,635.44,1788500
375,375,2015-09-22,627.0,627.55,615.43,622.69,2562800
376,376,2015-09-23,622.05,628.93,620.0,622.36,1470900
377,377,2015-09-24,616.64,627.32,612.4,625.8,2240069
378,378,2015-09-25,629.77,629.77,611.0,611.97,2174000
379,379,2015-09-28,610.34,614.61,589.38,594.89,3127667
380,380,2015-09-29,597.28,605.0,590.22,594.97,2310200
381,381,2015-09-30,603.28,608.76,600.73,608.42,2413400
382,382,2015-10-01,608.37,612.09,599.85,611.29,1867600
383,383,2015-10-02,607.2,627.34,603.13,626.91,2684800
384,384,2015-10-05,632.0,643.01,627.0,641.47,1803385
385,385,2015-10-06,638.84,649.25,636.53,645.44,2236800
386,386,2015-10-07,649.24,650.61,632.15,642.36,2092700
387,387,2015-10-08,641.36,644.45,625.56,639.16,2182000
388,388,2015-10-09,640.0,645.99,635.32,643.61,1648600
389,389,2015-10-12,642.09,648.5,639.01,646.67,1276079
390,390,2015-10-13,643.15,657.81,643.15,652.3,1807600
391,391,2015-10-14,653.21,659.39,648.85,651.16,1415400
392,392,2015-10-15,654.66,663.13,654.46,661.74,1885700
393,393,2015-10-16,664.11,664.97,657.2,662.2,1611100
394,394,2015-10-19,661.18,666.82,659.58,666.1,1477300
395,395,2015-10-20,664.04,664.72,644.2,650.28,1688225
396,396,2015-10-21,654.15,655.87,641.73,642.61,1794100
397,397,2015-10-22,646.7,657.8,644.01,651.79,4070900
398,398,2015-10-23,727.5,730.0,701.5,702.0,6653900
399,399,2015-10-26,701.55,719.15,701.26,712.78,2716600
400,400,2015-10-27,707.38,713.62,704.55,708.49,2245700
401,401,2015-10-28,707.33,712.98,703.08,712.95,2178900
402,402,2015-10-29,710.5,718.26,710.01,716.92,1455900
403,403,2015-10-30,715.73,718.0,710.05,710.81,1908700
404,404,2015-11-02,711.06,721.62,705.85,721.11,1886250
405,405,2015-11-03,718.86,724.65,714.72,722.16,1565300
406,406,2015-11-04,722.0,733.1,721.9,728.11,1706371
407,407,2015-11-05,729.47,739.48,729.47,731.25,1861500
408,408,2015-11-06,731.5,735.41,727.01,733.76,1511500
409,409,2015-11-09,730.2,734.71,719.43,724.89,2069807
410,410,2015-11-10,724.4,730.59,718.5,728.32,1607900
411,411,2015-11-11,732.46,741.0,730.23,735.4,1366900
412,412,2015-11-12,731.0,737.8,728.65,731.23,1837100
413,413,2015-11-13,729.17,731.15,716.73,717.0,2075500
414,414,2015-11-16,715.6,729.49,711.33,728.96,1905800
415,415,2015-11-17,729.29,731.84,723.03,725.3,1510900
416,416,2015-11-18,727.58,741.41,727.0,740.0,1684200
417,417,2015-11-19,738.74,742.0,737.43,738.41,1327800
418,418,2015-11-20,746.53,757.92,743.0,756.6,2213200
419,419,2015-11-23,757.45,762.71,751.82,755.98,1415300
420,420,2015-11-24,752.0,755.28,737.63,748.28,2334100
421,421,2015-11-25,748.14,752.0,746.06,748.15,1122200
422,422,2015-11-27,748.46,753.41,747.49,750.26,838500
423,423,2015-11-30,748.81,754.93,741.27,742.6,2097600
424,424,2015-12-01,747.11,768.95,746.7,767.04,2134621
425,425,2015-12-02,768.9,775.96,758.96,762.38,2230200
426,426,2015-12-03,766.01,768.99,745.63,752.54,2590601
427,427,2015-12-04,753.1,768.49,750.0,766.81,2757200
428,428,2015-12-07,767.77,768.73,755.09,763.25,1812300
429,429,2015-12-08,757.89,764.8,754.2,762.37,1829475
430,430,2015-12-09,759.17,764.23,737.0,751.61,2699900
431,431,2015-12-10,752.85,755.85,743.83,749.46,1988300
432,432,2015-12-11,741.16,745.71,736.75,738.87,2224400
433,433,2015-12-14,741.79,748.73,724.17,747.77,2418912
434,434,2015-12-15,753.0,758.08,743.01,743.4,2666200
435,435,2015-12-16,750.0,760.59,739.43,758.09,1993200
436,436,2015-12-17,762.42,762.68,749.0,749.43,1553400
437,437,2015-12-18,746.51,754.13,738.15,739.31,3148700
438,438,2015-12-21,746.13,750.0,740.0,747.77,1525700
439,439,2015-12-22,751.65,754.85,745.53,750.0,1365420
440,440,2015-12-23,753.47,754.21,744.0,750.31,1566700
441,441,2015-12-24,749.55,751.35,746.62,748.4,527223
442,442,2015-12-28,752.92,762.99,749.52,762.51,1515716
443,443,2015-12-29,766.69,779.98,766.43,776.6,1765012
444,444,2015-12-30,776.6,777.6,766.9,771.0,868174
445,445,2015-12-31,769.5,769.5,758.34,758.88,1070048
446,446,2016-01-04,743.0,744.06,731.258,741.84,2258966
447,447,2016-01-05,746.45,752.0,738.64,742.58,1359685
448,448,2016-01-06,730.0,747.18,728.92,743.62,1775394
449,449,2016-01-07,730.31,738.5,719.06,726.39,2509556
450,450,2016-01-08,731.45,733.23,713.0,714.47,2338972
451,451,2016-01-11,716.61,718.855,703.54,716.03,2090621
452,452,2016-01-12,721.68,728.75,717.317,726.07,1781584
453,453,2016-01-13,730.85,734.74,698.61,700.56,1713897
454,454,2016-01-14,705.38,721.925,689.1,714.72,1923982
455,455,2016-01-15,692.29,706.74,685.37,694.45,2645079
456,456,2016-01-19,703.3,709.98,693.41,701.79,2268000
457,457,2016-01-20,688.61,706.85,673.26,698.45,3192247
458,458,2016-01-21,702.18,719.19,694.46,706.59,2308528
459,459,2016-01-22,723.6,728.13,720.121,725.25,1841101
460,460,2016-01-25,723.58,729.68,710.01,711.67,1588956
461,461,2016-01-26,713.85,718.28,706.48,713.04,1251534
462,462,2016-01-27,713.67,718.235,694.39,699.99,1181790
463,463,2016-01-28,722.22,733.69,712.35,730.96,2370760
464,464,2016-01-29,731.53,744.99,726.8,742.95,2490656
465,465,2016-02-01,750.46,757.86,743.27,752.0,3015303
466,466,2016-02-02,784.5,789.87,764.65,764.65,5009772
467,467,2016-02-03,770.22,774.5,720.5,726.95,5753416
468,468,2016-02-04,722.81,727.0,701.86,708.01,4812793
469,469,2016-02-05,703.87,703.99,680.15,683.57,3863948
470,470,2016-02-08,667.85,684.03,663.06,682.74,3117992
471,471,2016-02-09,672.32,699.9,668.77,678.11,2663219
472,472,2016-02-10,686.86,701.31,682.13,684.12,2030829
473,473,2016-02-11,675.0,689.35,668.868,683.11,2154962
474,474,2016-02-12,690.26,693.75,678.6,682.4,1983019
475,475,2016-02-16,692.98,698.0,685.05,691.0,2136824
476,476,2016-02-17,699.0,709.75,691.38,708.4,1835411
477,477,2016-02-18,710.0,712.35,696.03,697.35,1287855
478,478,2016-02-19,695.03,703.081,694.05,700.91,1134665
479,479,2016-02-22,707.45,713.24,702.51,706.46,1410613
480,480,2016-02-23,701.45,708.4,693.58,695.85,1405180
481,481,2016-02-24,688.92,700.0,680.78,699.56,1318221
482,482,2016-02-25,700.01,705.98,690.585,705.75,1133274
483,483,2016-02-26,708.58,713.43,700.86,705.07,2060942
484,484,2016-02-29,700.32,710.89,697.68,697.77,1467267
485,485,2016-03-01,703.62,718.81,699.77,718.81,1453825
486,486,2016-03-02,719.0,720.0,712.0,718.85,1082731
487,487,2016-03-03,718.68,719.45,706.02,712.42,1895828
488,488,2016-03-04,714.99,716.49,706.02,710.89,1306306
489,489,2016-03-07,706.9,708.091,686.9,695.16,2734897
490,490,2016-03-08,688.59,703.79,685.34,693.97,1378967
491,491,2016-03-09,698.47,705.68,694.0,705.24,1179552
492,492,2016-03-10,708.12,716.44,703.36,712.82,2833525
493,493,2016-03-11,720.0,726.92,717.125,726.82,1660799
494,494,2016-03-14,726.81,735.5,725.15,730.49,1718252
495,495,2016-03-15,726.92,732.29,724.77,728.33,1720965
496,496,2016-03-16,726.37,737.47,724.51,736.09,1624370
497,497,2016-03-17,736.45,743.07,736.0,737.78,1860834
498,498,2016-03-18,741.86,742.0,731.83,737.6,2980709
499,499,2016-03-21,736.5,742.5,733.516,742.09,1836503
500,500,2016-03-22,737.46,745.0,737.46,740.75,1269749
501,501,2016-03-23,742.36,745.72,736.15,738.06,1432099
502,502,2016-03-24,732.01,737.747,731.0,735.3,1594891
503,503,2016-03-28,736.79,738.99,732.5,733.53,917843
504,504,2016-03-29,734.59,747.25,728.76,744.77,1352078
505,505,2016-03-30,750.1,757.88,748.74,750.53,1238933
506,506,2016-03-31,749.25,750.85,740.94,744.95,1130133
507,507,2016-04-01,738.6,750.34,737.0,749.91,1098682
508,508,2016-04-04,750.06,752.8,742.43,745.29,783665
509,509,2016-04-05,738.0,742.8,735.37,737.8,970414
510,510,2016-04-06,735.77,746.24,735.56,745.69,726844
511,511,2016-04-07,745.37,747.0,736.28,740.28,1036311
512,512,2016-04-08,743.97,745.45,735.55,739.15,1254527
513,513,2016-04-11,743.02,745.0,736.05,736.1,818464
514,514,2016-04-12,738.0,743.83,731.01,743.09,1141578
515,515,2016-04-13,749.16,754.38,744.261,751.72,1202835
516,516,2016-04-14,754.01,757.31,752.705,753.2,815417
517,517,2016-04-15,753.98,761.0,752.694,759.0,1552347
518,518,2016-04-18,760.46,768.05,757.3,766.61,1442123
519,519,2016-04-19,769.51,769.9,749.33,753.93,1305326
520,520,2016-04-20,758.0,758.132,750.01,752.67,1082739
521,521,2016-04-21,755.38,760.43,749.55,759.14,1546480
522,522,2016-04-22,726.3,736.12,713.61,718.77,5467206
523,523,2016-04-25,716.1,723.93,715.59,723.15,1312381
524,524,2016-04-26,725.42,725.766,703.026,708.14,2010224
525,525,2016-04-27,707.29,708.98,692.365,705.84,2822644
526,526,2016-04-28,708.26,714.17,689.55,691.02,2167756
527,527,2016-04-29,690.7,697.62,689.0,693.01,1976287
528,528,2016-05-02,697.63,700.64,691.0,698.21,1134592
529,529,2016-05-03,696.87,697.84,692.0,692.36,1006062
530,530,2016-05-04,690.49,699.75,689.01,695.7,1166670
531,531,2016-05-05,697.7,702.32,695.72,701.41,1214920
532,532,2016-05-06,698.38,711.86,698.107,711.12,1589924
533,533,2016-05-09,712.0,718.71,710.0,712.9,1330750
534,534,2016-05-10,716.75,723.5,715.72,723.18,1490782
535,535,2016-05-11,723.41,724.48,712.8,715.29,1225628
536,536,2016-05-12,717.06,719.25,709.0,713.31,865189
537,537,2016-05-13,711.93,716.662,709.26,710.83,853701
538,538,2016-05-16,709.13,718.48,705.65,716.49,1267485
539,539,2016-05-17,715.99,721.52,704.11,706.29,1801286
540,540,2016-05-18,703.67,711.6,700.63,706.63,1200724
541,541,2016-05-19,702.36,706.0,696.8,700.32,1078707
542,542,2016-05-20,701.62,714.58,700.52,709.74,1326982
543,543,2016-05-23,706.53,711.478,704.18,704.24,873438
544,544,2016-05-24,706.86,720.97,706.86,720.09,1266430
545,545,2016-05-25,720.76,727.51,719.705,725.27,1456950
546,546,2016-05-26,722.87,728.33,720.28,724.12,1119858
547,547,2016-05-27,724.01,733.936,724.0,732.66,1542103
548,548,2016-05-31,731.74,739.73,731.26,735.55,1227131
549,549,2016-06-01,734.53,737.21,730.66,734.15,1164471
550,550,2016-06-02,732.5,733.02,724.17,730.4,895953
551,551,2016-06-03,729.27,729.49,720.56,722.34,866004
552,552,2016-06-06,724.91,724.91,714.61,716.55,1120039
553,553,2016-06-07,719.84,721.98,716.55,716.65,1115971
554,554,2016-06-08,723.96,728.57,720.58,728.28,1150436
555,555,2016-06-09,722.87,729.54,722.336,728.58,762995
556,556,2016-06-10,719.47,725.89,716.43,719.39,734876
557,557,2016-06-13,716.51,725.44,716.51,718.36,699764
558,558,2016-06-14,716.48,722.47,713.12,718.27,1271681
559,559,2016-06-15,719.0,722.46,717.31,718.92,751209
560,560,2016-06-16,714.91,716.65,703.26,710.37,1294394
561,561,2016-06-17,708.65,708.82,688.452,691.72,2409492
562,562,2016-06-20,698.77,702.48,693.41,693.71,1744446
563,563,2016-06-21,698.4,702.77,692.01,695.94,1369469
564,564,2016-06-22,699.06,700.86,693.082,697.68,639269
565,565,2016-06-23,697.45,701.95,687.0,701.87,1507403
566,566,2016-06-24,675.17,689.4,673.45,675.22,2904873
567,567,2016-06-27,671.0,672.3,663.284,668.26,2388710
568,568,2016-06-28,678.97,680.33,673.0,680.04,1221077
569,569,2016-06-29,683.0,687.429,681.41,684.11,1781749
570,570,2016-06-30,685.47,692.32,683.65,692.1,1106268
571,571,2016-07-01,692.2,700.65,692.13,699.21,910326
572,572,2016-07-05,696.06,696.94,688.88,694.95,1011262
573,573,2016-07-06,689.98,701.68,689.09,697.77,1160832
574,574,2016-07-07,698.08,698.2,688.215,695.36,900031
575,575,2016-07-08,699.5,705.71,696.435,705.63,1199498
576,576,2016-07-11,708.05,716.51,707.24,715.09,933552
577,577,2016-07-12,719.12,722.94,715.91,720.64,915244
578,578,2016-07-13,723.62,724.0,716.85,716.98,610288
579,579,2016-07-14,721.58,722.21,718.03,720.95,591177
580,580,2016-07-15,725.73,725.74,719.055,719.71,838179
581,581,2016-07-18,722.71,736.13,721.19,733.78,1084872
582,582,2016-07-19,729.89,736.99,729.0,736.96,1060873
583,583,2016-07-20,737.33,742.13,737.1,741.19,883372
584,584,2016-07-21,740.36,741.69,735.831,738.63,651641
585,585,2016-07-22,741.86,743.24,736.56,742.74,923487
586,586,2016-07-25,740.67,742.61,737.5,739.77,742653
587,587,2016-07-26,739.04,741.69,734.27,738.42,800931
588,588,2016-07-27,738.28,744.46,737.0,741.77,871502
589,589,2016-07-28,747.04,748.65,739.3,745.91,2550168
590,590,2016-07-29,772.71,778.55,766.77,768.79,2733132
591,591,2016-08-01,761.09,780.43,761.09,772.88,1950146
592,592,2016-08-02,768.69,775.84,767.85,771.06,1177012
593,593,2016-08-03,767.18,773.21,766.82,773.18,871074
594,594,2016-08-04,772.22,774.07,768.795,771.61,763261
595,595,2016-08-05,773.78,783.04,772.34,782.01,1016983
596,596,2016-08-08,782.0,782.63,778.091,781.76,897096
597,597,2016-08-09,781.1,788.94,780.57,784.26,922659
598,598,2016-08-10,783.75,786.812,782.778,784.68,563639
599,599,2016-08-11,785.0,789.75,782.97,784.85,642270
600,600,2016-08-12,781.5,783.395,780.4,783.22,596918
601,601,2016-08-15,783.75,787.49,780.11,782.44,752647
602,602,2016-08-16,780.3,780.98,773.444,777.13,624204
603,603,2016-08-17,777.32,780.81,773.53,779.91,628560
604,604,2016-08-18,780.01,782.86,777.0,777.5,593087
605,605,2016-08-19,775.0,777.1,773.13,775.42,601928
606,606,2016-08-22,773.27,774.54,770.05,772.15,667143
607,607,2016-08-23,775.48,776.44,771.785,772.08,636501
608,608,2016-08-24,770.58,774.5,767.07,769.64,741804
609,609,2016-08-25,767.0,771.89,763.185,769.41,634003
610,610,2016-08-26,769.0,776.08,765.85,769.54,1021451
611,611,2016-08-29,768.74,774.99,766.615,772.15,604406
612,612,2016-08-30,769.33,774.466,766.84,769.09,787138
613,613,2016-08-31,767.01,769.09,765.38,767.12,751591
614,614,2016-09-01,769.25,771.02,764.3,768.78,618692
615,615,2016-09-02,773.01,773.92,768.41,771.46,774256
616,616,2016-09-06,773.45,782.0,771.0,780.08,1239451
617,617,2016-09-07,780.0,782.73,776.2,780.35,590233
618,618,2016-09-08,778.59,780.35,773.58,775.32,707531
619,619,2016-09-09,770.1,773.245,759.66,759.66,1571155
620,620,2016-09-12,755.13,770.29,754.0,769.02,1176041
621,621,2016-09-13,764.48,766.22,755.8,759.69,912432
622,622,2016-09-14,759.61,767.68,759.11,762.49,746816
623,623,2016-09-15,762.89,773.8,759.96,772.1,1028285
624,624,2016-09-16,769.75,769.75,764.66,768.88,1486221
625,625,2016-09-19,772.42,774.0,764.441,765.7,760052
626,626,2016-09-20,769.0,773.33,768.53,771.41,661423
627,627,2016-09-21,772.66,777.16,768.301,776.22,780841
628,628,2016-09-22,780.0,789.85,778.44,787.21,985732
629,629,2016-09-23,786.59,788.93,784.15,786.9,1211305
630,630,2016-09-26,782.74,782.74,773.07,774.2,1187269
631,631,2016-09-27,775.5,785.99,774.308,783.01,752930
632,632,2016-09-28,777.85,781.81,774.97,781.56,844106
633,633,2016-09-29,781.44,785.8,774.232,775.01,1212788
634,634,2016-09-30,776.33,780.94,774.09,777.29,1355870
635,635,2016-10-03,774.25,776.065,769.5,772.56,1055724
636,636,2016-10-04,776.03,778.71,772.89,776.43,844179
637,637,2016-10-05,779.31,782.07,775.65,776.47,880132
638,638,2016-10-06,779.0,780.48,775.54,776.86,808197
639,639,2016-10-07,779.66,779.66,770.75,775.08,680154
640,640,2016-10-10,777.71,789.38,775.87,785.94,871065
641,641,2016-10-11,786.66,792.28,780.58,783.07,921217
642,642,2016-10-12,783.76,788.13,782.06,786.14,731447
643,643,2016-10-13,781.22,781.22,773.0,778.19,897992
644,644,2016-10-14,781.65,783.95,776.0,778.53,587036
645,645,2016-10-17,779.8,785.85,777.5,779.96,776584
646,646,2016-10-18,787.85,801.61,785.565,795.26,1955165
647,647,2016-10-19,798.86,804.63,797.635,801.56,1215080
648,648,2016-10-20,803.3,803.97,796.03,796.97,1537480
649,649,2016-10-21,795.0,799.5,794.0,799.38,780455
650,650,2016-10-24,804.9,815.18,804.82,813.11,1597302
651,651,2016-10-25,816.68,816.68,805.14,807.67,1534413
652,652,2016-10-26,806.34,806.98,796.32,799.07,1568414
653,653,2016-10-27,801.0,803.49,791.5,795.35,2015863
654,654,2016-10-28,808.35,815.49,793.59,795.37,3985626
655,655,2016-10-31,795.47,796.86,784.0,784.54,2427284
656,656,2016-11-01,782.89,789.49,775.54,783.61,2406356
657,657,2016-11-02,778.2,781.65,763.45,768.7,1918414
658,658,2016-11-03,767.25,769.95,759.03,762.13,1943175
659,659,2016-11-04,750.66,770.36,750.561,762.02,2134812
660,660,2016-11-07,774.5,785.19,772.55,782.52,1477543
661,661,2016-11-08,783.4,795.633,780.19,790.51,1310757
662,662,2016-11-09,779.94,791.227,771.67,785.31,2375926
663,663,2016-11-10,791.17,791.17,752.18,762.56,4646668
664,664,2016-11-11,756.54,760.78,750.38,754.02,2314990
665,665,2016-11-14,755.6,757.85,727.54,736.08,3654385
666,666,2016-11-15,746.97,764.416,746.97,758.49,2384001
667,667,2016-11-16,755.2,766.36,750.51,764.48,1443357
668,668,2016-11-17,766.92,772.7,764.23,771.23,1204735
669,669,2016-11-18,771.37,775.0,760.0,760.54,1511143
670,670,2016-11-21,762.61,769.7,760.6,769.2,1278480
671,671,2016-11-22,772.63,776.96,767.0,768.27,1549195
672,672,2016-11-23,767.73,768.283,755.25,760.99,1433899
673,673,2016-11-25,764.26,765.0,760.52,761.68,561760
674,674,2016-11-28,760.0,779.53,759.8,768.24,2077465
675,675,2016-11-29,771.53,778.5,768.24,770.84,1572748
676,676,2016-11-30,770.07,772.99,754.83,758.04,2320292
677,677,2016-12-01,757.44,759.85,737.025,747.92,2968343
678,678,2016-12-02,744.59,754.0,743.1,750.5,1424697
679,679,2016-12-05,757.71,763.9,752.9,762.52,1331968
680,680,2016-12-06,764.73,768.83,757.34,759.11,1614606
681,681,2016-12-07,761.0,771.36,755.8,771.19,1703058
682,682,2016-12-08,772.48,778.18,767.23,776.4,1337581
683,683,2016-12-09,780.0,789.43,779.021,789.29,1757030
684,684,2016-12-12,785.04,791.25,784.355,789.27,2084246
685,685,2016-12-13,793.9,804.38,793.34,796.1,2071966
686,686,2016-12-14,797.4,804.0,794.01,797.07,1599414
687,687,2016-12-15,797.34,803.0,792.92,797.85,1510240
688,688,2016-12-16,800.4,800.856,790.36,790.8,2042768
689,689,2016-12-19,790.22,797.66,786.27,794.15,1082046
690,690,2016-12-20,796.76,798.65,793.27,796.42,912191
691,691,2016-12-21,795.84,796.676,787.1,794.58,1137261
692,692,2016-12-22,792.36,793.32,788.58,791.26,904602
693,693,2016-12-23,790.9,792.74,787.28,789.91,605954
694,694,2016-12-27,790.68,797.86,787.657,791.55,774577
695,695,2016-12-28,793.7,794.23,783.2,785.05,970714
696,696,2016-12-29,783.33,785.93,778.92,782.79,738203
697,697,2016-12-30,782.75,782.78,770.41,771.82,1769950
698,698,2017-01-03,778.81,789.63,775.8,786.14,1605446
699,699,2017-01-04,788.36,791.34,783.16,786.9,1052125
700,700,2017-01-05,786.08,794.48,785.02,794.03,1114512
701,701,2017-01-06,795.26,807.9,792.204,806.15,1567821
702,702,2017-01-09,806.4,809.966,802.83,806.65,1230371
703,703,2017-01-10,807.86,809.13,803.51,804.8,997730
704,704,2017-01-11,805.0,808.15,801.37,807.91,1041244
705,705,2017-01-12,807.14,807.39,799.17,806.36,1278695
706,706,2017-01-13,807.48,811.224,806.69,807.88,1067240
707,707,2017-01-17,807.08,807.14,800.37,804.61,1141577
708,708,2017-01-18,805.81,806.205,800.99,806.07,1195669
709,709,2017-01-19,805.12,809.48,801.8,802.175,894921
710,710,2017-01-20,806.91,806.91,801.69,805.02,1569196
711,711,2017-01-23,807.25,820.87,803.74,819.31,1811778
712,712,2017-01-24,822.3,825.9,817.821,823.87,1420133
713,713,2017-01-25,829.62,835.77,825.06,835.67,1457244
714,714,2017-01-26,837.81,838.0,827.01,832.15,2374731
715,715,2017-01-27,834.71,841.95,820.44,823.31,2867241
716,716,2017-01-30,814.66,815.84,799.8,802.32,3118289
717,717,2017-01-31,796.86,801.25,790.52,796.79,2026212
718,718,2017-02-01,799.68,801.19,791.19,795.695,1973620
719,719,2017-02-02,793.8,802.7,792.0,798.53,1416853
720,720,2017-02-03,802.99,806.0,800.37,801.49,1463448
721,721,2017-02-06,799.7,801.67,795.25,801.34,1124955
722,722,2017-02-07,803.99,810.5,801.78,806.97,1225336
723,723,2017-02-08,807.0,811.84,803.19,808.38,1127543
724,724,2017-02-09,809.51,810.66,804.54,809.56,956998
725,725,2017-02-10,811.7,815.25,809.78,813.67,1102389
726,726,2017-02-13,816.0,820.959,815.49,819.24,1133310
727,727,2017-02-14,819.0,823.0,816.0,820.39,928985
728,728,2017-02-15,819.36,823.0,818.47,818.98,1244773
729,729,2017-02-16,819.93,824.4,818.98,824.16,1266675
730,730,2017-02-17,823.02,828.07,821.655,828.07,1386194
731,731,2017-02-21,828.66,833.45,828.35,831.66,1147909
732,732,2017-02-22,828.66,833.25,828.64,830.76,901969
733,733,2017-02-23,830.12,832.46,822.88,831.33,1192820
734,734,2017-02-24,827.73,829.0,824.2,828.64,1376546
735,735,2017-02-27,824.55,830.5,824.0,829.28,1048782
736,736,2017-02-28,825.61,828.54,820.2,823.21,1638677
737,737,2017-03-01,828.85,836.255,827.26,835.24,1412695
738,738,2017-03-02,833.85,834.51,829.64,830.63,795781
739,739,2017-03-03,830.56,831.36,825.751,829.08,881685
740,740,2017-03-06,826.95,828.88,822.4,827.56,954852
741,741,2017-03-07,827.4,833.41,826.52,831.91,983349
742,742,2017-03-08,833.51,838.15,831.79,835.37,915520
743,743,2017-03-09,836.0,842.0,834.21,838.68,1230591
744,744,2017-03-10,843.28,844.91,839.5,843.25,1668733
745,745,2017-03-13,847.753,848.685,843.25,845.54,1223647
746,746,2017-03-14,843.64,847.24,840.8,845.62,780198
747,747,2017-03-15,847.59,848.63,840.77,847.2,1381474
748,748,2017-03-16,849.03,850.85,846.13,848.78,977560
749,749,2017-03-17,851.61,853.4,847.11,852.12,1612724
750,750,2017-03-20,850.01,850.22,845.15,848.4,1231521
751,751,2017-03-21,851.4,853.5,829.02,830.46,2463484
752,752,2017-03-22,831.91,835.55,827.18,829.59,1401465
753,753,2017-03-23,821.0,822.57,812.257,817.58,3487056
754,754,2017-03-24,820.08,821.93,808.89,814.43,1942593
755,755,2017-03-27,806.95,821.63,803.37,819.51,1805933
756,756,2017-03-28,820.41,825.99,814.027,820.92,1527248
757,757,2017-03-29,825.0,832.765,822.38,831.41,1297192
758,758,2017-03-30,833.5,833.68,829.0,831.5,1042628
759,759,2017-03-31,828.97,831.64,827.39,829.6,1205256
760,760,2017-04-03,829.22,840.85,829.22,838.55,1671503
761,761,2017-04-04,831.36,835.18,829.036,834.57,1031012
762,762,2017-04-05,835.51,842.45,830.72,831.41,1509585
763,763,2017-04-06,832.4,836.39,826.46,827.88,1229645
764,764,2017-04-07,827.96,828.485,820.513,824.67,1057253
765,765,2017-04-10,825.39,829.35,823.77,824.73,888715
766,766,2017-04-11,824.71,827.427,817.02,823.35,1079732
767,767,2017-04-12,821.93,826.66,821.02,824.32,858986
768,768,2017-04-13,822.14,826.38,821.44,823.56,955830
769,769,2017-04-17,825.01,837.75,824.47,837.17,833593
770,770,2017-04-18,834.22,838.93,832.71,836.82,773214
771,771,2017-04-19,839.79,842.22,836.29,838.21,936210
772,772,2017-04-20,841.44,845.2,839.32,841.65,933451
773,773,2017-04-21,842.88,843.88,840.6,843.19,1256562
774,774,2017-04-24,851.2,863.45,849.86,862.76,1371831
775,775,2017-04-25,865.0,875.0,862.81,872.3,1671671
776,776,2017-04-26,874.23,876.05,867.748,871.73,1235967
777,777,2017-04-27,873.6,875.4,870.38,874.25,2014677
778,778,2017-04-28,910.66,916.85,905.77,905.96,3276255
779,779,2017-05-01,901.94,915.68,901.45,912.57,2115701
780,780,2017-05-02,909.62,920.77,909.453,916.44,1545245
781,781,2017-05-03,914.86,928.1,912.543,927.04,1498051
782,782,2017-05-04,926.07,935.93,924.59,931.66,1421984
783,783,2017-05-05,933.54,934.9,925.2,927.13,1911275
784,784,2017-05-08,926.12,936.925,925.26,934.3,1329096
785,785,2017-05-09,936.95,937.5,929.53,932.17,1581337
786,786,2017-05-10,931.98,932.0,925.16,928.78,1173901
787,787,2017-05-11,925.32,932.53,923.03,930.6,835028
788,788,2017-05-12,931.53,933.44,927.85,932.22,1050377
789,789,2017-05-15,932.95,938.25,929.34,937.08,1104646
790,790,2017-05-16,940.0,943.11,937.58,943.0,968288
791,791,2017-05-17,935.67,939.333,918.14,919.62,2357984
792,792,2017-05-18,921.0,933.17,918.75,930.24,1596897
793,793,2017-05-19,931.47,937.755,931.0,934.01,1389830
794,794,2017-05-22,935.0,941.883,935.0,941.86,1118907
795,795,2017-05-23,947.92,951.467,942.575,948.82,1269442
796,796,2017-05-24,952.98,955.09,949.5,954.96,1031483
797,797,2017-05-25,957.33,972.629,955.47,969.54,1659922
798,798,2017-05-26,969.7,974.98,965.03,971.47,1251424
799,799,2017-05-30,970.31,976.2,969.49,975.88,1466288
800,800,2017-05-31,975.02,979.27,960.18,964.86,2447196
801,801,2017-06-01,968.95,971.5,960.01,966.95,1410194
802,802,2017-06-02,969.46,975.6,966.0,975.6,1747159
803,803,2017-06-05,976.55,986.91,975.1,983.68,1251915
804,804,2017-06-06,983.16,988.25,975.14,976.72,1814374
805,805,2017-06-07,979.65,984.15,975.77,981.08,1447192
806,806,2017-06-08,982.35,984.57,977.2,983.4,1477184
807,807,2017-06-09,984.5,984.5,935.63,949.83,3306186
808,808,2017-06-12,939.56,949.355,915.233,942.9,3762440
809,809,2017-06-13,951.91,959.98,944.09,953.4,2013077
810,810,2017-06-14,959.92,961.15,942.25,950.76,1487430
811,811,2017-06-15,933.97,943.339,924.44,942.31,2065277
812,812,2017-06-16,940.0,942.04,931.595,939.78,3061998
813,813,2017-06-19,949.96,959.99,949.05,957.37,1530467
814,814,2017-06-20,957.52,961.62,950.01,950.63,1125862
815,815,2017-06-21,953.64,960.1,950.76,959.45,1202233
816,816,2017-06-22,958.7,960.72,954.55,957.09,941678
817,817,2017-06-23,956.83,966.0,954.2,965.59,1527515
818,818,2017-06-26,969.9,973.31,950.79,952.27,1596876
819,819,2017-06-27,942.46,948.29,926.85,928.13,2578143
820,820,2017-06-28,929.0,942.75,916.0,940.49,2719227
821,821,2017-06-29,929.92,931.26,910.62,917.79,3288129
822,822,2017-06-30,926.05,926.05,908.31,908.73,2086402
823,823,2017-07-03,912.18,913.94,894.79,898.11,1710373
824,824,2017-07-05,901.76,914.51,898.5,911.71,1813319
825,825,2017-07-06,904.12,914.944,899.7,906.69,1424384
826,826,2017-07-07,908.85,921.54,908.85,918.59,1603306
827,827,2017-07-10,921.77,930.38,919.59,928.8,1192091
828,828,2017-07-11,929.54,931.43,922.0,930.09,1112531
829,829,2017-07-12,938.68,946.3,934.47,943.83,1531394
830,830,2017-07-13,946.29,954.45,943.01,947.159,1294675
831,831,2017-07-14,952.0,956.91,948.005,956.0,1052894
832,832,2017-07-17,957.0,960.74,949.241,953.42,1164272
833,833,2017-07-18,953.0,968.04,950.6,965.4,1153053
834,834,2017-07-19,967.84,973.04,964.03,970.89,1223978
835,835,2017-07-20,975.0,975.9,961.51,968.15,1621399
836,836,2017-07-21,962.25,973.23,960.15,972.92,1697398
837,837,2017-07-24,972.22,986.2,970.77,980.34,3218803
838,838,2017-07-25,953.81,959.7,945.4,950.7,4658321
839,839,2017-07-26,954.68,955.0,942.279,947.8,2082194
840,840,2017-07-27,951.78,951.78,920.0,934.09,3129465
841,841,2017-07-28,929.4,943.83,927.5,941.53,1802451
842,842,2017-07-31,941.89,943.59,926.04,930.5,1965455
843,843,2017-08-01,932.38,937.447,929.26,930.83,1234746
844,844,2017-08-02,928.61,932.6,916.68,930.39,1822424
845,845,2017-08-03,930.34,932.24,922.24,923.65,1201975
846,846,2017-08-04,926.64,930.307,923.03,927.96,1081918
847,847,2017-08-07,929.06,931.7,926.5,929.36,1031721
848,848,2017-08-08,927.09,935.814,925.61,926.79,1057532
849,849,2017-08-09,920.61,925.98,917.25,922.9,1191341
850,850,2017-08-10,917.55,919.26,906.13,907.24,1757389
851,851,2017-08-11,907.97,917.78,905.58,914.39,1205970
852,852,2017-08-14,922.53,924.668,918.19,922.67,1063412
853,853,2017-08-15,924.23,926.55,919.82,922.22,882511
854,854,2017-08-16,925.29,932.7,923.445,926.96,1005761
855,855,2017-08-17,925.78,926.86,910.98,910.98,1254503
856,856,2017-08-18,910.31,915.275,907.154,910.67,1342011
857,857,2017-08-21,910.0,913.0,903.4,906.66,942384
858,858,2017-08-22,912.72,925.86,911.475,924.69,1166326
859,859,2017-08-23,921.93,929.93,919.36,927.0,1088590
860,860,2017-08-24,928.66,930.84,915.5,921.28,1269905
861,861,2017-08-25,923.49,925.555,915.5,915.89,1052775
862,862,2017-08-28,916.0,919.245,911.87,913.81,1085353
863,863,2017-08-29,905.1,923.33,905.0,921.29,1185501
864,864,2017-08-30,920.05,930.819,919.65,929.57,1301127
865,865,2017-08-31,931.76,941.98,931.76,939.33,1576875
866,866,2017-09-01,941.13,942.48,935.15,937.34,947039
867,867,2017-09-05,933.08,937.0,921.96,928.45,1346797
868,868,2017-09-06,930.15,930.915,919.27,927.81,1527274
869,869,2017-09-07,931.73,936.41,923.62,936.02,1211997
870,870,2017-09-08,936.49,936.99,924.88,926.5,999166
871,871,2017-09-11,934.25,938.38,926.92,929.08,1266079
872,872,2017-09-12,932.59,933.48,923.861,932.07,1134054
873,873,2017-09-13,930.66,937.25,929.86,935.09,1101219
874,874,2017-09-14,931.25,932.77,924.0,925.11,1395543
875,875,2017-09-15,924.66,926.49,916.36,920.29,2499545
876,876,2017-09-18,920.01,922.08,910.6,915.0,1300826
877,877,2017-09-19,917.42,922.42,912.55,921.81,923253
878,878,2017-09-20,922.98,933.88,922.0,931.58,1542266
879,879,2017-09-21,933.0,936.53,923.83,932.45,1227066
880,880,2017-09-22,927.75,934.73,926.48,928.53,1052171
881,881,2017-09-25,925.45,926.4,909.7,920.97,1855886
882,882,2017-09-26,923.72,930.82,921.14,924.86,1666749
883,883,2017-09-27,927.74,949.9,927.74,944.49,2237538
884,884,2017-09-28,941.36,950.69,940.55,949.5,997202
885,885,2017-09-29,952.0,959.786,951.51,959.11,1579728
886,886,2017-10-02,959.98,962.54,947.84,953.27,1282861
887,887,2017-10-03,954.0,958.0,949.14,957.79,888306
888,888,2017-10-04,957.0,960.39,950.69,951.68,951792
889,889,2017-10-05,955.49,970.91,955.18,969.96,1213368
890,890,2017-10-06,966.7,979.46,963.36,978.38,1172738
891,891,2017-10-09,980.0,985.425,976.11,977.0,890722
892,892,2017-10-10,980.0,981.57,966.08,972.6,968115
893,893,2017-10-11,973.72,990.71,972.25,989.25,1692880
894,894,2017-10-12,987.45,994.12,985.0,987.91,1278363
895,895,2017-10-13,992.0,997.21,989.0,989.68,1169587
896,896,2017-10-16,992.1,993.907,984.0,992.0,910246
897,897,2017-10-17,990.29,996.44,988.59,992.18,1290157
898,898,2017-10-18,991.77,996.72,986.975,992.81,1057506
899,899,2017-10-19,986.0,988.88,978.39,984.45,1312902
900,900,2017-10-20,989.44,991.0,984.58,988.2,1176177
901,901,2017-10-23,989.52,989.52,966.12,968.45,1478308
902,902,2017-10-24,970.0,972.23,961.0,970.54,1206099
903,903,2017-10-25,968.37,976.09,960.52,973.33,1210419
904,904,2017-10-26,980.0,987.6,972.2,972.56,2031039
905,905,2017-10-27,1009.11,1048.39,1008.25,1019.27,5165933
906,906,2017-10-30,1014.0,1024.97,1007.5,1017.11,2085062
907,907,2017-10-31,1015.22,1024.0,1010.42,1016.64,1331391
908,908,2017-11-01,1017.21,1029.67,1016.95,1025.5,1373444
909,909,2017-11-02,1021.76,1028.09,1013.01,1025.58,1048970
910,910,2017-11-03,1022.11,1032.65,1020.31,1032.48,1076350
911,911,2017-11-06,1028.99,1034.87,1025.0,1025.9,1124765
912,912,2017-11-07,1027.27,1033.96,1027.12,1033.33,1112146
913,913,2017-11-08,1030.52,1043.52,1028.45,1039.85,1088395
914,914,2017-11-09,1033.99,1033.99,1019.67,1031.05,1244886
915,915,2017-11-10,1026.46,1030.76,1025.28,1028.07,720674
916,916,2017-11-13,1023.42,1031.58,1022.57,1025.75,885615
917,917,2017-11-14,1022.59,1026.81,1014.15,1026.0,958747
918,918,2017-11-15,1019.21,1024.09,1015.42,1020.91,848005
919,919,2017-11-16,1022.52,1035.92,1022.52,1032.5,1129425
920,920,2017-11-17,1034.01,1034.42,1017.75,1019.09,1367037
921,921,2017-11-20,1020.26,1022.61,1017.5,1018.38,951696
922,922,2017-11-21,1023.31,1035.11,1022.66,1034.49,1096172
923,923,2017-11-22,1035.0,1039.71,1031.43,1035.96,746354
924,924,2017-11-24,1035.87,1043.18,1035.0,1040.61,536996
925,925,2017-11-27,1040.0,1055.46,1038.44,1054.36,1307476
926,926,2017-11-28,1055.09,1062.38,1040.0,1047.41,1422877
927,927,2017-11-29,1042.68,1043.59,1015.65,1021.66,2458202
928,928,2017-11-30,1022.37,1028.49,1015.0,1021.41,1723635
929,929,2017-12-01,1015.8,1022.49,1002.02,1010.17,1908985
930,930,2017-12-04,1012.66,1016.1,995.57,998.68,1906075
931,931,2017-12-05,995.94,1020.61,988.28,1005.15,2066276
932,932,2017-12-06,1001.5,1024.97,1001.14,1018.38,1258519
933,933,2017-12-07,1020.43,1034.24,1018.07,1030.93,1458154
934,934,2017-12-08,1037.49,1042.05,1032.52,1036.88,1288482
935,935,2017-12-11,1035.5,1043.8,1032.05,1041.1,1190531
936,936,2017-12-12,1039.63,1050.31,1033.69,1040.48,1279526
937,937,2017-12-13,1046.12,1046.67,1038.38,1040.61,1220365
938,938,2017-12-14,1045.0,1058.5,1043.11,1049.15,1558722
939,939,2017-12-15,1054.61,1067.62,1049.5,1064.19,3275606
940,940,2017-12-18,1066.08,1078.49,1062.0,1077.14,1552018
941,941,2017-12-19,1075.2,1076.84,1063.55,1070.68,1338422
942,942,2017-12-20,1071.78,1073.38,1061.52,1064.95,1268286
943,943,2017-12-21,1064.95,1069.33,1061.79,1063.63,986553
944,944,2017-12-22,1061.11,1064.2,1059.44,1060.12,755089
945,945,2017-12-26,1058.07,1058.83,1050.2,1056.74,761185
946,946,2017-12-27,1057.39,1058.37,1048.05,1049.37,1271801
947,947,2017-12-28,1051.6,1054.75,1044.77,1048.14,834612
948,948,2017-12-29,1046.72,1049.7,1044.9,1046.4,886894
949,949,2018-01-02,1048.34,1066.94,1045.23,1064.9,1236401
950,950,2018-01-03,1064.31,1086.29,1063.21,1082.48,1429883
951,951,2018-01-04,1088.0,1093.57,1084.0,1086.4,1003740
952,952,2018-01-05,1094.0,1104.25,1092.0,1102.23,1278921
953,953,2018-01-08,1102.23,1111.27,1101.62,1106.94,1046769
954,954,2018-01-09,1109.4,1110.57,1101.23,1106.26,902138
955,955,2018-01-10,1097.1,1104.6,1096.11,1102.61,1042297
956,956,2018-01-11,1106.3,1106.5,1099.59,1105.52,977959
957,957,2018-01-12,1102.41,1124.29,1101.15,1122.26,1718498
958,958,2018-01-16,1132.51,1139.91,1117.83,1121.76,1566674
959,959,2018-01-17,1126.22,1132.6,1117.01,1131.98,1200479
960,960,2018-01-18,1131.41,1132.51,1117.5,1129.79,1196743
961,961,2018-01-19,1131.83,1137.86,1128.3,1137.51,1390222
962,962,2018-01-22,1137.49,1159.88,1135.11,1155.81,1616135
963,963,2018-01-23,1159.85,1171.63,1158.75,1169.97,1319468
964,964,2018-01-24,1177.33,1179.86,1161.05,1164.24,1382914
965,965,2018-01-25,1172.53,1175.94,1162.76,1170.37,1461520
966,966,2018-01-26,1175.08,1175.84,1158.11,1175.84,1982095
967,967,2018-01-29,1176.48,1186.89,1171.98,1175.58,1337342
968,968,2018-01-30,1167.83,1176.52,1163.52,1163.69,1546197
969,969,2018-01-31,1170.57,1173.0,1159.13,1169.94,1524846
970,970,2018-02-01,1162.61,1174.0,1157.52,1167.7,2388134
971,971,2018-02-02,1122.0,1123.07,1107.28,1111.9,4838121
972,972,2018-02-05,1090.6,1110.0,1052.03,1055.8,3770704
973,973,2018-02-06,1027.18,1081.71,1023.1367,1080.6,3447956
974,974,2018-02-07,1081.54,1081.78,1048.26,1048.58,2359880
975,975,2018-02-08,1055.41,1058.62,1000.66,1001.52,2810212
976,976,2018-02-09,1017.25,1043.97,992.56,1037.78,3503992
977,977,2018-02-12,1048.0,1061.5,1040.93,1052.48,2055570
978,978,2018-02-13,1045.0,1058.37,1044.09,1052.1,1213952
979,979,2018-02-14,1048.95,1071.72,1046.75,1069.71,1555384
980,980,2018-02-15,1079.07,1091.48,1064.34,1089.52,1785770
981,981,2018-02-16,1088.41,1104.67,1088.31,1094.8,1680545
982,982,2018-02-20,1090.57,1113.95,1088.52,1102.71,1391714
983,983,2018-02-21,1106.47,1133.97,1106.33,1111.34,1507505
984,984,2018-02-22,1116.19,1122.82,1102.59,1106.63,1309662
985,985,2018-02-23,1112.64,1127.28,1104.71,1126.79,1259230
986,986,2018-02-26,1127.8,1143.96,1126.7,1143.75,1515329
987,987,2018-02-27,1141.24,1144.04,1118.0,1118.29,1774080
988,988,2018-02-28,1123.03,1127.53,1103.24,1104.73,1882600
989,989,2018-03-01,1107.87,1110.12,1067.0,1069.52,2515910
990,990,2018-03-02,1053.08,1082.0,1048.12,1078.92,2271551
991,991,2018-03-05,1075.14,1097.1,1069.0,1090.93,1202174
992,992,2018-03-06,1099.22,1101.85,1089.78,1095.06,1532783
993,993,2018-03-07,1089.19,1112.22,1085.48,1109.64,1292537
994,994,2018-03-08,1115.32,1127.6,1112.8,1126.0,1355125
995,995,2018-03-09,1136.0,1160.8,1132.46,1160.04,2128038
996,996,2018-03-12,1163.85,1177.05,1157.42,1164.5,2172272
997,997,2018-03-13,1170.0,1176.76,1133.33,1138.17,1907171
998,998,2018-03-14,1145.21,1158.59,1141.44,1149.49,1291415
999,999,2018-03-15,1149.96,1161.08,1134.54,1149.58,1472226
1000,1000,2018-03-16,1154.14,1155.88,1131.96,1135.73,3091954
1001,1001,2018-03-19,1120.01,1121.99,1089.01,1099.82,2805937
1002,1002,2018-03-20,1099.0,1105.2,1083.46,1097.71,1831896
1003,1003,2018-03-21,1092.74,1106.3,1085.15,1090.88,1878873
1004,1004,2018-03-22,1081.88,1082.9,1045.91,1049.08,2666964
1005,1005,2018-03-23,1047.03,1063.36,1021.22,1021.57,2156672
1006,1006,2018-03-26,1046.0,1055.63,1008.4,1053.21,2665131
1007,1007,2018-03-27,1063.0,1064.84,996.92,1005.1,3095315
1008,1008,2018-03-28,998.0,1024.23,980.64,1004.56,3369275
1009,1009,2018-03-29,1011.63,1043.0,1002.9,1031.79,2726830
1010,1010,2018-04-02,1022.82,1034.8,990.37,1006.47,2680400
1011,1011,2018-04-03,1013.91,1020.99,994.07,1013.41,2275076
1012,1012,2018-04-04,993.41,1028.72,993.0,1025.14,2484651
1013,1013,2018-04-05,1041.33,1042.79,1020.13,1027.81,1363049
1014,1014,2018-04-06,1020.0,1031.42,1003.03,1007.04,1746430
1015,1015,2018-04-09,1016.8,1039.6,1014.08,1015.45,1751559
1016,1016,2018-04-10,1026.44,1036.28,1011.34,1031.64,2029648
1017,1017,2018-04-11,1019.97,1031.36,1015.87,1019.97,1483881
1018,1018,2018-04-12,1025.04,1040.69,1021.43,1032.51,1359389
1019,1019,2018-04-13,1040.88,1046.42,1022.98,1029.27,1223017
1020,1020,2018-04-16,1037.0,1043.24,1026.74,1037.98,1211208
1021,1021,2018-04-17,1051.37,1077.88,1048.26,1074.16,2320266
1022,1022,2018-04-18,1077.43,1077.43,1066.23,1072.08,1344138
1023,1023,2018-04-19,1069.4,1094.17,1068.18,1087.7,1747671
1024,1024,2018-04-20,1082.0,1092.35,1069.57,1072.96,1889686
1025,1025,2018-04-23,1077.86,1082.72,1060.7,1067.45,2341258
1026,1026,2018-04-24,1052.0,1057.0,1010.59,1019.98,4760260
1027,1027,2018-04-25,1025.52,1032.49,1015.31,1021.18,2391105
1028,1028,2018-04-26,1029.51,1047.98,1018.19,1040.04,2079533
1029,1029,2018-04-27,1046.0,1049.5,1025.59,1030.05,1619796
1030,1030,2018-04-30,1030.01,1037.0,1016.85,1017.33,1671254
1031,1031,2018-05-01,1013.66,1038.47,1008.21,1037.31,1427857
1032,1032,2018-05-02,1028.1,1040.39,1022.87,1024.38,1603081
1033,1033,2018-05-03,1019.0,1029.68,1006.29,1023.72,1815058
1034,1034,2018-05-04,1016.9,1048.51,1016.9,1048.21,1938658
1035,1035,2018-05-07,1049.23,1061.68,1047.1,1054.79,1466065
1036,1036,2018-05-08,1058.54,1060.55,1047.15,1053.91,1217721
1037,1037,2018-05-09,1058.1,1085.44,1056.37,1082.76,2032818
1038,1038,2018-05-10,1086.03,1100.44,1085.64,1097.57,1443025
1039,1039,2018-05-11,1093.6,1101.33,1090.91,1098.26,1253665
1040,1040,2018-05-14,1100.0,1110.75,1099.11,1100.2,1518077
1041,1041,2018-05-15,1090.0,1090.05,1073.47,1079.23,1494872
1042,1042,2018-05-16,1077.31,1089.27,1076.26,1081.77,1097317
1043,1043,2018-05-17,1079.89,1086.87,1073.5,1078.59,1043766
1044,1044,2018-05-18,1061.86,1069.94,1060.68,1066.36,1565240
1045,1045,2018-05-21,1074.06,1088.0,1073.65,1079.58,1023211
1046,1046,2018-05-22,1083.56,1086.59,1066.69,1069.73,1090002
1047,1047,2018-05-23,1065.13,1080.78,1061.71,1079.69,1060683
1048,1048,2018-05-24,1079.0,1080.47,1066.15,1079.24,766773
1049,1049,2018-05-25,1079.02,1082.56,1073.78,1075.66,899406
1050,1050,2018-05-29,1064.89,1073.37,1055.22,1060.32,1865139
1051,1051,2018-05-30,1063.03,1069.21,1056.83,1067.8,1138457
1052,1052,2018-05-31,1067.56,1097.19,1067.56,1084.99,3088305
1053,1053,2018-06-01,1099.35,1120.0,1098.5,1119.5,2421598
1054,1054,2018-06-04,1122.33,1141.89,1122.01,1139.29,1889579
1055,1055,2018-06-05,1140.99,1145.74,1133.19,1139.66,1677973
1056,1056,2018-06-06,1142.17,1143.0,1125.74,1136.88,1698247
1057,1057,2018-06-07,1131.32,1135.82,1116.52,1123.86,1520020
1058,1058,2018-06-08,1118.18,1126.67,1112.15,1120.87,1290845
1059,1059,2018-06-11,1118.6,1137.26,1118.6,1129.99,1079294
1060,1060,2018-06-12,1131.07,1139.79,1130.74,1139.32,912018
1061,1061,2018-06-13,1141.12,1146.5,1133.38,1134.79,1506407
1062,1062,2018-06-14,1143.85,1155.47,1140.64,1152.12,1350868
1063,1063,2018-06-15,1148.86,1153.42,1143.49,1152.26,2122476
1064,1064,2018-06-18,1143.65,1174.31,1143.59,1173.46,1413692
1065,1065,2018-06-19,1158.5,1171.27,1154.01,1168.06,1621018
1066,1066,2018-06-20,1175.31,1186.29,1169.16,1169.84,1648536
1067,1067,2018-06-21,1174.85,1177.3,1152.23,1157.66,1238118
1068,1068,2018-06-22,1159.14,1162.5,1147.26,1155.48,1310967
1069,1069,2018-06-25,1143.6,1143.91,1112.78,1124.81,2157310
1070,1070,2018-06-26,1128.0,1133.21,1116.66,1118.46,1563225
1071,1071,2018-06-27,1121.34,1131.84,1103.62,1103.98,1293892
1072,1072,2018-06-28,1102.09,1122.31,1096.01,1114.22,1072438
1073,1073,2018-06-29,1120.0,1128.23,1115.0,1115.65,1315121
1074,1074,2018-07-02,1099.0,1128.0,1093.8,1127.46,1217311
1075,1075,2018-07-03,1135.82,1135.82,1100.02,1102.89,679034
1076,1076,2018-07-05,1110.53,1127.5,1108.48,1124.27,1066685
1077,1077,2018-07-06,1123.58,1140.93,1120.74,1140.17,996079
1078,1078,2018-07-09,1148.48,1154.67,1143.42,1154.05,908969
1079,1079,2018-07-10,1156.98,1159.59,1149.59,1152.84,798412
1080,1080,2018-07-11,1144.59,1164.29,1141.0,1153.9,1119993
1081,1081,2018-07-12,1159.89,1184.41,1155.94,1183.48,1251884
1082,1082,2018-07-13,1185.0,1195.42,1180.0,1188.82,1222072
1083,1083,2018-07-16,1189.39,1191.0,1179.28,1183.86,1055662
1084,1084,2018-07-17,1172.22,1203.04,1170.6,1198.8,1610353
1085,1085,2018-07-18,1196.56,1204.5,1190.34,1195.88,1393606
1086,1086,2018-07-19,1191.0,1200.0,1183.32,1186.96,1276667
1087,1087,2018-07-20,1186.96,1196.86,1184.22,1184.91,1248400
1088,1088,2018-07-23,1181.01,1206.49,1181.0,1205.5,2619234
1089,1089,2018-07-24,1262.59,1266.0,1235.56,1248.08,3318204
1090,1090,2018-07-25,1239.13,1265.86,1239.13,1263.7,2139999
1091,1091,2018-07-26,1251.0,1269.77,1249.02,1268.33,2405638
1092,1092,2018-07-27,1271.0,1273.89,1231.0,1238.5,2130558
1093,1093,2018-07-30,1228.01,1234.92,1211.47,1219.74,1849904
1094,1094,2018-07-31,1220.01,1227.59,1205.6,1217.26,1644722
1095,1095,2018-08-01,1228.0,1233.47,1210.21,1220.01,1567264
1096,1096,2018-08-02,1205.9,1229.88,1204.79,1226.15,1531299
1097,1097,2018-08-03,1229.62,1230.0,1215.06,1223.71,1089896
1098,1098,2018-08-06,1225.0,1226.09,1215.8,1224.77,1081723
1099,1099,2018-08-07,1237.0,1251.17,1236.17,1242.22,1493980
1100,1100,2018-08-08,1240.47,1256.5,1238.01,1245.61,1370913
1101,1101,2018-08-09,1249.9,1255.54,1246.01,1249.1,848601
1102,1102,2018-08-10,1243.0,1245.7,1232.0,1237.61,1108919
1103,1103,2018-08-13,1236.98,1249.27,1233.64,1235.01,997346
1104,1104,2018-08-14,1235.19,1245.87,1225.11,1242.1,1348194
1105,1105,2018-08-15,1229.26,1235.24,1209.51,1214.38,1828814
1106,1106,2018-08-16,1224.73,1226.0,1202.55,1206.49,1343161
1107,1107,2018-08-17,1202.03,1209.02,1188.24,1200.96,1389645
1108,1108,2018-08-20,1205.02,1211.0,1194.63,1207.77,870772
