digraph Tree {
node [shape=box] ;
0 [label="PROM_RENDIMIENTO <= 4.414\nentropy = 1.241\nsamples = 76\nvalue = [2, 54, 7, 13]"] ;
1 [label="PROM_RENDIMIENTO <= 2.998\nentropy = 0.222\nsamples = 56\nvalue = [2, 54, 0, 0]"] ;
0 -> 1 [labeldistance=2.5, labelangle=45, headlabel="True"] ;
2 [label="entropy = 0.0\nsamples = 2\nvalue = [2, 0, 0, 0]"] ;
1 -> 2 ;
3 [label="entropy = 0.0\nsamples = 54\nvalue = [0, 54, 0, 0]"] ;
1 -> 3 ;
4 [label="PROM_RENDIMIENTO <= 5.972\nentropy = 0.934\nsamples = 20\nvalue = [0, 0, 7, 13]"] ;
0 -> 4 [labeldistance=2.5, labelangle=-45, headlabel="False"] ;
5 [label="entropy = 0.0\nsamples = 7\nvalue = [0, 0, 7, 0]"] ;
4 -> 5 ;
6 [label="entropy = 0.0\nsamples = 13\nvalue = [0, 0, 0, 13]"] ;
4 -> 6 ;
}