EMISION,PROM_DURACION,PROM_TASA_CUPON,PROM_SOBRETASA,PROM_PLAZO,PROM_CONVEXIDAD,PROM_RENDIMIENTO,BUCKET
94_BACMEXT_05,0.5054807,0.0854,0.0325,3640,0.539847783,3.278007246,2
94_BACMEXT_11,0.107070727,0.032928302,-0.052648364,1456,0.023451618,3.246966182,2
94_BACMEXT_12,0.816125787,0.032580392,-0.086656802,1455,0.789361266,3.219801652,2
94_BACMEXT_12-2,5.726343797,0.0575,0.514444444,3640,40.08418454,6.191932367,4
94_BACMEXT_12-3,5.901081348,0.0594,0.655,3640,42.9535198,6.332487923,4
94_BACMEXT_13,6.116799024,0.0561,0.7,3640,46.02956021,6.377487923,4
94_BACOMER_07U,8.843634483,0.0436,0.909565217,7097,94.60227106,3.767342995,2
94_BACOMER_10,4.248051039,0.0783,1.445195507,3640,22.5105303,6.700992609,4
94_BACOMER_10U,4.775023812,0.037,0.53,3640,26.65858473,2.807777778,1
94_BACOMER_15,2.605865531,0.034513014,0.143858898,1092,7.230856565,3.452867741,2
94_BACTIN_15,0.886579053,0.036630526,0.284937516,392,0.874604063,3.598924884,2
94_BANAMEX_10,2.191720396,0.036576961,0.09527843,2548,5.15781599,3.401736884,2
94_BANAMEX_10-2,4.292288377,0.0748,1.13,3640,22.87364215,6.385797101,4
94_BANAMEX_10-3,0.487490739,0.03587549,-0.037626309,1820,0.331357121,3.268832145,2
94_BANOB_11,0.460560976,0.033075,-0.060623493,1456,0.3035877,3.245834961,2
94_BANOB_11-2,5.141740193,0.0708,0.383455295,3640,32.80158551,5.878334522,3
94_BANOB_11-3,3.165160903,0.0632,0.24,2548,12.32786229,5.097391304,3
94_BANOB_11U,5.863126889,0.0297,0.22,3640,39.53977839,2.766763285,1
94_BANOB_12,5.652508329,0.0612,0.388357488,3640,39.24510633,6.065845411,4
94_BANOB_12-2,0.43880244,0.032780392,-0.063386966,1092,0.282216841,3.243071488,2
94_BANOB_13,6.093894652,0.0564,0.425748792,3640,45.54435756,6.103236715,4
94_BANOB_13-2,6.284741271,0.0516,0.424565217,3640,48.30964334,6.280024155,4
94_BANOB_13-3,1.640277391,0.0502,0.23,1274,3.62876115,4.041256039,2
94_BINBUR_10,0.296585829,0.035408725,-0.034585651,1819,0.141226158,3.266697901,2
94_BINBUR_12-2,0.195144208,0.035539362,-0.026601458,1092,0.065649104,3.272962083,2
94_BINBUR_12-3,0.37406999,0.035557979,-0.118744979,1092,0.216228628,3.187708948,2
94_BINBUR_12-4,1.468156493,0.036076961,0.155692357,1456,2.360894502,3.462150812,2
94_BINBUR_13,0.742228778,0.035580392,0.043328237,1092,0.667380894,3.349786691,2
94_BINBUR_13-2,0.986544217,0.035551961,0.117909812,1092,1.114859696,3.424368266,2
94_BINBUR_13-3,1.706596787,0.035580392,0.168739981,1287,3.157573275,3.475198435,2
94_BINBUR_13-4,2.067979928,0.035780392,0.181983908,1343,4.597555435,3.488442362,2
94_BINBUR_14,2.336448198,0.035576961,0.183809048,1340,5.848720217,3.490267502,2
94_BINBUR_14-2,1.722818111,0.0507,0.544644879,1079,3.952319483,4.610248744,3
94_BINBUR_14-3,2.603701681,0.034985784,0.183470932,1371,7.247505894,3.489929386,2
94_BINBUR_14-4,2.674087647,0.034985784,0.186536889,1399,7.642616184,3.492995343,2
94_BINBUR_14-5,2.971194029,0.034976961,0.200831681,1455,9.431016647,3.507290135,2
94_BINBUR_14-6,2.249049164,0.034885784,0.183701647,1091,5.421613411,3.490160101,2
94_BINBUR_14-7,6.654740957,0.07,1.215824527,3603,57.0603885,7.110124043,4
94_BINBUR_15,2.632649564,0.035161818,0.19,1036,7.362214782,3.51076,2
94_BINTER_12,0.534117536,0.048075,0.385458942,1092,0.383178647,3.691917396,2
94_BINTER_13,0.943374285,0.047076961,0.506232705,1092,1.029427019,3.812691159,2
94_BINTER_13-2,1.182524971,0.047080392,0.625140362,1092,1.568728797,3.932484251,2
94_BINTER_13-3,1.274104179,0.047051961,0.648469246,1092,1.807427865,3.9549277,2
94_BINTER_13-4,1.902397807,0.047080392,0.669556242,1260,3.928851367,3.976014696,2
94_BINTER_14,2.187566531,0.045080392,0.735095469,1260,5.169085971,4.041553923,2
94_BINTER_14-2,2.543934386,0.042080392,0.668792662,1316,6.961164966,3.975251116,2
94_BINTER_14-3,2.906793106,0.042075,0.669046126,1456,9.089283314,3.97550458,2
94_BINTER_14-4,3.126866159,0.042065196,0.670819908,1456,10.52572208,3.977278362,2
94_BINTER_14-5,3.478562193,0.041576961,0.662664643,1540,13.04409735,3.969123097,2
94_BINTER_15,3.915237426,0.042098639,0.899968764,1652,16.57528955,4.208984304,2
94_BINVEX_15,2.838107,0.040175556,0.69,1120,8.600513511,4.012933333,2
94_BMONEX_15,2.718870609,0.042182609,0.899996928,1092,7.908329638,4.218165043,2
94_BSANT_11-3,4.510066961,0.0891,1.175719807,3640,25.76845472,6.670599034,4
94_BSANT_11-4,1.298025382,0.038076961,0.142274411,1820,1.866578918,3.448732865,2
94_COMPART_10,0.382377485,0.046079275,0.135308255,1820,0.225629408,3.441932235,2
94_COMPART_11,1.030373367,0.041555882,0.202751237,1820,1.280520783,3.509209691,2
94_COMPART_12,1.899501715,0.040075,0.252568217,1820,3.969272164,3.559026671,2
94_COMPART_13,2.851156729,0.039059314,0.326362324,1820,8.783323213,3.632820778,2
94_COMPART_14,3.532839541,0.03707549,0.390721836,1820,13.44956387,3.69718029,2
94_COMPART_15,4.3003628,0.038354286,0.505550143,1820,19.9936728,3.826727286,2
94_CSBANCO_13,0.387289,0.053,1.5,681.3333333,0.181277667,4.817166667,3
94_CSBANCO_14,2.571559014,0.058066176,2.447768329,1288,7.215743874,5.754226783,3
94_CSBANCO_14-2,2.390277831,0.058085784,1.730917874,1092,6.226796633,5.037376329,3
94_HSBC_13,3.337600333,0.036070588,0.221096362,1820,11.92103723,3.527554816,2
94_HSBC_13-2,6.07127015,0.0808,1.672878319,3640,47.82917796,7.528337256,4
94_MULTIVA_13,1.071153333,0.048085784,1.398550725,1092,1.303083014,4.705009179,3
94_NAFIN_10-2,0.51781115,0.0333,-0.095726338,1820,0.364399174,3.210732116,2
94_NAFIN_12,5.757797309,0.0569,0.554997,3640,40.55529841,6.232484923,4
94_SCOTIAB_10,0.383284602,0.037079275,-0.038529684,1820,0.226416684,3.268094296,2
94_SCOTIAB_10-2,2.27731101,0.037980392,0.100118063,2548,5.568520338,3.406576517,2
94_SCOTIAB_12,0.495648169,0.035576961,0.003070053,1092,0.340082556,3.309528507,2
94_SCOTIAB_13,2.687002604,0.037059314,0.142977435,1820,7.729738773,3.449435889,2
94_SCOTIAB_13-2,6.011251469,0.073,1.073695652,3640,45.85610045,6.929154589,4
94_SCOTIAB_15,2.87228,0.0355,0.25,1092,8.756166,3.5425,2
94_VWBANK_12,1.033587411,0.037559804,0.171515251,1456,1.215706444,3.477973705,2
94_VWBANK_14,3.356340594,0.036059314,0.299909406,1456,12.05771941,3.60636786,2
