Date,Open,High,Low,Close,Volume
2014-09-24,19.955,21.552,19.815,21.422,65135370
2014-09-25,20.938,21.728,20.836,21.392,9083255
2014-09-26,21.486,21.69,21.264,21.578,2698347
2014-09-29,21.476,21.765,21.264,21.56,5206932
2014-09-30,21.44,21.874,21.392,21.738,4420943
2014-10-01,21.552,21.912,21.449,21.755,4218813
2014-10-02,21.66,21.893,21.625,21.66,3363175
2014-10-03,21.7,21.784,21.355,21.56,1708751
2014-10-06,21.606,21.69,20.984,21.013,1302009
2014-10-07,20.938,21.105,20.659,20.901,1625599
2014-10-08,20.522,21.486,20.522,21.114,1776962
2014-10-09,21.346,21.346,20.639,20.864,1324264
2014-10-10,20.78,20.938,20.55,20.679,995651
2014-10-13,20.541,21.031,20.532,20.836,1489888
2014-10-14,20.883,21.151,20.697,20.836,1730164
2014-10-15,20.541,20.602,19.955,20.279,3669195
2014-10-16,19.964,20.374,19.928,20.231,3346338
2014-10-17,20.346,20.483,20.169,20.346,2963679
2014-10-20,20.25,20.771,20.25,20.771,2015502
2014-10-21,20.522,21.282,20.522,21.178,1255791
2014-10-22,21.142,21.346,20.79,20.975,953181
2014-10-23,21.319,21.422,20.965,21.372,1243583
2014-10-24,21.642,21.803,21.133,21.514,1462984
2014-10-27,21.486,21.523,21.096,21.208,3123370
2014-10-28,21.495,21.893,21.282,21.606,1616837
2014-10-29,21.67,21.837,21.533,21.793,1403211
2014-10-30,21.803,21.988,21.625,21.755,1242948
2014-10-31,21.893,22.2,21.69,21.922,1334576
2014-11-03,21.803,22.274,21.495,22.274,1968454
2014-11-04,22.125,22.283,21.835,21.997,1582071
2014-11-05,21.949,22.321,21.949,22.274,1177689
2014-11-06,22.348,22.796,22.135,22.647,1084498
2014-11-07,22.815,22.815,22.331,22.339,644491
2014-11-10,22.404,22.599,22.135,22.321,1642997
2014-11-11,22.339,22.572,22.135,22.311,706310
2014-11-12,22.135,22.348,21.91,22.239,1009490
2014-11-13,22.016,22.331,21.978,22.2,1233611
2014-11-14,22.125,22.367,22.125,22.331,1192610
2014-11-17,22.472,22.472,21.959,22.367,1064806
2014-11-18,22.404,22.404,22.096,22.115,628774
2014-11-19,22.183,22.367,21.91,22.105,872083
2014-11-20,21.969,22.249,21.9,22.096,800195
2014-11-21,22.321,22.563,22.086,22.154,778168
2014-11-24,22.183,22.704,22.068,22.599,897914
2014-11-25,22.591,22.647,22.386,22.395,752814
2014-11-26,22.472,22.619,22.293,22.582,755065
2014-11-28,22.535,23.383,22.414,22.954,765466
2014-12-01,22.944,23.207,21.891,22.348,2449159
2014-12-02,22.386,22.769,22.183,22.554,1469192
2014-12-03,22.676,22.919,22.545,22.582,1989868
2014-12-04,22.667,22.89,22.453,22.741,1538545
2014-12-05,22.787,23.507,22.787,23.439,1081966
2014-12-08,23.374,23.429,23.003,23.336,2408747
2014-12-09,23.03,23.606,22.833,23.449,1225075
2014-12-10,23.439,23.682,22.944,22.973,677002
2014-12-11,23.159,23.561,22.842,23.011,1833870
2014-12-12,22.852,23.141,22.741,22.796,1020192
2014-12-15,23.003,23.122,22.619,22.824,1260981
2014-12-16,22.862,23.188,22.572,22.599,1409837
2014-12-17,22.572,23.113,22.572,22.89,2318117
2014-12-18,23.067,23.429,23.003,23.374,1897519
2014-12-19,23.336,23.858,23.151,23.3,8072109
2014-12-22,23.449,23.561,22.983,23.392,1812877
2014-12-23,23.626,23.766,23.41,23.711,1260260
2014-12-24,23.719,23.848,23.468,23.775,587159
2014-12-26,23.775,23.775,23.532,23.587,326223
2014-12-29,23.488,23.775,23.468,23.644,1149105
2014-12-30,23.758,23.766,23.449,23.478,549168
2014-12-31,23.532,23.561,23.141,23.169,666977
2015-01-02,23.273,23.3,22.638,23.076,690512
2015-01-05,22.91,23.003,22.219,22.535,1427472
2015-01-06,22.526,22.572,22.086,22.283,2226466
2015-01-07,22.357,22.489,22.173,22.367,1244863
2015-01-08,22.434,22.815,22.311,22.535,709720
2015-01-09,22.507,22.535,22.163,22.265,777626
2015-01-12,22.183,22.404,22.016,22.257,1009801
2015-01-13,22.311,22.545,22.006,22.249,1062311
2015-01-14,21.997,22.125,21.53,21.844,1032763
2015-01-15,21.782,22.006,21.129,21.398,1671724
2015-01-16,21.278,21.657,21.24,21.613,2094408
2015-01-20,21.585,22.229,21.351,21.53,1869241
2015-01-21,21.501,21.987,21.446,21.697,844803
2015-01-22,21.716,22.517,21.697,22.498,522040
2015-01-23,22.321,22.404,22.059,22.096,704526
2015-01-26,22.135,22.657,21.93,22.453,1252980
2015-01-27,22.239,22.963,22.144,22.507,1403631
2015-01-28,22.526,22.696,22.219,22.239,1379066
2015-01-29,22.293,22.696,21.677,22.591,1951319
2015-01-30,22.463,22.591,22.191,22.274,2019675
2015-02-02,22.229,22.517,22.077,22.367,1551344
2015-02-03,22.377,22.882,22.274,22.733,1444348
2015-02-04,22.714,22.816,22.395,22.472,1177954
2015-02-05,22.546,22.844,22.444,22.789,1052049
2015-02-06,22.844,23.397,22.668,22.928,1868160
2015-02-09,22.912,22.957,22.564,22.705,835151
2015-02-10,23.144,23.359,22.957,23.229,1479759
2015-02-11,23.285,23.397,22.976,23.368,1488487
2015-02-12,23.211,23.745,23.163,23.707,1052528
2015-02-13,23.659,24.025,23.528,23.818,1244296
2015-02-17,24.062,24.091,23.64,23.921,1930892
2015-02-18,23.987,23.987,23.454,23.592,1905648
2015-02-19,23.415,23.602,23.258,23.415,958281
2015-02-20,23.493,23.64,23.268,23.631,795822
2015-02-23,23.493,23.493,23.087,23.314,794516
2015-02-24,23.219,23.464,23.182,23.331,567037
2015-02-25,23.277,23.397,23.134,23.359,654580
2015-02-26,23.34,23.397,23.033,23.258,751064
2015-02-27,23.211,23.397,23.125,23.248,500644
2015-03-02,23.211,23.566,23.042,23.258,1505416
2015-03-03,23.229,23.444,23.006,23.434,967529
2015-03-04,23.285,23.387,22.928,23.304,1903537
2015-03-05,23.294,23.698,23.033,23.678,2093410
2015-03-06,23.424,24.144,23.349,23.865,1647738
2015-03-09,23.835,23.894,23.502,23.612,2020112
2015-03-10,23.349,23.583,23.201,23.397,1532554
2015-03-11,23.397,23.649,23.397,23.502,894978
2015-03-12,23.511,24.125,23.387,23.855,2290119
2015-03-13,23.556,23.612,22.864,23.182,3719352
2015-03-16,23.331,23.698,23.182,23.688,1268100
2015-03-17,23.566,23.968,23.304,23.958,1309130
2015-03-18,23.818,24.183,23.493,23.573,1376766
2015-03-19,23.397,23.573,22.928,23.211,1949911
2015-03-20,23.182,23.415,23.153,23.211,7045707
2015-03-23,23.258,23.622,22.938,23.173,4031673
2015-03-24,23.116,23.322,22.687,22.762,2839655
2015-03-25,22.714,22.864,22.311,22.463,5355654
2015-03-26,22.499,22.733,22.303,22.573,66772229
2015-03-27,22.564,22.966,22.555,22.912,9877452
2015-03-30,23.023,23.097,22.61,22.762,5837656
2015-03-31,22.638,22.733,22.499,22.583,4216845
2015-04-01,22.592,22.892,22.49,22.798,5715314
2015-04-02,22.854,23.097,22.696,23.042,6437409
2015-04-06,22.912,23.211,22.724,23.163,3973121
2015-04-07,23.134,23.397,23.116,23.304,6146838
2015-04-08,23.397,23.483,23.285,23.397,4745863
2015-04-09,23.397,23.528,23.331,23.434,3830707
2015-04-10,23.424,23.678,23.368,23.502,2785266
2015-04-13,23.573,23.826,23.378,23.818,4768302
2015-04-14,23.52,23.631,23.415,23.528,1988268
2015-04-15,23.537,24.015,23.415,23.958,3954858
2015-04-16,23.958,23.987,23.583,23.855,2105982
2015-04-17,23.659,23.78,23.434,23.511,1393113
2015-04-20,23.573,23.659,23.368,23.502,2810194
2015-04-21,23.735,23.826,23.359,23.434,3733265
2015-04-22,23.912,24.314,23.322,23.855,3807288
2015-04-23,24.015,24.091,23.659,23.997,2618686
2015-04-24,24.015,24.072,23.659,23.931,2049814
2015-04-27,24.081,24.183,23.845,23.845,5175185
2015-04-28,23.894,24.174,23.763,24.125,2732694
2015-04-29,24.015,24.603,23.958,24.417,3757817
2015-04-30,24.323,24.502,24.034,24.379,2885278
2015-05-01,24.566,24.708,24.34,24.407,2225237
2015-05-04,24.475,24.786,24.397,24.708,1730715
2015-05-05,24.557,24.867,24.557,24.654,2303364
2015-05-06,24.698,24.832,24.221,24.287,2782873
2015-05-07,24.259,24.389,24.061,24.379,3191440
2015-05-08,24.585,24.654,24.024,24.249,3510501
2015-05-11,24.269,24.604,24.269,24.494,5188956
2015-05-12,24.447,24.662,24.389,24.566,3753408
2015-05-13,24.698,24.813,24.417,24.644,3759892
2015-05-14,24.876,24.983,24.557,24.876,2726251
2015-05-15,24.849,24.973,24.33,24.36,2412912
2015-05-18,24.417,24.786,24.323,24.708,2323070
2015-05-19,24.456,25.264,24.37,25.237,3490917
2015-05-20,25.038,25.318,25.029,25.131,3651747
2015-05-21,25.14,25.28,24.858,25.218,5751596
2015-05-22,25.254,25.357,25.083,25.289,3390435
2015-05-26,25.246,25.357,25.047,25.083,6313000
2015-05-27,25.15,25.289,24.983,25.15,4708164
2015-05-28,25.15,25.289,24.973,25.208,3272958
2015-05-29,25.264,25.318,24.963,25.218,12413150
2015-06-01,25.28,25.385,25.101,25.318,4322002
2015-06-02,25.365,25.686,25.318,25.545,4043094
2015-06-03,25.677,25.996,25.591,25.949,6768845
2015-06-04,25.865,26.182,25.865,26.072,6513282
2015-06-05,26.107,26.633,25.648,26.606,7503814
2015-06-08,26.672,26.972,26.307,26.344,12769832
2015-06-09,26.315,26.39,25.648,26.38,8848774
2015-06-10,26.495,26.597,26.147,26.307,8138218
2015-06-11,26.39,26.466,25.799,25.855,10997992
2015-06-12,25.836,25.969,25.677,25.873,8951823
2015-06-15,25.714,26.297,25.705,26.221,6573636
2015-06-16,26.166,26.578,26.053,26.542,5343401
2015-06-17,26.597,26.692,26.157,26.221,7270711
2015-06-18,26.241,26.418,25.93,26.37,6565544
2015-06-19,26.37,26.738,26.324,26.485,31117336
2015-06-22,26.672,26.813,26.466,26.559,3933389
2015-06-23,26.663,26.804,26.363,26.485,5442663
2015-06-24,26.399,26.606,26.288,26.353,2847805
2015-06-25,26.259,26.344,25.629,25.723,5337757
2015-06-26,25.714,25.949,25.61,25.873,10205794
2015-06-29,25.564,25.732,25.179,25.299,3217044
2015-06-30,25.564,26.182,25.347,25.658,5902454
2015-07-01,25.865,26.063,25.686,25.78,3020983
2015-07-02,25.771,25.808,25.289,25.507,2296980
2015-07-06,25.299,25.405,25.056,25.375,3610342
2015-07-07,25.375,25.405,24.839,25.121,3813322
2015-07-08,24.973,25.092,24.858,25.029,3833864
2015-07-09,25.28,25.395,25.179,25.347,2337745
2015-07-10,25.601,25.695,25.415,25.648,1881222
2015-07-13,25.836,26.023,25.545,25.601,2208738
2015-07-14,25.648,25.91,25.582,25.882,3579807
2015-07-15,26.072,26.307,25.949,26.117,2507780
2015-07-16,26.201,26.447,26.033,26.408,2383937
2015-07-17,26.38,26.475,26.157,26.221,3327956
2015-07-20,26.241,26.466,26.182,26.269,4397678
2015-07-21,24.924,25.91,23.939,25.101,11034537
2015-07-22,25.074,25.61,25.002,25.405,4075910
2015-07-23,25.424,25.648,24.776,24.849,3273033
2015-07-24,24.876,25.038,24.541,24.566,2122309
2015-07-27,24.447,24.548,24.124,24.37,2708048
2015-07-28,24.241,24.766,24.182,24.585,5994173
2015-07-29,24.522,24.737,24.427,24.427,63602002
2015-07-30,24.549,25.114,24.142,24.985,18879299
2015-07-31,25.05,25.086,24.502,24.586,9963070
2015-08-03,24.691,24.994,24.522,24.549,7402546
2015-08-04,24.567,24.936,24.427,24.777,5429407
2015-08-05,24.985,25.312,24.907,25.143,6869411
2015-08-06,25.248,25.312,24.926,25.133,4285891
2015-08-07,25.022,25.293,24.815,25.182,9514878
2015-08-10,25.474,25.71,25.369,25.643,4711158
2015-08-11,25.464,25.643,25.182,25.312,5205350
2015-08-12,25.257,25.267,24.278,24.549,7404548
2015-08-13,24.522,24.805,24.502,24.709,4577663
2015-08-14,24.767,24.916,24.645,24.878,2119023
2015-08-17,24.815,24.975,24.596,24.787,1851402
2015-08-18,24.796,25.068,24.699,25.05,2560855
2015-08-19,24.926,25.059,24.738,24.767,4583602
2015-08-20,24.567,24.796,23.89,23.89,3386408
2015-08-21,23.596,23.682,23.173,23.173,4456577
2015-08-24,22.24,22.729,19.939,21.721,8964664
2015-08-25,22.448,22.711,21.758,21.787,5945990
2015-08-26,22.635,23.06,22.116,22.814,6741856
2015-08-27,23.248,23.569,22.984,23.087,5568413
2015-08-28,23.268,23.475,22.984,23.286,3283984
2015-08-31,23.219,23.522,23.106,23.407,3767271
2015-09-01,23.078,23.192,22.184,22.341,5350947
2015-09-02,22.616,22.945,22.106,22.758,5999642
2015-09-03,22.919,23.38,22.832,23.106,3280271
2015-09-04,22.862,23.041,22.597,22.72,2433404
2015-09-08,23.201,23.229,22.842,23.229,3694956
2015-09-09,23.37,23.569,22.974,23.012,4187898
2015-09-10,22.919,23.238,22.842,23.051,2132031
2015-09-11,22.919,23.144,22.693,22.936,3758469
2015-09-14,22.9,23.268,22.872,23.021,2607615
2015-09-15,23.06,23.711,23.031,23.606,3055912
2015-09-16,23.513,23.635,23.229,23.465,3755290
2015-09-17,23.426,23.54,22.333,22.673,5760649
2015-09-18,22.341,22.626,21.898,22.398,11696036
2015-09-21,22.587,22.767,22.371,22.54,3629006
2015-09-22,22.164,22.324,22.086,22.257,2353881
2015-09-23,22.398,22.438,21.957,22.014,3882950
2015-09-24,21.748,21.995,21.692,21.918,3705844
2015-09-25,22.285,22.466,22.145,22.266,4329339
2015-09-28,22.068,22.22,21.314,21.342,5730743
2015-09-29,21.465,22.106,21.277,21.898,6339788
2015-09-30,22.314,23.795,22.058,22.503,5946733
2015-10-01,22.398,22.654,22.04,22.164,3407934
2015-10-02,21.682,22.145,21.202,22.077,8396996
2015-10-05,22.295,22.476,21.995,22.371,7040032
2015-10-06,22.314,22.476,21.977,22.031,3834493
2015-10-07,22.184,22.23,21.86,22.106,4801918
2015-10-08,22.096,22.295,21.918,22.184,4504925
2015-10-09,22.155,22.466,22.031,22.126,3864927
2015-10-12,22.126,22.341,22.058,22.22,2066680
2015-10-13,22.21,22.276,22.049,22.126,2415486
2015-10-14,22.096,22.155,21.493,21.607,3152821
2015-10-15,21.731,22.25,21.635,22.184,3269774
2015-10-16,22.285,22.428,21.898,21.898,4466333
2015-10-19,21.88,22.155,21.721,21.908,4078578
2015-10-20,21.908,22.257,21.842,22.058,3592344
2015-10-21,22.145,22.512,21.851,21.851,4159478
2015-10-22,21.938,22.276,21.568,21.568,10579426
2015-10-23,22.21,22.919,21.89,22.842,10060512
2015-10-26,22.872,23.097,22.22,22.257,4972840
2015-10-27,22.086,22.448,21.947,22.192,4281521
2015-10-28,22.184,23.051,22.184,22.804,5871344
2015-10-29,22.804,23.041,22.644,22.739,4629407
2015-10-30,22.398,23.004,22.38,22.919,53076428
2015-11-02,23.182,23.295,22.748,23.06,15653188
2015-11-03,23.163,23.316,22.861,23.125,6688307
2015-11-04,23.249,23.428,22.918,23.229,11739702
2015-11-05,23.173,23.608,23.144,23.306,10606696
2015-11-06,24.12,24.593,23.788,24.366,17235867
2015-11-09,24.366,24.669,24.128,24.5,10574270
2015-11-10,24.5,24.706,24.403,24.622,15071339
2015-11-11,24.622,24.744,24.518,24.706,6945645
2015-11-12,24.385,24.574,24.137,24.157,8802780
2015-11-13,24.137,24.245,23.884,24.177,10384625
2015-11-16,24.245,24.356,23.931,24.318,7297601
2015-11-17,24.356,24.537,24.167,24.245,4704771
2015-11-18,24.366,24.832,24.253,24.813,6061377
2015-11-19,24.716,24.849,24.528,24.735,3606561
2015-11-20,24.914,24.914,24.5,24.642,3270024
2015-11-23,24.593,24.794,24.309,24.375,4613852
2015-11-24,24.283,24.764,24.157,24.744,5238670
2015-11-25,24.744,24.886,24.564,24.867,4628003
2015-11-27,24.839,25.094,24.754,24.992,2376461
2015-11-30,25.03,25.238,24.867,25.22,10276493
2015-12-01,25.389,25.446,24.886,25.094,6339046
2015-12-02,25.332,25.436,25.058,25.23,10897587
2015-12-03,25.409,25.419,24.983,25.067,10593183
2015-12-04,25.277,25.701,25.058,25.682,5788619
2015-12-07,25.663,25.729,24.973,25.103,5636557
2015-12-08,24.858,25.142,24.706,25.011,4917041
2015-12-09,24.934,25.322,24.423,24.716,7138993
2015-12-10,24.716,25.161,24.66,24.905,3758936
2015-12-11,24.583,24.784,24.026,24.253,6865074
2015-12-14,24.375,24.583,24.054,24.356,5405594
2015-12-15,24.794,25.284,24.66,25.133,5750816
2015-12-16,25.332,25.588,24.554,25.484,9764453
2015-12-17,25.484,25.644,25.03,25.076,5697065
2015-12-18,24.992,25.049,24.472,24.528,10711553
2015-12-21,24.754,24.944,24.366,24.652,4380060
2015-12-22,24.774,25.058,24.336,24.858,5690534
2015-12-23,24.953,25.133,24.784,25.113,4108569
2015-12-24,25.049,25.267,24.973,25.19,1132669
2015-12-28,25.04,25.067,24.696,25.011,2364086
2015-12-29,25.133,25.384,25.085,25.21,3032752
2015-12-30,25.085,25.248,24.867,24.905,2178402
2015-12-31,24.832,25.085,24.754,24.803,2436157
2016-01-04,24.346,24.612,24.106,24.433,5912040
2016-01-05,24.403,24.574,24.167,24.318,6746933
2016-01-06,23.958,24.177,23.817,23.941,5722120
2016-01-07,23.477,23.593,23.012,23.287,5255297
2016-01-08,23.497,23.561,22.405,22.558,11176044
2016-01-11,22.899,22.955,22.415,22.633,7372143
2016-01-12,22.822,22.871,22.339,22.633,7478023
2016-01-13,22.803,22.871,21.74,21.99,8530213
2016-01-14,22.102,22.141,21.403,21.686,9898686
2016-01-15,21.013,21.279,20.551,21.138,13659958
2016-01-19,21.403,21.506,20.872,21.051,10342492
2016-01-20,20.712,20.804,19.887,20.455,11780839
2016-01-21,20.484,20.684,20.005,20.2,10368128
2016-01-22,20.504,20.644,18.703,19.679,24479734
2016-01-25,19.679,19.806,18.685,18.741,13304437
2016-01-26,18.912,19.48,18.912,19.214,17146946
2016-01-27,19.867,20.465,19.698,20.086,35834735
2016-01-28,20.362,20.694,20.02,20.587,22511309
2016-01-29,20.722,20.786,20.124,20.124,100184365
2016-02-01,19.99,20.086,19.471,19.679,11212688
2016-02-02,19.517,19.622,19.108,19.232,13651589
2016-02-03,19.289,19.321,18.318,19.081,15065611
2016-02-04,19.071,19.554,18.928,19.251,9718345
2016-02-05,19.281,19.622,18.802,18.89,8518387
2016-02-08,18.574,18.783,18.033,18.269,10747486
2016-02-09,18.015,18.661,17.976,18.603,11046805
2016-02-10,18.68,18.802,17.885,17.946,10977447
2016-02-11,17.556,17.747,17.167,17.262,8819819
2016-02-12,17.699,18.068,17.433,17.976,9837112
2016-02-16,18.223,18.797,17.985,18.424,9350492
2016-02-17,18.642,19.271,18.508,18.698,9920863
2016-02-18,18.718,18.851,18.043,18.185,8386835
2016-02-19,18.185,18.365,17.971,18.308,4766953
2016-02-22,18.622,18.861,18.499,18.841,5009535
2016-02-23,18.775,18.851,18.171,18.432,6499068
2016-02-24,18.078,18.233,17.865,18.078,6042095
2016-02-25,18.098,18.288,17.917,18.251,7094149
2016-02-26,18.365,19.135,18.068,18.783,11789546
2016-02-29,18.708,18.841,18.251,18.298,4464130
2016-03-01,18.394,19.297,18.38,19.289,8256590
2016-03-02,19.261,20.073,19.183,19.946,9361129
2016-03-03,19.841,20.517,19.812,20.401,9173316
2016-03-04,20.59,21.153,20.541,20.868,7514046
2016-03-07,20.649,20.801,20.375,20.488,6477687
2016-03-08,20.229,20.229,19.535,19.908,10258711
2016-03-09,20.078,20.203,19.563,19.698,5941056
2016-03-10,19.868,20.203,19.582,19.992,5445950
2016-03-11,20.307,20.873,20.259,20.849,6262117
2016-03-14,20.753,21.087,20.555,21.019,5108171
2016-03-15,20.763,21.145,20.582,21.115,6042766
2016-03-16,20.945,21.457,20.536,20.563,8675891
2016-03-17,20.459,20.758,20.108,20.679,7802960
2016-03-18,20.868,21.162,20.708,21.011,10757564
2016-03-21,21.039,21.172,20.679,20.935,3911292
2016-03-22,20.801,21.002,20.517,20.868,3936416
2016-03-23,20.868,20.902,20.507,20.639,3173774
2016-03-24,20.401,20.649,20.193,20.546,4105576
2016-03-28,20.619,20.679,20.239,20.355,3797564
2016-03-29,20.203,20.345,19.783,20.174,6302398
2016-03-30,20.184,20.321,19.964,20.219,6410413
2016-03-31,20.174,20.184,19.736,19.937,5206989
2016-04-01,19.908,20.345,19.632,20.316,4788646
2016-04-04,20.269,20.599,20.093,20.469,4962006
2016-04-05,20.249,20.312,19.688,19.754,7349059
2016-04-06,19.736,20.326,19.554,20.307,7210877
2016-04-07,20.098,20.219,19.535,19.783,6622997
2016-04-08,19.946,20.316,19.773,19.858,5727220
2016-04-11,20.012,20.41,20.002,20.022,2999598
2016-04-12,20.135,20.503,20.118,20.469,4360479
2016-04-13,20.698,21.638,20.609,21.505,6518277
2016-04-14,21.486,22.154,21.362,21.715,6246246
2016-04-15,21.666,21.772,21.324,21.457,5270413
2016-04-18,21.314,21.666,21.172,21.621,3787995
2016-04-19,21.63,22.244,21.63,21.983,9243996
2016-04-20,22.011,22.295,21.876,22.229,7917964
2016-04-21,22.59,23.067,22.342,22.39,8640702
2016-04-22,22.477,22.619,22.342,22.477,5444225
2016-04-25,22.439,22.486,22.011,22.249,3495103
2016-04-26,22.342,22.5,22.2,22.409,4273047
2016-04-27,22.381,22.676,22.214,22.477,5051146
2016-04-28,22.266,22.505,22.016,22.114,3432071
2016-04-29,21.964,22.134,21.611,21.744,5585508
2016-05-02,21.848,22.086,21.591,22.058,3264992
2016-05-03,21.696,21.763,21.322,21.533,4044768
2016-05-04,21.284,21.37,20.697,21.035,5438157
2016-05-05,21.045,21.236,20.834,21.151,5092176
2016-05-06,20.96,21.256,20.824,21.132,3882432
2016-05-09,21.073,21.256,20.883,20.902,2835443
2016-05-10,20.988,21.543,20.873,21.39,10620265
2016-05-11,21.39,21.646,21.227,21.236,3839275
2016-05-12,21.39,21.494,20.663,20.814,6009744
2016-05-13,21.045,21.256,20.327,20.472,6815389
2016-05-16,20.491,20.95,20.377,20.768,4479055
2016-05-17,20.653,21.132,20.53,20.873,4356743
2016-05-18,20.797,22.136,20.797,22.126,10321152
2016-05-19,21.945,22.466,21.638,21.905,5037426
2016-05-20,21.993,22.394,21.867,21.984,4112099
2016-05-23,21.975,22.106,21.735,21.975,3074893
2016-05-24,22.116,22.547,22.031,22.242,3309187
2016-05-25,22.385,22.819,22.252,22.662,7078770
2016-05-26,22.652,22.681,22.26,22.336,4874978
2016-05-27,22.413,22.595,22.252,22.566,3672944
2016-05-31,22.729,22.776,22.336,22.527,7031173
2016-06-01,22.269,22.681,21.965,22.576,4129255
2016-06-02,22.527,22.843,22.279,22.796,3667363
2016-06-03,21.839,22.222,21.543,22.136,8153634
2016-06-06,22.232,22.642,22.146,22.453,5697148
2016-06-07,22.443,22.671,22.308,22.462,3891325
2016-06-08,22.471,22.662,22.345,22.443,3495082
2016-06-09,22.252,22.252,21.82,21.887,4651266
2016-06-10,21.571,21.706,21.302,21.485,4889835
2016-06-13,21.341,21.735,21.093,21.122,5414740
2016-06-14,21.054,21.219,20.03,20.385,9329371
2016-06-15,20.51,20.892,20.377,20.432,6360974
2016-06-16,20.241,20.27,19.927,20.03,5214274
2016-06-17,20.089,20.314,20.012,20.185,10420217
2016-06-20,20.594,20.873,20.327,20.385,6292460
2016-06-21,20.403,20.653,20.146,20.613,6502389
2016-06-22,20.586,20.873,20.413,20.442,4328607
2016-06-23,20.805,21.169,20.748,21.159,5585236
2016-06-24,19.58,19.917,19.086,19.086,22576092
2016-06-27,18.711,18.711,17.543,17.64,13655101
2016-06-28,18.088,18.443,17.807,18.147,24393595
2016-06-29,18.416,18.739,18.043,18.674,8677456
2016-06-30,18.912,19.247,18.779,19.112,11231517
2016-07-01,19.017,19.046,18.538,18.796,5983566
2016-07-05,18.472,18.5,17.916,18.078,5951521
2016-07-06,17.842,18.185,17.773,18.167,8098381
2016-07-07,18.167,18.597,18.167,18.577,8509721
2016-07-08,18.932,19.141,18.678,18.988,9269431
2016-07-11,19.16,19.347,19.076,19.247,5178160
2016-07-12,19.561,19.791,19.477,19.552,6815710
2016-07-13,19.487,19.71,19.332,19.669,4128488
2016-07-14,20.089,20.432,19.917,20.079,4882467
2016-07-15,20.221,20.347,20.012,20.069,5391295
2016-07-18,20.03,20.166,19.84,20.069,8660804
2016-07-19,19.868,20.261,19.868,20.119,5440978
2016-07-20,20.146,20.594,19.937,20.394,8855317
2016-07-21,21.294,21.523,20.581,20.739,13558126
2016-07-22,20.805,21.045,20.673,20.854,6680654
2016-07-25,20.797,21.112,20.797,21.073,6178905
2016-07-26,21.035,21.581,20.96,21.514,6479090
2016-07-27,21.494,21.763,21.284,21.6,9248484
2016-07-28,21.571,21.744,21.336,21.475,6482690
2016-07-29,21.4,21.744,21.312,21.36,4193670
2016-08-01,21.4,21.663,21.274,21.351,5040830
2016-08-02,21.312,21.582,21.081,21.208,6153789
2016-08-03,21.226,21.621,21.158,21.601,5033729
2016-08-04,21.592,21.856,21.592,21.745,6136301
2016-08-05,22.071,22.554,21.987,22.495,7622377
2016-08-08,22.592,22.784,22.486,22.554,5611062
2016-08-09,22.486,22.688,22.39,22.592,5357930
2016-08-10,22.554,22.63,22.274,22.361,3613761
2016-08-11,22.399,22.621,22.262,22.505,3837701
2016-08-12,22.332,22.399,22.08,22.381,3202575
2016-08-15,22.524,22.774,22.458,22.639,4669754
2016-08-16,22.458,22.762,22.43,22.495,4945619
2016-08-17,22.429,22.639,22.428,22.544,4410303
2016-08-18,22.564,22.693,22.429,22.495,3948294
2016-08-19,22.419,22.717,22.312,22.678,3065980
2016-08-22,22.659,22.717,22.477,22.601,3263840
2016-08-23,22.727,22.851,22.606,22.63,4884948
2016-08-24,22.678,22.841,22.534,22.592,4192868
2016-08-25,22.573,22.789,22.477,22.737,2384748
2016-08-26,22.794,23.236,22.737,23.198,6399724
2016-08-29,23.275,23.747,23.256,23.525,6908714
2016-08-30,23.581,23.861,23.159,23.784,4736378
2016-08-31,23.804,23.851,23.493,23.823,6968351
2016-09-01,23.91,24.006,23.365,23.581,4815267
2016-09-02,23.65,23.924,23.478,23.737,5086554
2016-09-06,23.727,23.784,23.241,23.37,5196941
2016-09-07,23.314,23.701,23.226,23.63,3790264
2016-09-08,23.679,23.986,23.568,23.967,4464527
2016-09-09,23.784,24.111,23.757,23.861,7383034
2016-09-12,23.659,24.149,23.399,24.111,6845729
2016-09-13,23.775,23.841,23.294,23.679,6921169
2016-09-14,23.669,23.871,23.419,23.468,4856939
2016-09-15,23.38,23.679,23.333,23.544,5330813
2016-09-16,23.333,23.389,23.024,23.179,9101886
2016-09-19,23.341,23.591,23.189,23.266,4187982
2016-09-20,23.458,23.516,23.059,23.246,4242492
2016-09-21,23.419,23.596,23.159,23.38,3984979
2016-09-22,23.458,23.558,23.236,23.314,4614499
2016-09-23,23.236,23.626,23.189,23.478,5131892
2016-09-26,23.266,23.341,22.928,23.044,4895217
2016-09-27,22.987,23.399,22.9,23.38,4021013
2016-09-28,23.38,23.534,22.977,23.478,9046194
2016-09-29,23.534,23.65,22.928,23.13,5267919
2016-09-30,23.351,23.871,23.198,23.765,6926298
2016-10-03,23.63,23.775,23.488,23.659,3300426
2016-10-04,23.727,24.371,23.699,24.035,6196157
2016-10-05,24.188,24.697,24.093,24.592,5508441
2016-10-06,24.611,24.805,24.361,24.707,4077065
2016-10-07,24.717,24.815,24.256,24.526,5140557
2016-10-10,24.805,24.918,24.516,24.563,3255686
2016-10-11,24.563,24.776,23.881,24.006,7560564
2016-10-12,24.035,24.511,23.996,24.285,4241529
2016-10-13,23.986,24.001,23.294,23.581,4982909
2016-10-14,23.967,24.139,23.669,23.841,3739510
2016-10-17,23.891,24.044,23.502,23.64,3632725
2016-10-18,23.976,23.996,23.621,23.901,3507986
2016-10-19,23.976,24.434,23.976,24.331,3721132
2016-10-20,24.228,24.756,24.179,24.573,6886795
2016-10-21,24.697,25.091,24.526,24.978,4479698
2016-10-24,25.352,25.477,25.169,25.342,5330898
2016-10-25,25.391,25.531,25.189,25.447,4425106
2016-10-26,25.362,25.842,25.333,25.842,5193457
2016-10-27,26.025,26.17,25.747,25.842,5966139
2016-10-28,25.842,25.862,25.209,25.342,8171277
2016-10-31,25.487,25.641,25.362,25.448,6110073
2016-11-01,25.621,25.942,25.448,25.932,8144367
2016-11-02,25.729,25.759,24.995,25.218,8717546
2016-11-03,25.371,25.608,25.271,25.381,5104098
2016-11-04,25.371,25.854,25.095,25.517,3771053
2016-11-07,26.028,26.444,26.028,26.424,5312193
2016-11-08,25.912,26.236,25.566,26.038,5304558
2016-11-09,26.365,27.479,26.281,27.246,13232588
2016-11-10,27.689,28.985,27.689,28.6,12447265
2016-11-11,28.424,28.985,28.067,28.84,16821774
2016-11-14,29.112,29.96,29.068,29.836,15185778
2016-11-15,29.468,30.112,29.073,29.893,10442707
2016-11-16,29.324,29.748,29.236,29.691,7733154
2016-11-17,29.691,30.724,29.651,30.655,10084921
2016-11-18,30.734,31.048,30.58,30.888,8516468
2016-11-21,31.14,31.14,30.629,30.85,4747907
2016-11-22,31.082,31.168,30.7,30.841,8584354
2016-11-23,30.906,31.526,30.743,31.304,5888890
2016-11-25,31.294,31.363,31.159,31.363,1559765
2016-11-28,31.053,31.265,30.619,30.705,5721858
2016-11-29,30.88,31.481,30.782,31.294,5912910
2016-11-30,31.931,32.56,31.931,32.377,7602323
2016-12-01,32.723,33.729,32.685,33.217,7880242
2016-12-02,33.372,33.372,32.666,32.994,6087802
2016-12-05,33.382,33.574,32.743,32.994,6843537
2016-12-06,33.439,33.633,33.063,33.527,4745894
2016-12-07,33.554,33.894,32.97,33.874,6486511
2016-12-08,34.173,34.541,33.584,34.338,6829669
2016-12-09,34.338,34.386,33.69,34.308,4912050
2016-12-12,33.894,34.482,33.584,33.826,5005384
2016-12-13,33.96,34.008,32.975,33.624,6221668
2016-12-14,33.264,34.598,33.004,33.457,7346973
2016-12-15,33.932,34.598,33.41,34.202,6572586
2016-12-16,34.501,34.831,33.932,34.125,13593241
2016-12-19,34.107,34.221,33.682,34.173,5442454
2016-12-20,34.511,34.908,34.377,34.861,3550824
2016-12-21,34.831,34.879,34.487,34.801,3001824
2016-12-22,34.801,34.936,34.648,34.781,3920990
2016-12-23,34.801,35.101,34.695,35.101,1963224
2016-12-27,35.159,35.322,34.946,35.226,2003973
2016-12-28,35.246,35.284,34.667,34.781,2916433
2016-12-29,34.733,34.801,34.043,34.087,3915810
2016-12-30,34.145,34.463,33.96,34.424,3513181
2017-01-03,35.207,35.825,34.358,34.648,5222957
2017-01-04,34.811,35.023,34.618,34.946,4507406
2017-01-05,34.801,35.028,34.033,34.511,3855659
2017-01-06,34.695,34.861,34.501,34.695,3750399
2017-01-09,34.424,34.618,33.96,34.472,3142011
2017-01-10,34.667,35.14,34.588,35.053,3860983
2017-01-11,34.946,35.14,34.628,35.043,4422895
2017-01-12,34.879,34.917,33.975,34.705,4100372
2017-01-13,34.975,35.729,34.685,35.062,5382896
2017-01-17,34.618,34.695,32.82,32.965,8768976
2017-01-18,33.197,33.835,32.656,33.807,6609731
2017-01-19,33.747,34.226,33.245,33.554,5938189
2017-01-20,34.358,34.956,34.107,34.608,8450414
2017-01-23,34.396,34.752,34.183,34.677,5065088
2017-01-24,34.743,35.178,34.663,35.072,6264393
2017-01-25,35.515,36.269,35.433,36.249,5914095
2017-01-26,36.24,36.666,35.951,36.269,4963697
2017-01-27,36.165,36.212,35.623,35.738,4428378
2017-01-30,35.304,35.515,34.685,35.295,5156352
2017-01-31,35.236,35.759,34.789,35.081,4923156
2017-02-01,35.44,36.041,35.29,35.391,4944821
2017-02-02,35.1,35.129,34.575,34.955,4491832
2017-02-03,35.702,35.794,35.265,35.682,3993972
2017-02-06,35.217,35.808,35.12,35.372,4777452
2017-02-07,35.497,35.702,35.231,35.488,3934325
2017-02-08,35.158,35.187,34.179,34.285,8714230
2017-02-09,34.508,35.183,34.15,35.149,5908910
2017-02-10,35.061,35.431,35.003,35.322,3385717
2017-02-13,35.702,36.079,35.604,35.808,3615044
2017-02-14,35.808,36.925,35.663,36.835,5308461
2017-02-15,36.953,37.272,36.623,37.215,3960074
2017-02-16,36.962,37.239,36.835,37.098,2842498
2017-02-17,36.584,36.701,36.323,36.701,5666531
2017-02-21,36.865,37.078,36.483,36.905,4765947
2017-02-22,36.671,36.797,36.38,36.536,5411486
2017-02-23,36.701,36.721,35.663,36.128,6146024
2017-02-24,35.643,36.041,35.362,35.546,7793973
2017-02-27,35.663,36.138,35.556,36.069,4140096
2017-02-28,35.886,36.308,35.712,36.243,4588389
2017-03-01,37.262,38.552,37.185,38.399,7355209
2017-03-02,38.485,38.543,36.865,36.905,6114332
2017-03-03,37.088,37.369,36.982,37.157,4628846
2017-03-06,36.925,37.292,36.614,37.118,2807545
2017-03-07,37.069,37.195,36.623,36.826,2709899
2017-03-08,37.408,37.477,36.631,36.711,3552576
2017-03-09,36.845,37.108,36.41,36.594,3040434
2017-03-10,36.915,36.991,35.857,36.506,4611880
2017-03-13,36.458,36.731,36.166,36.243,4197118
2017-03-14,36.079,36.138,35.623,36.069,3482996
2017-03-15,36.273,36.496,35.546,35.673,5505792
2017-03-16,35.944,36.188,35.663,35.984,3468191
2017-03-17,35.934,36.079,35.322,35.516,13929641
2017-03-20,35.401,35.546,35.012,35.139,6064444
2017-03-21,35.421,35.506,33.18,33.326,7830881
2017-03-22,33.093,33.849,32.442,33.393,7286148
2017-03-23,33.266,34.207,33.034,33.53,4883883
2017-03-24,33.741,33.878,32.995,33.47,5075868
2017-03-27,32.442,33.276,31.996,33.209,5232853
2017-03-28,33.054,34.227,33.024,33.975,4515395
2017-03-29,33.946,34.121,32.84,33.45,11505497
2017-03-30,33.51,34.189,33.276,33.83,5690664
2017-03-31,33.627,33.975,33.374,33.51,5218021
2017-04-03,33.597,33.946,33.064,33.771,5309334
2017-04-04,33.53,34.092,33.364,33.849,4790367
2017-04-05,34.275,34.479,33.335,33.345,5102772
2017-04-06,33.335,33.984,33.121,33.868,3200697
2017-04-07,33.5,33.858,33.266,33.587,3864454
2017-04-10,33.577,34.033,33.17,33.345,4067420
2017-04-11,33.093,33.345,32.617,33.345,4286653
2017-04-12,33.257,33.306,32.492,32.713,4177640
2017-04-13,32.549,33.112,32.238,32.238,4003072
2017-04-17,32.278,32.937,32.138,32.899,3453481
2017-04-18,32.627,33.064,32.346,32.685,4968663
2017-04-19,33.015,33.447,32.87,33.189,7623819
2017-04-20,33.607,34.675,33.607,34.207,5374947
2017-04-21,34.217,34.431,33.485,33.849,7352509
2017-04-24,35.003,35.469,34.58,34.77,8225664
2017-04-25,35.382,35.546,35.061,35.352,7294793
2017-04-26,35.246,35.984,35.226,35.692,6008943
2017-04-27,35.712,35.827,35.158,35.663,7656555
2017-04-28,35.663,36.128,35.488,35.604,8062338
2017-05-01,36.013,36.49,35.925,36.15,4785759
2017-05-02,36.111,36.344,35.566,35.868,3962826
2017-05-03,35.633,36.316,35.497,36.227,3633250
2017-05-04,36.685,37.006,36.286,36.354,3942723
2017-05-05,36.431,36.5,35.858,35.995,3189516
2017-05-08,36.042,36.627,36.042,36.374,2835495
2017-05-09,36.422,36.695,36.042,36.198,2686855
2017-05-10,36.071,36.266,35.858,36.227,2567504
2017-05-11,36.061,36.193,35.546,36.023,2703584
2017-05-12,35.828,35.828,35.05,35.682,3435828
2017-05-15,35.75,36.101,35.663,36.042,3625625
2017-05-16,36.111,36.326,35.75,36.101,3580777
2017-05-17,34.544,35.118,33.443,33.657,10214435
2017-05-18,33.414,34.106,33.414,33.549,6273369
2017-05-19,33.774,34.086,33.522,33.657,5413134
2017-05-22,33.871,34.037,33.386,33.657,4328818
2017-05-23,33.764,34.359,33.502,34.163,4496348
2017-05-24,34.262,34.262,33.54,33.716,4258964
2017-05-25,33.784,34.047,33.54,33.657,4061134
2017-05-26,33.599,33.901,33.434,33.726,4998774
2017-05-30,33.512,33.599,33.22,33.346,6817345
2017-05-31,33.434,33.482,32.606,33.2,6013564
2017-06-01,33.365,33.784,33.073,33.589,4184176
2017-06-02,33.277,33.492,32.869,33.23,5961507
2017-06-05,33.277,33.569,33.073,33.083,5073812
2017-06-06,32.752,33.18,32.517,32.966,3366016
2017-06-07,33.151,33.794,32.917,33.609,3741055
2017-06-08,33.619,35.079,33.482,34.679,5980639
2017-06-09,34.942,35.77,34.923,35.381,4859326
2017-06-12,35.39,36.004,35.245,35.643,6565759
2017-06-13,35.906,36.198,35.741,35.906,3876930
2017-06-14,35.576,35.638,34.671,35.614,5530266
2017-06-15,35.371,36.018,35.361,35.741,3253749
2017-06-16,35.78,35.809,35.331,35.41,5224249
2017-06-19,35.682,36.013,35.42,35.586,3221788
2017-06-20,35.331,35.526,34.893,34.991,3131274
2017-06-21,35.098,35.108,34.222,34.271,3936852
2017-06-22,34.212,34.271,33.624,34.057,4561295
2017-06-23,34.212,34.28,33.151,33.579,11582093
2017-06-26,33.686,34.076,33.492,33.744,6842848
2017-06-27,33.998,34.349,33.804,33.921,3667939
2017-06-28,34.252,34.709,34.173,34.407,5366670
2017-06-29,35.225,35.76,34.252,34.709,5724581
2017-06-30,34.942,35.059,34.359,34.738,3370188
2017-07-03,34.942,35.785,34.816,35.576,2391877
2017-07-05,35.692,36.076,35.254,35.906,5354254
2017-07-06,35.896,36.266,35.566,35.633,4263807
2017-07-07,35.76,36.15,35.43,36.091,4151104
2017-07-10,35.955,36.266,35.741,36.071,4336247
2017-07-11,36.13,36.227,35.596,35.76,3629730
2017-07-12,35.633,35.643,35.127,35.556,3189515
2017-07-13,35.673,35.955,35.439,35.877,2972333
2017-07-14,35.264,35.497,34.846,35.284,3704254
2017-07-17,35.205,35.4,34.933,35.137,2993023
2017-07-18,34.865,34.939,34.359,34.651,3428936
2017-07-19,34.836,34.836,33.988,34.339,3730696
2017-07-20,34.319,34.48,33.901,34.319,4944448
2017-07-21,34.262,34.952,33.419,33.569,7141766
2017-07-24,33.638,34.641,33.589,34.514,4864699
2017-07-25,35.185,35.361,34.752,34.903,5537065
2017-07-26,35.059,35.079,34.076,34.242,4269110
2017-07-27,34.319,34.571,33.779,34.115,5176310
2017-07-28,34.115,34.28,33.832,34.017,2861558
2017-07-31,34.253,34.517,34.091,34.331,3505303
2017-08-01,34.614,34.644,34.218,34.468,3133079
2017-08-02,34.438,34.864,34.37,34.86,3633055
2017-08-03,34.771,34.893,34.399,34.468,4273781
2017-08-04,34.85,35.524,34.771,34.86,3833159
2017-08-07,34.86,34.957,34.584,34.594,4190327
2017-08-08,34.517,35.291,34.463,34.584,3626908
2017-08-09,34.213,34.341,33.959,34.281,2610915
2017-08-10,33.9,34.096,32.95,32.99,4332433
2017-08-11,33.01,33.313,32.51,32.677,4315905
2017-08-14,33.186,33.88,33.073,33.489,3128579
2017-08-15,33.91,34.164,33.244,33.263,3258431
2017-08-16,33.421,33.655,33.078,33.226,3054144
2017-08-17,33.126,33.268,32.07,32.109,4256880
2017-08-18,32.051,32.701,31.767,32.354,4059046
2017-08-21,32.354,32.402,31.904,32.001,6752874
2017-08-22,32.256,32.755,32.207,32.706,4930671
2017-08-23,32.432,33.273,32.373,32.785,3978942
2017-08-24,32.96,33.323,32.823,33.273,5573445
2017-08-25,33.382,33.636,33.117,33.126,2823943
2017-08-28,33.216,33.254,32.579,32.755,5273026
2017-08-29,32.216,32.715,31.972,32.599,4545596
2017-08-30,32.628,33.078,32.628,32.677,3250259
2017-08-31,32.873,32.931,32.402,32.422,3712883
2017-09-01,32.569,33.176,32.442,32.892,2946750
2017-09-05,32.697,32.735,31.815,31.953,4039136
2017-09-06,32.188,32.472,31.914,32.07,4084345
2017-09-07,31.991,32.041,30.837,31.395,5330131
2017-09-08,31.434,32.315,31.434,32.109,5566973
2017-09-11,32.529,33.049,32.373,32.745,4502074
2017-09-12,32.912,34.007,32.892,33.743,5739900
2017-09-13,33.567,34.208,33.489,33.949,4139987
2017-09-14,34.213,34.584,33.998,34.037,5628188
2017-09-15,33.949,34.419,33.684,34.409,6860030
2017-09-18,34.428,34.957,34.379,34.83,3629914
2017-09-19,34.86,35.241,34.713,35.055,4334937
2017-09-20,35.085,35.207,34.286,35.025,9036147
2017-09-21,35.065,35.607,35.045,35.495,4364456
2017-09-22,35.318,35.74,35.261,35.574,2653645
2017-09-25,35.544,35.877,35.291,35.682,4009353
2017-09-26,35.759,36.219,35.584,36.034,4271203
2017-09-27,36.719,36.84,36.323,36.425,4384054
2017-09-28,36.552,36.63,35.995,36.278,3842281
2017-09-29,36.376,37.242,36.263,37.061,5692827
2017-10-02,36.729,36.895,36.131,36.425,9221334
2017-10-03,36.454,36.602,35.955,36.053,7077197
2017-10-04,35.348,35.985,35.328,35.789,11643691
2017-10-05,35.896,36.533,35.691,36.336,4845720
2017-10-06,36.513,36.875,36.278,36.689,5159805
2017-10-09,36.797,37.002,36.346,36.513,3777548
2017-10-10,36.542,37.051,36.479,37.002,3723670
2017-10-11,36.778,36.934,36.386,36.649,4092860
2017-10-12,36.739,36.875,36.248,36.366,2957620
2017-10-13,36.21,36.538,35.73,36.19,3824386
2017-10-16,36.248,36.511,36.131,36.258,3439658
2017-10-17,36.444,36.454,35.818,35.896,3355145
2017-10-18,36.092,36.523,35.868,36.386,5793047
2017-10-19,36.014,36.729,35.896,36.63,4733248
2017-10-20,37.531,37.873,36.934,37.512,7141616
2017-10-23,37.687,37.991,37.536,37.677,8612404
2017-10-24,37.785,38.107,37.482,37.55,6439913
2017-10-25,37.579,37.717,36.87,37.218,5541015
2017-10-26,37.482,38.157,37.373,37.687,4700350
2017-10-27,37.55,37.717,37.403,37.629,2518510
2017-10-30,37.403,37.579,37.082,37.266,3801851
2017-10-31,37.336,37.704,37.276,37.374,3254888
2017-11-01,37.571,38.328,37.483,37.729,5372363
2017-11-02,37.621,38.226,37.266,38.093,3410102
2017-11-03,38.034,38.447,37.886,38.171,2999680
2017-11-06,38.044,38.251,37.837,38.073,2271675
2017-11-07,38.151,38.338,36.923,37.041,4951662
2017-11-08,36.824,36.942,36.362,36.686,5131604
2017-11-09,36.352,36.696,35.851,36.195,4858324
2017-11-10,36.234,36.462,36.009,36.066,3676473
2017-11-13,35.861,36.656,35.644,36.579,4800337
2017-11-14,36.402,37.503,36.303,37.434,4986855
2017-11-15,37.05,37.709,36.776,37.503,4262204
2017-11-16,37.857,38.093,37.276,37.286,3643883
2017-11-17,37.021,37.729,36.942,37.532,2132436
2017-11-20,37.669,37.847,37.463,37.611,3633610
2017-11-21,37.729,37.729,37.159,37.266,4775073
2017-11-22,37.365,37.606,37.169,37.198,2896722
2017-11-24,37.384,37.454,36.986,37.119,820902
2017-11-27,37.109,37.237,36.838,37.001,2338840
2017-11-28,37.119,38.191,37.084,38.131,5412576
2017-11-29,38.594,40.393,38.457,39.99,8884715
2017-11-30,40.393,41.072,39.98,40.02,13677501
2017-12-01,40.216,40.502,38.761,40.01,6806935
2017-12-04,40.796,41.809,40.629,41.151,6604866
2017-12-05,41.131,41.386,40.059,40.206,6311091
2017-12-06,39.99,40.226,39.568,39.951,4337681
2017-12-07,39.734,40.748,39.596,40.738,4771999
2017-12-08,40.944,41.101,40.492,41.043,3112659
2017-12-11,41.003,41.219,40.472,40.728,3313644
2017-12-12,40.963,41.499,40.728,41.219,4290980
2017-12-13,41.2,41.633,40.619,40.649,4063103
2017-12-14,40.886,41.043,40.02,40.186,3711961
2017-12-15,40.6,41.485,40.335,41.003,9342374
2017-12-18,41.338,42.006,41.033,41.328,4521441
2017-12-19,41.848,42.119,41.357,41.376,5233175
2017-12-20,41.868,41.957,41.053,41.229,2563958
2017-12-21,41.681,42.212,41.49,41.888,4120710
2017-12-22,42.134,42.194,41.504,41.918,3652843
2017-12-26,41.918,42.203,41.633,41.809,2449376
2017-12-27,41.741,41.809,41.446,41.651,2385779
2017-12-28,41.721,41.751,41.396,41.731,1484677
2017-12-29,41.731,41.947,41.249,41.278,2554460
2018-01-02,41.643,41.967,41.318,41.967,5158998
2018-01-03,41.858,42.567,41.731,42.448,6387923
2018-01-04,42.851,43.589,42.665,42.95,6854679
2018-01-05,43.156,43.501,42.921,43.146,7439980
2018-01-08,43.068,43.53,42.901,43.323,4806626
2018-01-09,43.432,44.1,43.274,43.451,5527261
2018-01-10,43.599,44.7,43.54,44.149,2964232
2018-01-11,44.306,44.548,43.883,44.543,3348375
2018-01-12,44.848,45.025,44.533,44.759,2305666
2018-01-16,45.025,45.163,44.194,44.493,3013462
2018-01-17,44.759,45.241,44.08,45.074,3793746
2018-01-18,45.182,45.354,44.464,44.996,6167206
2018-01-19,45.369,46.529,44.878,46.038,7926463
2018-01-22,46.451,47.07,46.224,47.011,4235983
2018-01-23,46.893,47.336,46.509,47.07,3951940
2018-01-24,47.266,47.423,46.332,46.588,7120240
2018-01-25,46.804,46.846,45.565,45.891,5697678
2018-01-26,46.018,46.229,45.634,46.165,4047047
2018-01-29,46.048,46.381,45.881,45.968,4339398
2018-01-30,45.634,46.165,45.383,45.398,3790854
2018-01-31,45.497,46.129,45.23,45.349,4200913
2018-02-01,45.359,46.288,45.21,46.248,6630663
2018-02-02,46.09,46.495,45.215,45.468,6140351
2018-02-05,44.539,45.69,43.067,43.155,5892041
2018-02-06,41.99,44.539,40.982,44.065,8400655
2018-02-07,43.798,44.845,43.175,44.301,6625510
2018-02-08,44.351,44.479,41.663,41.683,4766433
2018-02-09,42.424,42.958,40.992,42.533,6958094
2018-02-12,42.987,43.986,42.632,43.432,4417676
2018-02-13,43.007,43.886,42.869,43.857,3285295
2018-02-14,43.482,45.339,43.482,45.3,6384208
2018-02-15,45.773,46.08,45.052,45.468,3063124
2018-02-16,45.181,46.001,45.181,45.378,2837508
2018-02-20,45.537,46.051,45.537,45.537,4838748
2018-02-21,45.428,46.396,45.21,45.744,4545546
2018-02-22,45.971,46.228,44.825,44.904,2501077
2018-02-23,45.162,45.883,45.112,45.873,2417634
2018-02-26,45.966,46.061,43.294,44.005,14634082
2018-02-27,43.986,44.914,43.225,43.225,14137866
2018-02-28,43.64,44.163,42.949,42.968,8197069
2018-03-01,43.017,43.996,42.691,43.007,7490789
2018-03-02,42.622,43.743,42.069,43.65,5921871
2018-03-05,43.205,44.539,42.859,44.321,5357641
2018-03-06,44.618,44.964,43.906,44.776,3890250
2018-03-07,44.223,45.013,44.065,44.894,3510305
2018-03-08,45.132,45.349,44.025,44.677,4005452
2018-03-09,45.033,45.759,44.786,45.705,4316081
2018-03-12,45.744,46.1,45.557,45.596,3625322
2018-03-13,45.913,45.991,45.077,45.181,3081805
2018-03-14,45.31,45.359,44.449,44.589,5075572
2018-03-15,44.825,44.914,44.223,44.421,3275888
2018-03-16,44.539,45.102,44.311,44.331,6449538
2018-03-19,44.321,44.519,43.738,44.371,3207742
2018-03-20,44.647,44.875,44.153,44.233,2088940
2018-03-21,44.233,45.013,43.996,44.381,3644752
2018-03-22,43.758,43.996,42.351,42.434,5479590
2018-03-23,42.582,42.711,40.691,40.774,5230068
2018-03-26,41.525,42.706,41.209,42.602,6300472
2018-03-27,42.731,42.899,40.706,41.09,5500293
2018-03-28,41.298,41.466,40.311,41.052,5340152
2018-03-29,41.318,41.663,40.922,41.476,6753961
2018-04-02,41.437,41.495,39.965,40.607,4716303
2018-04-03,40.755,41.463,40.582,41.308,3624655
2018-04-04,40.972,42.356,40.577,42.256,5019430
2018-04-05,42.543,42.839,41.98,42.504,5292983
2018-04-06,41.822,41.975,40.488,40.982,5448634
2018-04-09,41.209,42.236,41.165,41.239,4376687
2018-04-10,41.99,42.414,41.673,42.188,3693525
2018-04-11,41.743,42,41.545,41.673,3200275
2018-04-12,42.118,42.972,42.079,42.721,3824441
2018-04-13,42.997,43.097,41.525,41.773,3833201
2018-04-16,42.188,42.414,41.457,41.861,2954533
2018-04-17,42.118,42.241,40.33,40.794,7194709
2018-04-18,40.884,41.323,40.211,40.537,6869325
2018-04-19,40.646,41.481,40.577,41.357,5931872
2018-04-20,41.495,42,41.022,41.476,5456969
2018-04-23,42.049,42.494,41.792,42,5588202
2018-04-24,42.376,42.987,41.2,41.763,6053463
2018-04-25,41.635,42.296,41.12,42.01,3818793
2018-04-26,41.931,42.098,41.437,41.476,3878624
2018-04-27,41.447,41.98,41.328,41.96,3484037
2018-04-30,42.118,42.306,40.992,40.992,2870566
2018-05-01,40.823,41.061,40.058,40.674,7389138
2018-05-02,40.684,41.588,40.629,40.734,5737228
2018-05-03,40.396,40.714,39.711,40.138,4208270
2018-05-04,39.899,41.071,39.641,40.754,2757504
2018-05-07,40.843,41.091,40.426,40.793,2610524
2018-05-08,40.883,41.618,40.649,41.042,3681170
2018-05-09,41.28,42.055,41.131,41.886,3198598
2018-05-10,41.886,42.293,41.434,42.075,2627995
2018-05-11,42.184,42.313,41.906,42.114,2446773
2018-05-14,42.333,42.363,41.876,42.055,2381825
2018-05-15,41.995,42.829,41.965,42.432,3524873
2018-05-16,42.233,42.561,42.01,42.253,2925697
2018-05-17,42.124,42.432,41.796,42.214,3604703
2018-05-18,42.035,42.184,41.28,41.28,3480156
2018-05-21,41.489,41.931,41.32,41.608,3876103
2018-05-22,41.707,42.293,41.697,41.906,3447715
2018-05-23,41.737,41.955,41.21,41.508,6305337
2018-05-24,41.31,41.419,40.386,41.26,4483134
2018-05-25,41.022,41.315,40.763,41.23,3621392
2018-05-29,40.714,40.754,38.807,39.144,6946517
2018-05-30,39.979,40.356,39.641,40.168,4392689
2018-05-31,40.426,40.724,39.949,40.575,9089760
2018-06-01,41.181,41.777,41.081,41.349,4202235
2018-06-04,41.479,41.757,41.389,41.628,4810676
2018-06-05,41.498,41.697,40.783,41.21,4049563
2018-06-06,41.32,42.224,41.32,42.094,3727249
2018-06-07,42.263,42.432,41.538,41.628,4843656
2018-06-08,41.489,41.757,41.29,41.697,4163656
2018-06-11,41.945,42.283,41.459,41.568,4684120
2018-06-12,41.687,42.243,41.563,41.926,5669959
2018-06-13,42.045,42.576,41.508,41.558,5747919
2018-06-14,41.806,41.896,40.704,41.121,5439526
2018-06-15,41.052,41.538,40.227,41.419,8089713
2018-06-18,41.061,41.816,40.791,41.568,4857603
2018-06-19,41.061,41.598,40.893,41.469,4136413
2018-06-20,41.816,41.945,41.409,41.608,4352676
2018-06-21,41.409,41.906,40.952,41.647,2793488
2018-06-22,41.638,41.916,40.823,40.903,5798709
2018-06-25,40.754,40.803,39.989,40.575,7776813
2018-06-26,40.605,40.714,39.651,39.87,6515281
2018-06-27,39.75,40.316,39.214,39.293,4887387
2018-06-28,39.413,39.631,39.035,39.244,3824815
2018-06-29,39.581,39.979,38.578,38.638,6915261
2018-07-02,38.439,39.144,38.39,39.115,4366084
2018-07-03,39.125,39.432,38.668,38.697,1707128
2018-07-05,39.005,39.244,38.697,38.916,5015253
2018-07-06,38.707,39.264,38.449,39.085,3693779
2018-07-09,39.274,40.391,39.174,40.227,4659027
2018-07-10,40.326,40.55,39.527,39.77,3004456
2018-07-11,39.532,40.009,39.442,39.522,3115705
2018-07-12,39.86,39.879,39.135,39.303,5173860
2018-07-13,39.135,39.452,38.688,39.095,4372093
2018-07-16,39.343,39.969,39.254,39.711,4307762
2018-07-17,39.711,40.138,39.641,39.77,3992640
2018-07-18,39.8,40.793,39.8,40.763,4304143
2018-07-19,40.664,40.714,39.929,40.386,5857400
2018-07-20,40.823,40.942,39.492,39.929,5935738
2018-07-23,39.84,40.495,39.84,40.257,5438797
2018-07-24,40.346,40.386,39.601,39.77,7918094
2018-07-25,39.701,39.87,39.264,39.651,4674032
2018-07-26,39.73,40.297,39.636,39.691,4744578
2018-07-27,39.84,40.297,39.532,39.83,4130532
2018-07-30,39.969,40.058,39.716,39.8,4548658
2018-07-31,40.02,40.07,39.41,39.78,3591933
2018-08-01,40.03,40.415,39.83,39.92,4074277
2018-08-02,39.52,40.415,39.42,40.29,3448009
2018-08-03,40.12,40.47,40.1,40.42,4111979
2018-08-06,40.4,40.4,39.85,40.13,3613443
2018-08-07,40.22,40.77,40.2,40.41,3367096
2018-08-08,40.39,41.12,40.36,41.01,2952033
2018-08-09,40.93,41.1,40.565,40.59,2686531
2018-08-10,40.02,40.44,39.8,40.27,2143279
2018-08-13,40.27,40.56,39.82,39.84,2496384
2018-08-14,39.95,40.595,39.8764,40.4,3017315
2018-08-15,40.06,40.25,39.62,39.75,4199147
2018-08-16,40.02,40.61,40,40.46,3501820
2018-08-17,40.39,40.765,40.27,40.69,2269443
2018-08-20,40.63,40.87,40.56,40.85,2091177
2018-08-21,40.87,41.57,40.83,41.27,3270272
2018-08-22,41.08,41.31,40.91,41.25,2521094
