Date,Open,High,Low,Close,Volume
2014-07-31,22.042,23.001,21.66,22.042,58932932
2014-08-01,21.948,22.042,21.727,22.042,6738756
2014-08-04,22.138,22.168,21.948,22.042,3605829
2014-08-05,22.032,22.052,21.727,22.042,4643291
2014-08-06,21.85,22.023,21.727,22.023,7296975
2014-08-07,21.938,22.042,21.85,21.977,3328889
2014-08-08,21.977,22.072,21.85,21.996,2978976
2014-08-11,21.948,21.977,21.85,21.977,1844281
2014-08-12,21.938,22.042,21.88,22.042,1616965
2014-08-13,22.042,22.262,21.928,22.216,1731525
2014-08-14,22.236,22.253,21.996,22.052,1452285
2014-08-15,22.062,22.119,22.042,22.042,2032802
2014-08-18,22.1,22.207,22.062,22.207,1120273
2014-08-19,22.236,23.423,22.236,23.393,2975863
2014-08-20,23.29,24.525,23.251,24.142,3702773
2014-08-21,24.41,24.458,23.884,24.334,2460387
2014-08-22,24.2,24.371,24.056,24.306,930869
2014-08-25,24.315,24.343,23.844,24.075,1236902
2014-08-26,23.959,24.056,23.903,24.007,992325
2014-08-27,23.959,24.478,23.913,24.41,1284006
2014-08-28,24.343,24.766,24.256,24.621,1024876
2014-08-29,24.736,24.861,24.39,24.718,1023777
2014-09-02,24.631,24.822,24.458,24.718,1954509
2014-09-03,24.909,24.918,24.563,24.718,1039781
2014-09-04,24.468,24.678,24.449,24.631,1165969
2014-09-05,24.631,24.937,24.554,24.698,1137197
2014-09-08,24.746,24.899,23.595,23.806,2644993
2014-09-09,24.246,24.534,23.673,23.997,3765429
2014-09-10,24.142,24.256,23.663,23.673,2060338
2014-09-11,23.721,23.978,23.604,23.624,2117165
2014-09-12,23.511,23.721,23.423,23.481,1154868
2014-09-15,23.336,23.365,22.924,23.145,1174489
2014-09-16,23.232,23.346,22.887,23.299,1577780
2014-09-17,23.433,23.663,23.346,23.529,981332
2014-09-18,23.548,23.806,23.538,23.644,917280
2014-09-19,23.815,24.429,23.682,24.353,5486128
2014-09-22,24.228,24.306,23.721,23.806,768966
2014-09-23,23.634,23.673,23.173,23.556,980761
2014-09-24,23.702,23.959,23.654,23.884,1006505
2014-09-25,23.941,23.941,23.585,23.604,1409400
2014-09-26,23.585,23.768,23.328,23.741,1307212
2014-09-29,23.548,23.748,23.328,23.673,1546382
2014-09-30,23.834,24.075,23.202,23.529,9176917
2014-10-01,23.423,23.565,23.173,23.212,1248648
2014-10-02,23.336,23.663,22.771,23.556,1307363
2014-10-03,23.748,24.046,23.393,23.796,1812913
2014-10-06,23.824,24.066,23.721,23.959,1103035
2014-10-07,23.903,23.933,23.529,23.815,838538
2014-10-08,23.777,23.978,23.673,23.978,1121121
2014-10-09,23.978,24.017,23.413,23.529,2646449
2014-10-10,23.481,23.692,23.135,23.192,1629476
2014-10-13,23.251,23.741,23.192,23.442,1801000
2014-10-14,23.604,23.913,23.556,23.815,1081446
2014-10-15,23.711,23.933,23.031,23.501,1595858
2014-10-16,23.192,23.768,23.125,23.575,1970972
2014-10-17,23.692,24.056,23.624,23.748,1024285
2014-10-20,23.721,23.824,23.384,23.682,979033
2014-10-21,23.741,24.209,23.682,24.123,1773467
2014-10-22,24.266,24.39,24.103,24.325,1613176
2014-10-23,24.41,24.832,24.381,24.736,1012223
2014-10-24,24.678,25.264,24.678,25.025,1276224
2014-10-27,24.995,25.675,24.937,25.426,1055330
2014-10-28,25.618,25.972,25.494,25.732,1045799
2014-10-29,25.695,25.952,25.561,25.878,761806
2014-10-30,25.952,26.309,25.406,25.675,1084209
2014-10-31,25.924,25.982,25.732,25.897,975221
2014-11-03,25.952,26.605,25.732,26.202,1026404
2014-11-04,26.163,26.309,25.157,25.888,1042642
2014-11-05,26.059,26.356,25.589,26.327,612833
2014-11-06,26.366,26.615,26.136,26.431,1036198
2014-11-07,26.568,26.998,26.117,26.979,1216385
2014-11-10,27.054,27.669,26.835,27.574,1538211
2014-11-11,27.603,28.043,27.504,27.897,1715064
2014-11-12,27.794,27.947,27.449,27.824,1078630
2014-11-13,27.804,28.014,27.622,27.784,1728707
2014-11-14,27.717,28.328,27.65,27.842,1995061
2014-11-17,27.842,28.034,27.631,27.917,1054205
2014-11-18,27.995,28.207,27.584,27.744,990120
2014-11-19,27.784,27.794,27.458,27.734,2234807
2014-11-20,27.754,28.128,27.707,28.024,1357022
2014-11-21,28.08,28.177,27.804,27.957,1047515
2014-11-24,28.051,28.187,27.65,27.764,1228585
2014-11-25,27.725,28.1,26.864,27.465,6196342
2014-11-26,27.631,27.869,27.544,27.603,1385052
2014-11-28,27.554,27.824,27.554,27.804,443634
2014-12-01,27.754,27.917,27.534,27.678,1065297
2014-12-02,27.734,28.09,27.687,27.842,1138533
2014-12-03,27.907,27.927,27.697,27.794,761929
2014-12-04,27.804,28.118,27.707,27.937,864975
2014-12-05,28.06,28.07,27.725,28.034,854218
2014-12-08,28.07,28.598,27.814,28.281,1715441
2014-12-09,28.3,28.408,27.986,28.29,1134121
2014-12-10,28.319,28.657,28.271,28.418,792978
2014-12-11,28.436,28.752,28.207,28.29,1103831
2014-12-12,28.109,28.254,27.725,27.794,1703363
2014-12-15,27.937,27.995,26.989,27.441,1367385
2014-12-16,27.412,27.465,26.979,27.256,2338865
2014-12-17,27.333,27.784,27.143,27.697,1368895
2014-12-18,27.794,28.637,27.734,28.512,1059762
2014-12-19,28.578,28.799,28.549,28.752,1396753
2014-12-22,28.378,28.723,28.281,28.608,804443
2014-12-23,28.79,29.039,28.483,28.752,525968
2014-12-24,28.857,28.914,28.723,28.857,81990
2014-12-26,28.914,29.345,28.819,29.231,445064
2014-12-29,29.183,29.364,29.011,29.193,312201
2014-12-30,29.221,29.231,28.647,28.752,540605
2014-12-31,28.857,28.877,28.446,28.512,448630
2015-01-02,28.549,28.559,28.128,28.254,605139
2015-01-05,28.157,28.388,27.484,28.034,1663118
2015-01-06,28.177,28.207,27.264,27.65,2293782
2015-01-07,28.29,28.446,27.707,27.986,1424398
2015-01-08,28.3,28.848,28.261,28.733,871279
2015-01-09,28.819,28.819,28.261,28.466,498458
2015-01-12,28.522,28.559,28.3,28.3,789685
2015-01-13,28.53,28.752,28.237,28.473,657516
2015-01-14,28.167,28.368,27.86,27.937,904460
2015-01-15,27.977,28.034,26.758,27.333,1141817
2015-01-16,27.163,27.842,27.035,27.784,443676
2015-01-20,27.833,27.986,27.421,27.889,999810
2015-01-21,27.889,28.07,27.764,27.967,901236
2015-01-22,28.005,28.271,27.246,27.842,2624010
2015-01-23,28.752,30.669,27.794,29.682,3312126
2015-01-26,29.52,30.151,29.441,30.026,3258825
2015-01-27,29.892,30.189,29.604,30.016,1462641
2015-01-28,30.437,30.437,29.806,29.951,1072351
2015-01-29,29.921,30.18,29.71,29.931,1443496
2015-01-30,29.815,30.026,29.491,29.575,1309550
2015-02-02,29.556,29.892,29.412,29.863,791775
2015-02-03,29.997,30.189,29.672,29.834,959832
2015-02-04,29.72,30.074,29.691,29.951,1331578
2015-02-05,29.97,30.745,29.834,30.669,1162739
2015-02-06,30.735,31.321,30.639,30.803,1164374
2015-02-09,30.784,31.061,30.677,31.051,1166616
2015-02-10,31.261,31.752,31.023,31.733,2456206
2015-02-11,31.867,32.212,31.637,32.153,2202487
2015-02-12,32.336,32.546,32.135,32.212,2435980
2015-02-13,32.001,32.172,31.261,31.436,1288433
2015-02-17,31.436,31.445,30.525,30.591,1803038
2015-02-18,30.477,30.859,30.427,30.584,1100325
2015-02-19,30.611,30.745,30.467,30.554,580332
2015-02-20,30.629,31.406,30.363,31.234,2172675
2015-02-23,31.206,31.35,30.909,31.261,906427
2015-02-24,31.109,31.628,30.584,31.013,1073420
2015-02-25,30.984,31.234,30.765,30.946,701692
2015-02-26,31.176,31.35,31.013,31.1,372246
2015-02-27,31.023,31.196,30.601,30.62,577135
2015-03-02,30.353,30.707,29.921,30.629,820021
2015-03-03,30.889,30.909,30.525,30.803,505535
2015-03-04,30.716,30.716,30.497,30.564,458583
2015-03-05,30.649,31.119,30.457,30.629,506995
2015-03-06,30.611,30.669,29.892,29.902,724132
2015-03-09,30.036,30.813,29.951,30.649,809898
2015-03-10,30.477,30.601,29.797,29.806,951803
2015-03-11,29.951,30.4,29.815,30.237,614362
2015-03-12,30.457,30.687,30.247,30.564,524942
2015-03-13,30.544,30.611,29.96,30.497,928536
2015-03-16,30.669,30.669,30.467,30.62,655370
2015-03-17,30.353,31.091,30.266,30.889,853931
2015-03-18,30.869,30.869,30.315,30.591,657977
2015-03-19,30.591,31.051,30.516,31.023,685525
2015-03-20,31.148,31.521,30.869,30.909,1563038
2015-03-23,30.909,31.176,30.447,30.457,682290
2015-03-24,30.457,30.591,30.189,30.333,754911
2015-03-25,30.074,30.198,29.547,29.632,1226328
2015-03-26,29.72,29.74,29.107,29.335,926451
2015-03-27,29.461,29.461,28.685,28.809,1002305
2015-03-30,28.904,29.144,28.809,29.029,602155
2015-03-31,28.982,29.221,28.723,29.087,1444401
2015-04-01,28.848,29.412,28.667,29.144,1188138
2015-04-02,29.134,29.431,28.982,29.335,877824
2015-04-06,29.231,29.547,28.456,28.598,1117394
2015-04-07,28.877,29.441,28.271,28.522,1531089
2015-04-08,28.559,28.896,28.493,28.723,766180
2015-04-09,28.77,29.087,28.657,28.886,876050
2015-04-10,29.097,29.471,28.896,29.318,1344650
2015-04-13,29.241,29.53,29.134,29.364,1251578
2015-04-14,29.404,29.556,29.241,29.251,841411
2015-04-15,29.241,29.53,29.212,29.404,406791
2015-04-16,29.421,29.652,29.039,29.491,1260895
2015-04-17,29.71,29.71,28.963,29.251,1421654
2015-04-20,29.806,29.978,29.326,29.613,2274073
2015-04-21,29.691,30.046,29.613,29.902,1961366
2015-04-22,30.477,30.707,29.73,29.749,2129248
2015-04-23,30.207,30.237,29.547,29.672,1451600
2015-04-24,29.642,29.825,29.355,29.539,690323
2015-04-27,29.547,29.72,29.289,29.345,652553
2015-04-28,29.53,29.595,29.231,29.384,592347
2015-04-29,29.298,29.768,29.011,29.461,1669884
2015-04-30,29.431,30.094,29.364,29.853,1281838
2015-05-01,30.084,30.237,29.941,30.207,620519
2015-05-04,30.237,30.4,30.141,30.391,636379
2015-05-05,30.574,30.909,30.417,30.611,1326704
2015-05-06,30.831,30.889,30.457,30.755,984216
2015-05-07,30.726,31.301,30.487,31.291,1143041
2015-05-08,31.368,31.828,31.281,31.818,976742
2015-05-11,31.79,31.924,31.426,31.521,573045
2015-05-12,30.994,31.953,30.707,31.743,2110321
2015-05-13,31.743,32.029,31.376,31.531,1122507
2015-05-14,31.608,31.752,31.023,31.406,1511806
2015-05-15,31.492,31.541,30.437,30.487,1356571
2015-05-18,30.497,30.544,30.189,30.516,831060
2015-05-19,30.516,30.726,30.477,30.726,775362
2015-05-20,30.849,31.396,30.659,31.291,661943
2015-05-21,31.234,31.416,31.043,31.119,448982
2015-05-22,31.061,31.341,30.831,31.148,376153
2015-05-26,31.109,31.148,30.544,30.784,590748
2015-05-27,30.794,31.243,30.765,31.109,361125
2015-05-28,30.919,31.301,30.909,31.176,371270
2015-05-29,31.206,31.234,30.784,30.946,886800
2015-06-01,31.013,31.261,30.574,31.061,503971
2015-06-02,30.937,31.406,30.919,31.291,487006
2015-06-03,31.331,32.221,31.157,31.799,1914564
2015-06-04,31.665,31.733,31.321,31.386,827429
2015-06-05,31.482,31.521,31.157,31.436,332745
2015-06-08,31.426,31.436,31.234,31.291,505013
2015-06-09,31.261,31.55,31.148,31.492,730676
2015-06-10,31.598,31.953,31.455,31.914,762927
2015-06-11,31.905,32.471,31.78,31.838,1202218
2015-06-12,31.79,32.011,31.492,31.743,510230
2015-06-15,31.55,31.76,31.176,31.598,1742921
2015-06-16,31.628,31.78,31.1,31.148,659440
2015-06-17,31.243,31.618,31.091,31.386,519203
2015-06-18,31.436,31.76,31.331,31.455,616035
2015-06-19,31.541,31.598,31.331,31.55,513465
2015-06-22,31.656,31.867,31.406,31.541,478926
2015-06-23,31.618,31.895,31.541,31.618,693791
2015-06-24,31.618,31.828,31.35,31.396,544247
2015-06-25,31.492,31.492,31.081,31.445,736337
2015-06-26,31.512,31.78,31.148,31.341,2221850
2015-06-29,31.071,31.206,30.831,30.889,770667
2015-06-30,31.206,31.675,31.023,31.56,951224
2015-07-01,31.723,31.943,31.465,31.934,594849
2015-07-02,31.981,31.991,31.579,31.76,511171
2015-07-06,31.541,31.541,30.975,31.148,1182608
2015-07-07,31.253,31.426,30.831,31.148,1643589
2015-07-08,31.091,31.109,30.62,30.677,648484
2015-07-09,31.206,31.598,31.033,31.243,846838
2015-07-10,31.531,31.991,31.36,31.693,758668
2015-07-13,31.943,32.106,31.569,31.961,1100387
2015-07-14,31.991,32.519,31.867,32.364,1043178
2015-07-15,32.491,32.939,32.231,32.72,867046
2015-07-16,32.834,33.026,32.653,32.71,664134
2015-07-17,33.065,34.242,32.767,33.62,1287470
2015-07-20,33.831,34.702,33.831,34.492,1244481
2015-07-21,34.52,34.885,34.09,34.129,857790
2015-07-22,34.1,34.389,33.611,34.195,818664
2015-07-23,34.349,34.57,33.957,34.149,529220
2015-07-24,34.051,34.187,33.19,33.236,867391
2015-07-27,33.18,33.448,32.844,33.18,508665
2015-07-28,33.306,33.438,32.565,32.805,1838604
2015-07-29,32.844,33.266,32.777,33.046,1191164
2015-07-30,33.141,33.361,32.777,33.16,1032043
2015-07-31,33.17,33.316,32.921,32.929,982689
2015-08-03,32.996,33.103,32.738,32.929,593873
2015-08-04,32.939,33.351,32.874,32.978,1281732
2015-08-05,33.16,33.334,32.824,33.123,959527
2015-08-06,33.334,33.37,32.614,32.71,658998
2015-08-07,32.643,32.785,32.049,32.565,674881
2015-08-10,32.701,33.197,32.614,33.18,526403
2015-08-11,33.151,33.236,32.701,33.226,983824
2015-08-12,33.226,33.544,32.834,33.506,1320444
2015-08-13,33.506,33.88,33.276,33.698,832333
2015-08-14,34.022,34.022,33.342,33.678,552490
2015-08-17,33.409,33.88,33.065,33.85,527550
2015-08-18,33.802,33.984,33.525,33.678,592138
2015-08-19,33.428,33.802,32.996,33.506,698150
2015-08-20,33.18,33.246,32.738,32.929,1400576
2015-08-21,32.491,32.758,32.212,32.317,2280178
2015-08-24,30.879,32.26,29.011,31.77,3148034
2015-08-25,32.528,32.555,31.253,31.618,2439507
2015-08-26,32.059,32.059,30.889,31.311,2389945
2015-08-27,31.618,31.618,30.497,30.984,2846649
2015-08-28,30.775,31.406,30.591,31.291,1882218
2015-08-31,31.396,31.877,31.119,31.579,1641398
2015-09-01,31.186,31.341,30.276,30.391,2121056
2015-09-02,30.564,30.909,30.026,30.467,1187615
2015-09-03,30.755,31.004,30.525,30.849,961298
2015-09-04,30.408,30.765,30.036,30.285,1659450
2015-09-08,30.677,31.033,30.497,30.937,2055113
2015-09-09,31.234,31.465,30.697,30.794,4277901
2015-09-10,30.363,30.899,30.065,30.755,2425158
2015-09-11,30.649,30.822,29.613,30.026,2846649
2015-09-14,29.951,30.315,29.539,29.872,3220609
2015-09-15,29.797,29.978,29.51,29.825,2483747
2015-09-16,29.491,29.797,29.068,29.595,2363650
2015-09-17,29.53,30.026,29.394,29.491,1104767
2015-09-18,29.241,29.421,28.867,29.289,2136289
2015-09-21,29.289,29.71,28.991,29.585,1641501
2015-09-22,29.441,29.539,28.944,29.308,1436574
2015-09-23,29.384,29.787,29.221,29.768,1039450
2015-09-24,29.421,29.815,29.27,29.547,1046281
2015-09-25,29.768,29.902,29.575,29.74,576801
2015-09-28,29.71,30.036,29.154,29.863,1177826
2015-09-29,29.778,29.997,29.51,29.749,929685
2015-09-30,30.065,30.408,29.642,29.997,2274856
2015-10-01,30.006,30.266,29.825,30.074,895980
2015-10-02,29.931,30.591,29.682,30.497,1174261
2015-10-05,30.554,31.961,30.408,31.924,1262775
2015-10-06,32.461,32.461,31.176,31.436,1301767
2015-10-07,31.628,31.723,30.467,30.794,1811683
2015-10-08,30.784,31.234,30.457,31.013,796751
2015-10-09,30.965,31.628,30.955,31.043,354136
2015-10-12,30.929,31.331,30.784,30.994,393502
2015-10-13,30.849,31.023,30.497,30.497,1214016
2015-10-14,30.437,30.497,30.141,30.217,1368752
2015-10-15,29.892,30.794,29.241,30.016,10051749
2015-10-16,30.065,30.065,28.512,28.896,12328586
2015-10-19,28.799,30.161,27.707,30.036,19324901
2015-10-20,30.437,31.531,30.036,30.994,8182711
2015-10-21,31.051,31.531,30.687,31.109,7776371
2015-10-22,31.341,31.445,29.988,30.506,6997147
2015-10-23,30.697,31.148,30.18,30.373,7667334
2015-10-26,30.506,30.544,29.556,30.094,7522404
2015-10-27,29.931,30.437,29.749,30.408,8057573
2015-10-28,30.4,30.584,29.853,30.141,7387282
2015-10-29,29.882,30.094,29.404,29.632,8066441
2015-10-30,29.652,29.71,29.384,29.481,8992576
2015-11-02,29.289,30.104,29.289,30.026,6022215
2015-11-03,29.806,31.225,29.806,31.091,17191011
2015-11-04,30.899,31.79,30.487,30.745,13160030
2015-11-05,30.669,31.35,30.324,31.253,11184692
2015-11-06,31.618,33.16,31.445,32.565,16048261
2015-11-09,32.509,32.767,30.813,31.167,19781370
2015-11-10,30.477,30.649,29.642,29.787,40178094
2015-11-11,29.815,29.931,29.374,29.642,43980302
2015-11-12,29.566,30.417,29.374,29.51,43235408
2015-11-13,29.471,30.18,29.173,29.251,33067109
2015-11-16,28.973,29.125,28.676,29.029,26551079
2015-11-17,29.125,30.056,29.039,29.308,134581799
2015-11-18,29.623,30.427,29.421,30.276,29248936
2015-11-19,30.295,30.697,29.73,30.333,30713997
2015-11-20,30.564,30.564,29.853,30.046,20757615
2015-11-23,30.554,30.909,30.026,30.237,27771459
2015-11-24,29.911,30.62,29.892,30.036,49592733
2015-11-25,30.151,30.544,29.951,30.217,16168151
2015-11-27,30.382,30.516,29.997,30.046,8737254
2015-11-30,30.256,30.611,30.122,30.506,21125419
2015-12-01,30.784,31.091,30.534,31.061,12188903
2015-12-02,31.243,31.243,30.427,30.516,9382782
2015-12-03,30.564,30.716,29.604,29.797,21505695
2015-12-04,29.941,30.697,29.815,30.697,16467298
2015-12-07,30.62,30.765,29.825,30.046,12401417
2015-12-08,29.882,30.104,29.491,30.056,15837010
2015-12-09,30.036,30.276,29.097,29.335,16760394
2015-12-10,29.441,30.006,29.384,29.758,9846821
2015-12-11,29.394,29.5,28.568,28.723,10884394
2015-12-14,28.886,29.087,28.1,28.446,16455550
2015-12-15,28.752,28.982,28.483,28.828,10074703
2015-12-16,29.134,29.404,28.694,29.261,9027012
2015-12-17,29.364,29.471,28.752,28.761,8350251
2015-12-18,28.637,28.752,28.128,28.281,15846674
2015-12-21,28.427,28.809,28.319,28.493,6062039
2015-12-22,28.742,29.078,28.522,28.953,6805598
2015-12-23,29.134,29.289,28.694,29.241,5033857
2015-12-24,29.212,29.444,29.049,29.326,1564099
2015-12-28,29.154,29.221,28.848,28.914,3977061
2015-12-29,29.193,29.431,29.073,29.412,3586129
2015-12-30,29.404,29.421,29.163,29.163,2755462
2015-12-31,28.953,29.355,28.848,29.144,3970074
2016-01-04,28.733,28.761,28.157,28.694,9151922
2016-01-05,28.608,29.021,28.227,28.857,7760379
2016-01-06,28.588,28.78,28.254,28.657,9555792
2016-01-07,28.245,28.588,27.794,27.907,11680052
2016-01-08,28.138,28.295,27.584,27.641,10851008
2016-01-11,27.794,27.824,27.123,27.504,12339503
2016-01-12,27.85,27.977,27.313,27.697,8726201
2016-01-13,28.578,28.637,26.375,26.422,15882943
2016-01-14,26.451,27.103,25.186,27.008,20873104
2016-01-15,26.299,26.568,25.868,26.489,15021265
2016-01-19,26.643,26.979,26.413,26.864,10196158
2016-01-20,26.202,26.748,25.704,26.47,10107233
2016-01-21,26.47,27.073,26.163,26.577,9456959
2016-01-22,28.08,28.217,27.554,27.85,17600701
2016-01-25,27.869,28.034,27.208,27.294,9489293
2016-01-26,27.323,27.717,27.143,27.465,7842669
2016-01-27,27.363,27.814,27.103,27.256,9015080
2016-01-28,27.313,27.65,26.441,26.825,13065836
2016-01-29,26.96,27.246,26.155,27.237,15971044
2016-02-01,27.246,27.412,26.768,27.284,7099920
2016-02-02,27.054,27.113,25.849,25.888,15830963
2016-02-03,25.914,26.155,24.286,25.245,25193544
2016-02-04,25.167,25.456,24.918,25.215,17701440
2016-02-05,25.245,25.436,23.959,24.18,16002029
2016-02-08,23.941,24.046,23.093,23.462,17140164
2016-02-09,23.27,24.266,23.079,24.036,14098182
2016-02-10,24.142,24.775,23.923,23.969,7591412
2016-02-11,23.28,23.815,22.753,23.481,12548156
2016-02-12,23.864,24.325,23.768,24.315,7003456
2016-02-16,24.678,25.119,24.41,25.053,10127339
2016-02-17,25.293,25.79,25.062,25.177,10602590
2016-02-18,25.138,25.618,24.961,25.511,8742238
2016-02-19,25.396,25.839,25.177,25.656,7961871
2016-02-22,26.778,26.835,26.244,26.558,11294679
2016-02-23,26.558,26.615,25.924,26.366,12008596
2016-02-24,26.04,26.615,25.571,26.577,8839333
2016-02-25,26.548,26.73,26.265,26.624,6882246
2016-02-26,26.797,27.059,26.21,26.768,8958203
2016-02-29,26.69,26.77,25.781,25.829,11195613
2016-03-01,26.117,26.384,25.666,26.384,11693453
2016-03-02,26.548,27.19,26.451,27.073,10712090
2016-03-03,27.083,27.474,26.859,27.373,9380627
2016-03-04,27.544,27.784,27.19,27.412,6365757
2016-03-07,27.256,27.378,26.748,27.333,6585674
2016-03-08,27.113,27.246,26.489,26.548,6440932
2016-03-09,26.681,26.892,26.394,26.529,7290712
2016-03-10,26.643,27.045,26.163,26.653,6325483
2016-03-11,26.969,27.65,26.887,27.622,8490394
2016-03-14,27.441,27.554,27.049,27.264,3668944
2016-03-15,26.989,27.049,26.422,26.529,7400393
2016-03-16,26.499,26.667,26.27,26.47,9634920
2016-03-17,26.47,27.073,26.079,26.931,9328710
2016-03-18,27.093,27.449,26.979,27.274,11202534
2016-03-21,27.218,27.697,27.153,27.593,6874481
2016-03-22,27.304,27.449,27.073,27.421,5487020
2016-03-23,27.393,27.554,27.078,27.237,5204281
2016-03-24,27.026,27.363,26.899,27.264,4344605
2016-03-28,27.323,27.344,27.035,27.2,3300189
2016-03-29,27.083,27.246,26.74,27.218,6250661
2016-03-30,27.353,27.549,27.073,27.2,5087557
2016-03-31,27.2,27.564,26.912,27.465,5532686
2016-04-01,27.431,28.271,27.323,28.109,8470974
2016-04-04,28.024,28.138,27.659,27.764,4036124
2016-04-05,27.421,27.593,27.218,27.421,5281744
2016-04-06,27.304,27.504,26.95,27.458,4411308
2016-04-07,27.237,27.323,26.643,26.807,6691431
2016-04-08,26.74,27.237,26.605,26.854,6570683
2016-04-11,26.892,27.228,26.7,26.71,5901362
2016-04-12,26.807,27.083,26.69,26.989,6419974
2016-04-13,27.2,27.734,27.113,27.717,7507012
2016-04-14,27.603,28.043,27.603,27.869,4732319
2016-04-15,28.07,28.177,27.584,27.734,3355950
2016-04-18,27.612,27.967,27.564,27.917,2733843
2016-04-19,27.986,28.628,27.957,28.578,8087748
2016-04-20,28.694,29.481,28.694,29.394,12236211
2016-04-21,29.308,29.461,29.021,29.154,6913942
2016-04-22,28.78,29.892,28.78,29.231,9535252
2016-04-25,29.202,29.604,28.934,29.173,6125056
2016-04-26,29.318,29.902,29.183,29.863,7797837
2016-04-27,29.844,29.844,29.298,29.595,8332020
2016-04-28,29.345,29.931,29.231,29.682,6176310
2016-04-29,29.5,29.71,29.025,29.298,5110483
2016-05-02,29.5,30.141,29.412,30.026,7196755
2016-05-03,29.7,29.882,29.355,29.787,5725542
2016-05-04,29.481,29.575,28.877,28.982,7247152
2016-05-05,29.021,29.163,28.549,28.588,6089133
2016-05-06,28.427,28.862,28.271,28.828,6328479
2016-05-09,28.877,29.073,28.637,28.713,3016374
2016-05-10,28.819,29.421,28.79,29.289,3882886
2016-05-11,29.097,29.193,28.657,28.685,8107533
2016-05-12,28.953,28.973,28.1,28.197,8974954
2016-05-13,28.07,28.418,27.744,27.833,7194495
2016-05-16,27.833,28.1,27.707,27.734,8000067
2016-05-17,27.593,28.465,27.534,28.051,6533761
2016-05-18,28.051,28.872,27.995,28.857,7706906
2016-05-19,28.618,28.991,28.348,28.694,6384179
2016-05-20,28.79,29.107,28.503,28.637,5117805
2016-05-23,28.54,28.78,28.245,28.588,3506309
2016-05-24,28.752,29.173,28.723,29.039,4903238
2016-05-25,29.163,29.687,29.134,29.384,6290628
2016-05-26,29.364,29.691,29.134,29.604,5939891
2016-05-27,29.71,29.941,29.487,29.863,5496485
2016-05-31,30.074,30.074,29.73,29.902,6131816
2016-06-01,29.853,30.026,29.481,29.988,3240374
2016-06-02,29.951,29.988,29.599,29.978,6562520
2016-06-03,29.632,29.892,28.991,29.441,6003014
2016-06-06,29.451,29.797,29.421,29.74,6761942
2016-06-07,29.815,30.516,29.451,30.295,11035689
2016-06-08,30.276,30.639,30.276,30.62,7807030
2016-06-09,30.4,30.4,29.902,30.104,6014893
2016-06-10,29.797,29.797,29.355,29.52,6169889
2016-06-13,29.384,29.604,29.134,29.173,6196009
2016-06-14,28.043,28.043,24.39,25.349,68866444
2016-06-15,25.386,26.04,24.852,25.396,27960806
2016-06-16,25.148,25.186,24.534,24.918,22780296
2016-06-17,24.889,24.927,24.516,24.698,19038529
2016-06-20,24.937,24.946,24.266,24.488,19154552
2016-06-21,24.611,25.157,24.439,24.775,11955136
2016-06-22,24.736,25.138,24.405,24.439,15323694
2016-06-23,24.708,24.956,24.439,24.918,10893885
2016-06-24,23.913,24.41,23.529,23.614,16750483
2016-06-27,23.29,23.309,22.282,22.388,15609660
2016-06-28,22.723,23.05,22.619,22.934,12578410
2016-06-29,23.164,23.806,23.069,23.796,8507629
2016-06-30,23.941,24.228,23.433,24.228,11117231
2016-07-01,24.19,24.41,24.046,24.296,6645317
2016-07-05,24.325,24.339,23.969,24.075,7996650
2016-07-06,23.815,24.4,23.796,24.256,6476111
2016-07-07,24.296,24.995,24.256,24.937,14995483
2016-07-08,26.155,26.337,25.878,26.173,13202439
2016-07-11,26.356,26.624,26.215,26.519,7075988
2016-07-12,26.835,26.979,26.667,26.758,7966700
2016-07-13,26.787,27.008,26.48,26.95,5432592
2016-07-14,27.402,27.465,26.921,27.123,6152224
2016-07-15,27.143,27.143,26.672,26.95,7569188
2016-07-18,27.313,27.504,26.912,27.113,5324251
2016-07-19,27.073,27.233,26.931,27.073,5459220
2016-07-20,27.304,27.393,26.835,26.969,9330002
2016-07-21,26.892,27.284,26.422,27.083,7982593
2016-07-22,27.421,27.687,26.787,27.218,12357668
2016-07-25,27.133,27.208,26.797,26.921,7616886
2016-07-26,26.96,27.313,26.835,26.941,8099122
2016-07-27,26.816,27.054,26.705,26.969,5432566
2016-07-28,26.883,27.018,26.715,26.748,7738413
2016-07-29,26.71,26.921,26.596,26.72,8667638
2016-08-01,26.74,27.093,26.72,26.748,7359681
2016-08-02,26.72,26.892,26.182,26.21,8593902
2016-08-03,26.24,26.873,26.202,26.71,6617872
2016-08-04,26.74,26.912,26.596,26.758,4349335
2016-08-05,27.113,27.246,26.974,27.045,5569375
2016-08-08,27.153,27.256,26.821,26.873,4052871
2016-08-09,26.883,26.921,26.633,26.72,7442268
2016-08-10,26.778,26.874,26.44,26.624,7043439
2016-08-11,26.672,26.836,26.508,26.586,5277955
2016-08-12,26.43,26.845,26.268,26.653,7085963
2016-08-15,26.826,26.932,26.677,26.71,4966604
2016-08-16,26.614,26.748,26.287,26.287,5282527
2016-08-17,26.297,26.45,26.213,26.364,5827583
2016-08-18,26.373,26.383,26.152,26.278,5287894
2016-08-19,26.161,26.469,26.095,26.364,4377725
2016-08-22,26.355,26.364,26.123,26.258,3422122
2016-08-23,26.412,26.479,26.258,26.268,3785212
2016-08-24,26.317,26.469,26.066,26.114,4519818
2016-08-25,26.095,26.199,25.91,26.007,3348673
2016-08-26,26.095,26.143,25.613,25.864,8037430
2016-08-29,25.948,26.278,25.864,26.161,3906565
2016-08-30,26.238,26.355,26.051,26.287,3492345
2016-08-31,26.297,26.807,26.208,26.797,8120709
2016-09-01,26.797,26.97,26.378,26.73,5189121
2016-09-02,26.826,26.87,26.557,26.768,3681180
2016-09-06,26.74,26.797,26.523,26.586,5019752
2016-09-07,26.46,26.807,26.335,26.778,2911190
2016-09-08,26.576,26.662,26.268,26.325,9883332
2016-09-09,26.297,26.653,25.93,25.93,6953089
2016-09-12,25.786,26.469,25.69,26.392,6911592
2016-09-13,26.076,26.161,25.545,25.727,8943469
2016-09-14,25.727,25.978,25.565,25.835,6901451
2016-09-15,25.766,26.161,25.632,26.046,5276930
2016-09-16,25.854,25.968,25.68,25.91,13986369
2016-09-19,26.027,26.152,25.893,26.037,5224836
2016-09-20,26.199,26.199,25.795,25.805,3836813
2016-09-21,25.948,26.218,25.757,26.056,7259149
2016-09-22,26.152,26.537,25.948,26.46,6565614
2016-09-23,26.317,26.72,26.287,26.373,6113540
2016-09-26,26.143,26.59,25.997,26.287,7426301
2016-09-27,26.248,26.821,26.17,26.778,6093964
2016-09-28,26.778,26.913,26.562,26.787,5001056
2016-09-29,26.74,26.855,26.017,26.355,6016386
2016-09-30,26.604,27.07,26.469,26.961,7310842
2016-10-03,26.807,27.085,26.488,26.557,7470937
2016-10-04,26.672,26.883,26.278,26.317,10111871
2016-10-05,26.383,26.98,26.278,26.903,8431625
2016-10-06,26.816,26.874,25.934,25.988,11872928
2016-10-07,26.095,26.402,25.506,25.68,11484553
2016-10-10,25.93,25.988,25.469,25.737,14890119
2016-10-11,25.737,25.864,25.493,25.555,8266962
2016-10-12,25.506,25.641,25.44,25.525,5360753
2016-10-13,25.323,25.545,25.12,25.39,5804717
2016-10-14,25.651,25.938,25.54,25.709,6935815
2016-10-17,25.671,25.825,25.41,25.44,6058676
2016-10-18,25.747,25.815,25.565,25.651,7252974
2016-10-19,25.545,26.104,25.545,25.997,4416037
2016-10-20,26.046,26.355,25.938,26.123,11171268
2016-10-21,26.836,27.326,26.614,27.183,13841504
2016-10-24,27.356,27.943,27.356,27.722,9464758
2016-10-25,27.664,27.819,27.395,27.518,6008591
2016-10-26,27.336,27.794,27.244,27.635,5328557
2016-10-27,27.779,28.044,27.702,27.866,5640987
2016-10-28,27.953,28.239,27.692,28.02,8058723
2016-10-31,28.204,28.204,27.508,27.528,7121536
2016-11-01,27.702,27.943,27.287,27.498,7923341
2016-11-02,27.488,27.739,27.326,27.366,6369814
2016-11-03,27.549,27.549,27.164,27.209,5159136
2016-11-04,27.336,27.665,27.084,27.297,6115022
2016-11-07,27.877,28.163,27.694,28.158,6878257
2016-11-08,27.946,28.05,27.469,27.761,5494351
2016-11-09,28.004,29.31,27.896,29.232,11881885
2016-11-10,29.56,30.702,29.514,30.578,11785411
2016-11-11,30.42,31.544,30.375,31.418,17414055
2016-11-14,31.698,32.705,31.679,32.618,12755506
2016-11-15,32.531,32.531,31.573,32.25,10930176
2016-11-16,31.999,32.152,31.495,31.544,9422681
2016-11-17,31.757,32.375,31.369,32.337,11071649
2016-11-18,32.395,32.588,32.076,32.521,7308474
2016-11-21,32.618,32.743,32.202,32.521,7375782
2016-11-22,32.734,33.206,32.647,32.86,8425316
2016-11-23,32.889,33.876,32.82,33.817,11789493
2016-11-25,33.846,33.876,33.517,33.565,3124698
2016-11-28,33.351,33.351,32.685,32.791,6360516
2016-11-29,32.935,33.044,32.695,32.695,4427211
2016-11-30,33.073,33.536,32.87,33.43,8850092
2016-12-01,33.546,34.291,33.44,33.923,10298490
2016-12-02,33.904,33.953,33.329,33.361,7352954
2016-12-05,33.711,34.359,33.672,33.963,6122888
2016-12-06,34.117,34.532,33.772,34.493,5201243
2016-12-07,34.078,35.083,33.837,34.998,6309558
2016-12-08,35.093,35.567,34.903,35.453,6876283
2016-12-09,35.344,35.567,35.035,35.335,5850855
2016-12-12,35.259,35.481,34.629,34.764,6872216
2016-12-13,34.949,35.201,34.417,35.083,7864094
2016-12-14,34.794,35.23,34.407,34.764,10274300
2016-12-15,35.074,35.916,35.074,35.723,12100009
2016-12-16,35.877,35.886,35.32,35.434,7878256
2016-12-19,35.374,35.752,35.315,35.694,5713373
2016-12-20,35.849,36.042,35.646,36.042,5273019
2016-12-21,36.09,36.09,35.742,35.886,2872344
2016-12-22,35.886,35.886,35.471,35.674,4092991
2016-12-23,35.606,35.761,35.471,35.761,3071960
2016-12-27,35.916,35.965,35.713,35.79,2283021
2016-12-28,35.859,35.886,35.017,35.054,4962296
2016-12-29,35.201,35.462,34.745,34.91,3649100
2016-12-30,34.949,35.269,34.9,35.083,3569256
2017-01-03,35.548,35.955,35.394,35.849,6263438
2017-01-04,36.08,36.812,35.93,36.69,6244257
2017-01-05,36.429,36.507,35.211,35.704,7082403
2017-01-06,35.877,36.255,35.674,35.916,5282967
2017-01-09,35.704,35.863,35.325,35.694,4089221
2017-01-10,35.819,36.265,35.524,35.752,5203423
2017-01-11,35.606,35.606,34.493,35.171,12032533
2017-01-12,34.978,35.013,34.436,34.949,6702073
2017-01-13,35.152,35.626,34.885,35.132,4550011
2017-01-17,34.919,35.045,34.213,34.349,4860242
2017-01-18,34.62,34.745,34.02,34.726,4076889
2017-01-19,34.784,34.958,34.399,34.446,6357877
2017-01-20,34.804,35.646,34.679,35.054,9257183
2017-01-23,34.852,35.296,34.446,34.602,7078016
2017-01-24,34.794,35.181,34.706,34.9,4256974
2017-01-25,35.201,35.301,34.582,34.736,6603130
2017-01-26,34.842,35.499,34.706,35.49,7827716
2017-01-27,35.49,35.587,35.162,35.434,6157997
2017-01-30,35.259,35.335,34.823,35.276,4822796
2017-01-31,35.113,35.34,34.399,34.649,6195658
2017-02-01,34.882,35.384,34.711,34.823,5435694
2017-02-02,34.601,34.764,34.164,34.308,5806582
2017-02-03,34.9,35.664,34.61,35.446,7718749
2017-02-06,35.192,35.483,35.104,35.386,4517471
2017-02-07,35.57,35.707,34.91,34.999,5751295
2017-02-08,34.833,34.833,34.347,34.726,4356028
2017-02-09,34.784,35.527,34.638,35.426,4984055
2017-02-10,35.659,35.726,35.094,35.163,5693276
2017-02-13,35.366,35.716,35.261,35.58,7366695
2017-02-14,35.56,36.308,35.473,36.231,4765289
2017-02-15,36.241,36.647,36.085,36.192,4413350
2017-02-16,36.104,36.202,35.483,35.774,3725283
2017-02-17,35.512,35.687,35.004,35.609,6094877
2017-02-21,36.027,36.251,35.784,35.784,3958396
2017-02-22,35.522,35.949,35.473,35.707,2739847
2017-02-23,35.784,35.843,35.222,35.56,3216218
2017-02-24,35.192,35.416,35.055,35.416,4712605
2017-02-27,35.436,35.881,34.9,35.863,4322315
2017-02-28,35.697,35.778,34.706,35.182,7794460
2017-03-01,36.094,36.322,35.64,35.813,6174690
2017-03-02,35.803,35.9,34.872,34.919,6817960
2017-03-03,34.852,35.114,34.648,34.999,5245030
2017-03-06,34.754,34.764,34.289,34.541,5269586
2017-03-07,34.531,34.89,34.327,34.561,4273063
2017-03-08,34.852,35.046,34.601,34.668,3790491
2017-03-09,34.872,35.094,34.638,34.804,3304504
2017-03-10,35.027,35.143,34.736,34.959,4436823
2017-03-13,34.939,35.114,34.678,34.979,4011200
2017-03-14,34.706,34.929,34.605,34.872,3687651
2017-03-15,34.979,35.124,34.638,34.754,6621950
2017-03-16,34.959,35.032,34.663,34.784,4963246
2017-03-17,34.688,34.688,33.842,34.095,10899555
2017-03-20,34.055,34.174,33.192,33.2,9676113
2017-03-21,33.386,33.493,31.978,32.057,12251015
2017-03-22,31.939,32.55,31.532,32.115,9174946
2017-03-23,32.105,32.833,31.968,32.454,6649833
2017-03-24,32.58,32.706,32.067,32.338,4823242
2017-03-27,31.639,32.008,31.299,31.785,9054379
2017-03-28,31.853,32.912,31.648,32.677,6631596
2017-03-29,32.659,32.938,32.571,32.793,4622059
2017-03-30,32.833,33.575,32.793,33.425,5276587
2017-03-31,33.27,33.522,33.129,33.3,5182701
2017-04-03,33.445,33.532,32.304,32.774,6356843
2017-04-04,32.6,32.92,32.6,32.745,2632851
2017-04-05,33.24,33.356,32.172,32.289,5171997
2017-04-06,32.26,32.61,31.983,32.26,10826563
2017-04-07,31.998,32.445,31.91,32.192,3846985
2017-04-10,32.221,32.489,31.858,31.91,7052048
2017-04-11,31.6,32.15,31.309,32.085,6962965
2017-04-12,31.862,32.26,31.756,31.853,4734249
2017-04-13,31.716,32.027,31.425,31.425,5424818
2017-04-17,31.464,32.076,31.339,32.057,4309689
2017-04-18,31.853,32.1,31.61,31.891,5121177
2017-04-19,32.095,32.26,31.91,32.037,3459544
2017-04-20,32.347,33.017,32.299,32.863,5571604
2017-04-21,32.793,32.892,32.289,32.406,4871881
2017-04-24,33.3,33.346,32.697,32.912,4359022
2017-04-25,33.192,33.328,32.649,32.833,6350271
2017-04-26,32.745,32.813,31.696,32.26,11893025
2017-04-27,32.464,32.464,32.037,32.085,7355048
2017-04-28,26.697,28.233,26.445,26.989,47769424
2017-05-01,27.164,27.785,26.406,27.125,23662301
2017-05-02,27.145,28.085,26.873,28.028,26256462
2017-05-03,27.785,28.327,27.687,27.93,14716541
2017-05-04,28.076,28.261,27.834,27.96,10062289
2017-05-05,28.125,28.525,27.716,27.9,11223483
2017-05-08,27.871,27.989,27.648,27.676,8259259
2017-05-09,27.734,27.824,27.325,27.405,8885492
2017-05-10,27.315,27.424,26.994,27.071,11298238
2017-05-11,26.985,26.994,25.939,26.263,14514741
2017-05-12,26.146,26.16,25.365,25.931,23733220
2017-05-15,26.107,26.716,25.864,26.438,14910741
2017-05-16,26.546,26.566,26.127,26.174,11475925
2017-05-17,25.55,26.019,25.498,25.844,12060848
2017-05-18,25.774,26.112,25.755,25.844,8151561
2017-05-19,27.071,27.131,26.142,26.174,13806758
2017-05-22,26.341,26.36,25.999,26.243,9455967
2017-05-23,26.341,26.341,26.019,26.174,6700585
2017-05-24,26.156,26.341,26.039,26.137,9396449
2017-05-25,26.302,26.731,26.058,26.556,13126059
2017-05-26,26.477,26.965,26.399,26.691,11742699
2017-05-30,26.633,26.779,26.336,26.428,9876160
2017-05-31,26.428,26.526,25.688,26.183,9440231
2017-06-01,26.321,26.789,26.174,26.546,8878478
2017-06-02,26.312,26.985,26.312,26.721,12682807
2017-06-05,26.673,27.371,26.428,27.266,11251187
2017-06-06,27.032,27.739,26.828,27.589,14566478
2017-06-07,27.754,28.462,27.711,28.154,16463669
2017-06-08,28.115,28.515,27.92,27.96,8745208
2017-06-09,28.214,28.261,27.814,27.989,8047790
2017-06-12,27.999,28.281,27.725,28.047,5810047
2017-06-13,28.115,28.364,27.725,28.271,5443756
2017-06-14,28.086,28.593,27.91,28.505,10419989
2017-06-15,28.261,28.925,28.252,28.74,8857608
2017-06-16,28.73,28.73,28.349,28.603,7001841
2017-06-19,28.74,28.74,28.403,28.691,7049855
2017-06-20,28.672,29.036,28.603,28.71,5836584
2017-06-21,28.72,29.051,28.477,28.965,8013947
2017-06-22,28.837,29.022,28.437,28.573,6542646
2017-06-23,28.76,28.788,28.125,28.252,7752606
2017-06-26,28.32,28.984,28.32,28.945,7195165
2017-06-27,29.013,29.061,28.691,28.71,6558264
2017-06-28,28.935,29.354,28.856,29.061,10464987
2017-06-29,29.501,29.784,28.588,28.818,10337389
2017-06-30,29.041,29.217,28.74,29.081,4904487
2017-07-03,29.315,29.617,29.208,29.315,2374110
2017-07-05,29.421,29.511,29.003,29.041,4491945
2017-07-06,29.061,29.061,28.564,28.652,4142824
2017-07-07,28.808,29.101,28.672,28.965,3616868
2017-07-10,28.935,28.945,28.364,28.409,5862914
2017-07-11,28.437,28.437,28.086,28.379,7942186
2017-07-12,28.379,28.623,28.174,28.603,4024641
2017-07-13,28.486,28.97,28.486,28.632,4862853
2017-07-14,28.428,28.9,28.339,28.75,4360751
2017-07-17,28.75,29.106,28.496,28.915,4048785
2017-07-18,28.701,28.832,28.447,28.603,4771661
2017-07-19,28.72,28.876,28.515,28.778,5348745
2017-07-20,28.691,29.003,28.467,28.798,5808880
2017-07-21,30.71,31.109,29.374,30.105,11456263
2017-07-24,30.037,30.349,29.774,29.978,6152236
2017-07-25,30.212,30.426,29.95,30.124,6061822
2017-07-26,30.3,30.32,29.774,29.812,6429200
2017-07-27,29.831,29.87,29.379,29.588,6767267
2017-07-28,29.441,29.521,29.101,29.198,8633132
2017-07-31,29.315,29.725,29.315,29.568,13274888
2017-08-01,29.764,29.821,29.091,29.139,8428066
2017-08-02,29.189,29.436,29.041,29.315,6457987
2017-08-03,29.305,29.796,29.197,29.315,7131170
2017-08-04,29.569,29.717,29.207,29.276,7431940
2017-08-07,29.286,29.908,29.178,29.796,5269053
2017-08-08,29.737,30.786,29.737,30.109,8206407
2017-08-09,29.873,29.953,29.531,29.648,5309847
2017-08-10,29.472,29.492,28.354,28.737,10015472
2017-08-11,28.757,28.81,28.384,28.619,6803284
2017-08-14,28.913,29.599,28.815,29.05,6016506
2017-08-15,30.295,30.511,29.776,30.374,13754132
2017-08-16,31.04,31.05,30.207,30.256,7557091
2017-08-17,30.256,30.295,29.452,29.502,7489003
2017-08-18,29.589,29.756,29.286,29.472,5646305
2017-08-21,29.502,29.697,29.354,29.658,4584582
2017-08-22,29.737,29.858,29.404,29.737,6386847
2017-08-23,29.599,29.962,29.531,29.707,4379257
2017-08-24,29.883,30.089,29.697,29.853,3286266
2017-08-25,29.923,30.237,29.834,29.933,2967245
2017-08-28,30.128,30.138,29.569,29.688,3788679
2017-08-29,29.442,29.599,29.197,29.522,5838869
2017-08-30,29.502,30.148,29.452,30.051,5744107
2017-08-31,30.109,30.305,30.011,30.177,5236814
2017-09-01,30.167,30.417,30.089,30.305,3139361
2017-09-05,30.089,30.138,29.158,29.276,6386563
2017-09-06,29.452,29.673,29.334,29.364,5991898
2017-09-07,29.404,29.404,28.379,28.482,5737974
2017-09-08,28.06,28.286,27.765,27.983,8733693
2017-09-11,28.247,28.765,28.08,28.569,6173209
2017-09-12,28.765,28.982,28.531,28.609,5286019
2017-09-13,28.669,28.982,28.619,28.737,7297460
2017-09-14,28.688,28.845,28.1,28.129,7703778
2017-09-15,28.002,28.629,27.893,28.443,11131488
2017-09-18,28.531,28.717,28.374,28.679,5634612
2017-09-19,28.708,28.894,28.472,28.511,6002731
2017-09-20,28.619,28.685,28.325,28.424,6114558
2017-09-21,28.424,28.511,28.134,28.315,5241138
2017-09-22,28.286,28.913,28.276,28.884,6131497
2017-09-25,28.765,29.286,28.727,28.973,6965837
2017-09-26,29.021,29.442,28.923,29.344,3998025
2017-09-27,29.638,30.565,29.579,30.325,11395388
2017-09-28,30.285,30.805,30.266,30.57,7810882
2017-09-29,30.57,30.756,30.305,30.432,4936114
2017-10-02,30.55,30.863,30.305,30.853,4569903
2017-10-03,30.834,31.25,30.796,31.09,6025618
2017-10-04,31.128,31.157,30.638,30.687,4846764
2017-10-05,30.697,31.035,30.54,31.03,4937124
2017-10-06,30.834,30.947,30.57,30.687,4790261
2017-10-09,30.805,30.839,30.638,30.814,2669438
2017-10-10,30.873,31.265,30.873,31.118,4966125
2017-10-11,31.09,31.197,30.746,30.796,3513280
2017-10-12,30.707,30.707,29.873,30.031,6774281
2017-10-13,29.844,30.618,29.776,30.207,8049988
2017-10-16,30.374,30.991,30.295,30.873,10766577
2017-10-17,30.961,30.967,30.237,30.364,4800168
2017-10-18,30.501,30.923,30.374,30.883,7040222
2017-10-19,30.58,31.235,30.247,31.08,7945453
2017-10-20,32.745,33.402,32.192,32.383,15552669
2017-10-23,32.599,32.668,31.981,32.03,6313718
2017-10-24,32.108,32.207,31.629,32.001,4993805
2017-10-25,31.736,31.981,31.365,31.736,9115439
2017-10-26,32.011,32.314,31.951,32.217,5039608
2017-10-27,31.971,32.314,31.786,32.284,4141663
2017-10-30,32.06,32.442,31.863,31.951,4079241
2017-10-31,31.883,32.167,31.786,31.971,4682448
2017-11-01,32.06,32.294,31.897,32.177,2993690
2017-11-02,32.148,32.579,31.819,32.559,6340729
2017-11-03,32.609,32.855,32.392,32.599,4309071
2017-11-06,32.491,32.569,32.264,32.264,4209844
2017-11-07,31.86,32.509,31.86,31.86,4632913
2017-11-08,31.782,31.889,31.299,31.575,4194913
2017-11-09,31.427,31.712,31.063,31.595,4205353
2017-11-10,31.634,31.88,31.55,31.575,2711559
2017-11-13,31.682,32.126,31.615,32.086,5266638
2017-11-14,31.87,32.155,31.762,32.058,3997948
2017-11-15,31.585,32.234,31.359,32.028,6479742
2017-11-16,33.002,33.338,32.677,32.865,11297881
2017-11-17,32.885,33.514,32.825,33.338,8801209
2017-11-20,33.338,33.789,33.298,33.338,8361929
2017-11-21,33.386,33.465,32.795,33.248,6945485
2017-11-22,33.376,33.455,32.982,33.15,4242250
2017-11-24,33.208,33.233,32.905,32.972,2409476
2017-11-27,32.962,32.982,32.411,32.697,6224206
2017-11-28,32.706,34.075,32.564,33.958,8747251
2017-11-29,34.4,35.129,34.346,34.804,11750123
2017-11-30,34.952,35.886,34.887,35.335,12219180
2017-12-01,35.238,35.508,34.125,35.385,7417434
2017-12-04,36.006,37.452,36.006,36.871,14331352
2017-12-05,37.019,37.345,36.615,36.733,8356560
2017-12-06,36.527,37.019,36.468,36.813,5795474
2017-12-07,36.585,37.147,36.517,36.763,8230491
2017-12-08,37.266,37.266,36.59,36.921,7956787
2017-12-11,36.861,37.118,36.714,37.009,6009619
2017-12-12,37.039,37.275,36.783,36.783,7310750
2017-12-13,36.823,36.96,36.035,36.074,8187528
2017-12-14,36.291,36.753,36.272,36.419,5689605
2017-12-15,36.695,37.019,36.31,36.615,9021639
2017-12-18,37.206,38.364,37.147,37.915,8860381
2017-12-19,38.201,38.25,37.571,37.59,6866714
2017-12-20,38.043,38.053,37.335,37.373,3544408
2017-12-21,37.59,38.171,37.482,38.003,4124222
2017-12-22,38.259,38.259,37.679,38.171,4326853
2017-12-26,38.103,38.359,37.955,38.113,3179581
2017-12-27,38.113,38.22,37.817,38.003,2648125
2017-12-28,38.201,38.506,38.141,38.369,3527227
2017-12-29,38.526,38.565,38.003,38.013,3544922
2018-01-02,38.201,38.397,37.925,38.259,3379082
2018-01-03,38.269,38.575,38.132,38.516,4395212
2018-01-04,38.86,39.244,38.762,38.792,3703107
2018-01-05,39.048,39.176,38.644,39.126,4759941
2018-01-08,38.998,39.166,38.634,38.654,5037505
2018-01-09,38.919,39.195,38.692,38.831,6697715
2018-01-10,38.9,39.412,38.772,39.048,7746755
2018-01-11,39.156,39.549,38.673,39.146,6240635
2018-01-12,39.422,39.432,37.079,38.762,8665930
2018-01-16,38.85,38.968,37.196,37.345,13040425
2018-01-17,37.571,37.738,37.207,37.472,10897448
2018-01-18,37.698,37.698,36.182,36.724,13944848
2018-01-19,37.156,38.24,36.282,37.876,11833494
2018-01-22,37.59,38.988,37.571,38.91,15358642
2018-01-23,38.812,39.323,38.456,39.166,8509873
2018-01-24,39.273,39.569,38.85,39.126,7484676
2018-01-25,39.293,39.412,38.86,38.968,7129993
2018-01-26,39.018,39.614,38.88,39.589,5574768
2018-01-29,39.49,39.962,39.481,39.539,5882721
2018-01-30,39.303,39.539,38.998,39.018,5539226
2018-01-31,39.136,39.678,39.048,39.067,7091147
2018-02-01,38.929,39.057,38.426,39.048,5527416
2018-02-02,39.038,39.418,38.054,38.227,6264899
2018-02-05,37.812,38.454,36.151,36.448,10456891
2018-02-06,35.628,37.397,35.035,37.229,9384879
2018-02-07,37.001,37.743,36.863,37.061,8098453
2018-02-08,37.061,37.111,34.561,34.571,9353201
2018-02-09,34.936,35.441,33.211,34.619,11911616
2018-02-12,34.936,36.058,34.827,35.816,7110673
2018-02-13,35.499,35.717,35.104,35.588,4494074
2018-02-14,35.391,36.29,35.119,36.271,7047336
2018-02-15,36.606,36.701,35.884,36.409,5281111
2018-02-16,36.309,36.744,36.181,36.3,4465399
2018-02-20,36.201,36.468,35.934,36.132,4285247
2018-02-21,36.181,36.967,36.073,36.142,4475673
2018-02-22,36.339,36.478,35.816,35.904,7964477
2018-02-23,36.112,36.725,36.004,36.715,3138060
2018-02-26,36.834,36.962,36.359,36.952,5261867
2018-02-27,36.952,37.624,36.369,36.379,6504516
2018-02-28,36.734,37.091,35.954,35.964,4746869
2018-03-01,36.073,36.547,35.302,35.431,7571655
2018-03-02,35.144,35.588,34.294,35.509,5498178
2018-03-05,35.282,35.954,35.011,35.806,6568201
2018-03-06,35.914,36.112,35.198,35.776,4363795
2018-03-07,35.391,35.964,35.292,35.875,4372018
2018-03-08,36.073,36.478,35.677,36.409,4190644
2018-03-09,36.744,36.853,36.161,36.844,5212356
2018-03-12,36.764,37.131,36.379,36.547,4024697
2018-03-13,36.883,36.883,36.171,36.251,5483930
2018-03-14,36.547,36.799,35.574,35.677,4281901
2018-03-15,35.579,35.727,34.086,34.264,12039252
2018-03-16,34.422,35.104,34.284,34.788,13930916
2018-03-19,34.61,35.054,34.476,34.847,7155165
2018-03-20,34.996,35.257,34.886,34.986,4856678
2018-03-21,34.936,35.441,34.886,34.886,4376321
2018-03-22,34.363,34.709,33.286,33.336,5795855
2018-03-23,33.474,33.602,32.089,32.129,7923062
2018-03-26,32.663,33.024,32.228,32.911,8858772
2018-03-27,33.068,33.336,32.021,32.287,5691686
2018-03-28,31.981,33.316,31.981,32.722,8283996
2018-03-29,32.831,33.276,32.476,33.137,6024631
2018-04-02,33.039,33.306,31.843,32.278,6327090
2018-04-03,32.524,33.123,32.456,33.039,5246141
2018-04-04,32.248,33.602,32.248,33.513,5014856
2018-04-05,33.809,34.926,33.741,34.393,8269980
2018-04-06,33.899,34.051,32.999,33.414,4401376
2018-04-09,33.761,34.314,33.414,33.464,3705040
2018-04-10,34.007,34.151,33.671,34.056,4352638
2018-04-11,33.671,34.244,33.582,33.839,4267363
2018-04-12,34.185,34.669,34.136,34.422,4351840
2018-04-13,34.748,34.877,33.523,33.671,5797103
2018-04-16,34.046,34.244,33.721,34.066,4914513
2018-04-17,34.422,34.649,34.066,34.166,5550257
2018-04-18,34.353,34.827,34.284,34.481,3385566
2018-04-19,34.531,35.173,34.531,34.936,5258404
2018-04-20,35.292,35.786,34.452,34.788,10409005
2018-04-23,34.896,35.025,34.146,34.323,5925603
2018-04-24,34.679,34.827,33.706,33.948,7155971
2018-04-25,33.761,33.839,32.777,32.901,10949869
2018-04-26,32.919,33.137,32.732,32.911,6061797
2018-04-27,32.911,33.049,32.619,32.722,4556870
2018-04-30,32.881,33.192,32.772,32.781,4027212
2018-05-01,32.693,32.762,32.337,32.693,4861466
2018-05-02,32.604,33.019,32.446,32.544,6461613
2018-05-03,32.416,32.426,31.467,31.754,5831691
2018-05-04,31.645,32.518,31.516,32.399,4774795
2018-05-07,32.469,32.618,32.25,32.489,5008854
2018-05-08,32.598,33.114,32.548,32.846,6341615
2018-05-09,33.025,33.601,32.876,33.491,4011398
2018-05-10,33.491,33.874,33.362,33.66,3177723
2018-05-11,33.66,34.186,33.66,33.869,3306042
2018-05-14,34.047,34.047,33.64,33.7,2489271
2018-05-15,33.412,34.281,33.412,33.968,3702027
2018-05-16,34.057,34.514,33.839,34.345,3087709
2018-05-17,34.335,34.752,34.226,34.683,3716889
2018-05-18,34.683,35.378,34.653,35.189,7288254
2018-05-21,35.348,35.701,35.269,35.467,5877130
2018-05-22,35.855,36.063,35.447,35.855,4944734
2018-05-23,35.517,35.865,35.173,35.865,5099451
2018-05-24,35.735,35.994,34.832,35.646,5177557
2018-05-25,35.567,35.567,35.169,35.358,4010902
2018-05-29,34.921,35.011,33.943,34.226,6159845
2018-05-30,34.604,34.941,34.42,34.772,4793779
2018-05-31,34.604,34.752,34.167,34.385,5622676
2018-06-01,34.911,35.05,34.544,34.792,2932268
2018-06-04,34.941,35.249,34.872,35.199,1955648
2018-06-05,35.12,35.199,34.643,34.752,4145598
2018-06-06,34.852,35.328,34.743,35.328,4252218
2018-06-07,35.398,35.82,35.03,35.299,4087013
2018-06-08,35.289,35.318,34.941,35.199,4172516
2018-06-11,35.259,35.467,34.901,35.011,3289063
2018-06-12,35.199,35.308,34.842,35.05,2556848
2018-06-13,35.179,35.299,34.673,34.693,3304851
2018-06-14,34.812,35.13,34.658,35.011,3415369
2018-06-15,34.822,35.179,34.455,34.971,5302591
2018-06-18,34.752,34.911,34.574,34.752,4196039
2018-06-19,34.385,34.643,34.211,34.564,3152397
2018-06-20,34.782,34.792,34.236,34.266,3451097
2018-06-21,34.157,34.445,33.611,33.978,4550238
2018-06-22,34.296,34.351,33.829,33.889,8234673
2018-06-25,33.809,33.928,33.263,33.581,4612686
2018-06-26,33.591,33.67,33.134,33.233,4190838
2018-06-27,33.194,33.581,32.767,32.767,3700512
2018-06-28,32.737,32.916,32.32,32.777,4485363
2018-06-29,33.154,33.75,33.084,33.144,5853689
2018-07-02,32.876,33.601,32.876,33.601,4453599
2018-07-03,33.601,33.69,33.213,33.263,2805400
2018-07-05,33.531,33.67,33.293,33.362,5231514
2018-07-06,33.362,33.73,33.203,33.462,5562004
2018-07-09,33.66,34.663,33.64,34.613,3636894
2018-07-10,34.673,34.762,34.509,34.604,3278179
2018-07-11,34.425,34.757,34.395,34.554,3788065
2018-07-12,34.673,34.713,32.379,32.727,15224981
2018-07-13,32.568,32.676,31.883,32.211,9950484
2018-07-16,32.191,32.513,32.181,32.33,5528997
2018-07-17,32.449,32.786,32.35,32.588,4347305
2018-07-18,32.757,33.303,32.568,33.174,5274185
2018-07-19,32.955,33.506,32.727,33.005,5535547
2018-07-20,32.896,33.179,32.558,32.578,6339095
2018-07-23,32.737,33.303,32.717,33.273,4475736
2018-07-24,33.551,33.779,33.233,33.581,4313347
2018-07-25,33.64,33.64,32.846,33.203,5512880
2018-07-26,33.303,33.362,29.232,29.788,24101089
2018-07-27,30.354,30.493,29.123,29.708,15706131
2018-07-30,29.43,29.753,28.706,29.301,18527602
2018-07-31,29.47,29.55,28.437,28.735,11337746
2018-08-01,28.825,29.5,28.696,28.993,13624764
2018-08-02,28.854,29.52,28.785,29.48,9488370
2018-08-03,29.66,29.9155,29.175,29.85,6015248
2018-08-06,29.86,30.18,29.55,29.65,5713290
2018-08-07,29.83,30.18,29.7,30.09,6388668
2018-08-08,30.08,30.31,29.96,30.05,5483039
2018-08-09,30,30.13,29.7332,29.98,4756022
2018-08-10,29.65,29.76,29.375,29.41,5212883
2018-08-13,29.38,29.5499,29.145,29.19,4760442
2018-08-14,29.87,30.03,29.47,30.01,7830955
2018-08-15,29.67,30.17,29.5,29.86,9945916
2018-08-16,29.84,30.53,29.84,30.43,6904031
2018-08-17,30.43,30.53,30.16,30.37,4815683
2018-08-20,30.39,31.225,30.35,31.07,6580792
2018-08-21,31.06,31.47,30.911,31.17,4878859
2018-08-22,31.11,31.82,31.08,31.7,6564091
2018-08-23,31.71,31.87,31.25,31.27,4084672
