Date,Open,High,Low,Close,Volume
2010-11-17,27.481,27.481,27.481,27.481
2010-11-18,29.148,29.971,28.221,28.472,550095632
2010-11-19,28.438,28.729,27.574,28.532,129524938
2010-11-22,28.479,28.712,28.155,28.38,44019023
2010-11-23,28.272,28.306,27.64,27.685,37472375
2010-11-24,28.089,28.148,27.668,27.882,31399120
2010-11-26,27.822,28.155,27.658,28.148,14771658
2010-11-29,28.148,28.155,27.538,28.148,33358462
2010-11-30,27.922,28.523,27.781,28.479,69027573
2010-12-01,28.856,29.104,28.663,28.963,41592680
2010-12-02,29.079,29.13,28.739,28.879,27921654
2010-12-03,28.772,28.813,28.288,28.772,23292545
2010-12-06,28.712,28.963,28.655,28.712,14024857
2010-12-07,28.94,29.055,28.697,28.879,25005668
2010-12-08,28.822,28.922,28.59,28.69,15137651
2010-12-09,28.615,28.673,27.997,28.099,22108495
2010-12-10,28.189,28.306,27.922,28.155,14108005
2010-12-13,28.28,28.357,28.065,28.148,13327146
2010-12-14,28.089,28.249,27.857,28.221,18281353
2010-12-15,28.155,28.323,27.99,27.99,12228772
2010-12-16,27.957,28.197,27.947,27.99,11873069
2010-12-17,27.922,28.314,27.64,28.314,42848103
2010-12-20,28.24,28.357,28.099,28.112,14984120
2010-12-21,28.197,28.264,28.08,28.189,10822970
2010-12-22,28.08,29.104,27.922,29.079,25150067
2010-12-23,28.871,29.58,28.831,28.987,24653992
2010-12-27,28.655,29.055,28.472,28.813,8849559
2010-12-28,29.464,29.707,29.203,29.412,28224251
2010-12-29,29.539,30.229,29.355,29.997,25190765
2010-12-30,30.064,30.796,29.997,30.661,20405367
2010-12-31,30.678,30.779,30.454,30.695,7408590
2011-01-03,31.08,31.646,30.838,30.864,29885594
2011-01-04,30.895,31.637,30.546,31.561,38862737
2011-01-05,31.203,31.894,31.203,31.702,27024243
2011-01-06,31.843,32.878,31.702,32.394,46321621
2011-01-07,32.345,32.752,32.069,32.46,23900563
2011-01-10,32.761,32.777,32.015,32.113,22029157
2011-01-11,32.195,32.835,32.069,32.269,17851291
2011-01-12,32.436,32.786,31.952,32.161,20142500
2011-01-13,32.195,32.237,31.736,31.871,13649497
2011-01-14,31.795,32.035,31.678,31.812,7081452
2011-01-18,31.687,31.921,31.08,31.669,10710210
2011-01-19,31.46,31.588,31.029,31.145,15211635
2011-01-20,30.904,31.054,30.205,30.963,19027837
2011-01-21,31.086,31.519,30.661,31.012,11466318
2011-01-24,31.404,31.529,30.838,31.345,14653476
2011-01-25,31.519,32.05,31.404,31.977,14797342
2011-01-26,32.269,32.403,31.529,31.553,13855369
2011-01-27,31.812,32.436,31.669,32.202,16754160
2011-01-28,31.646,31.662,29.988,30.48,44593933
2011-01-31,30.721,30.854,29.889,30.388,16761363
2011-02-01,30.753,31.005,30.088,30.355,33736655
2011-02-02,30.362,30.445,29.631,29.714,20948037
2011-02-03,29.953,30.027,29.255,30.027,23243007
2011-02-04,30.189,30.586,29.889,30.472,13350463
2011-02-07,30.771,30.886,30.488,30.564,8808198
2011-02-08,30.788,30.854,30.314,30.721,7498486
2011-02-09,30.661,30.738,30.213,30.32,7686246
2011-02-10,30.121,30.512,29.58,29.88,13863460
2011-02-11,29.78,30.454,29.606,30.355,16233078
2011-02-14,30.436,30.445,29.539,30.221,8554797
2011-02-15,30.139,30.32,29.813,30.07,12412527
2011-02-16,30.07,30.678,29.997,30.603,10426060
2011-02-17,30.436,30.564,30.229,30.288,8963269
2011-02-18,30.328,30.613,30.297,30.405,8188152
2011-02-22,29.862,30.104,29.521,29.788,16745286
2011-02-23,29.854,29.929,28.148,28.803,33874507
2011-02-24,29.062,29.148,26.69,27.497,76327834
2011-02-25,28.038,28.479,27.523,27.685,34856422
2011-02-28,27.889,28.099,27.365,27.922,19075530
2011-03-01,28.106,28.106,27.007,27.439,32806055
2011-03-02,27.397,27.622,27.139,27.382,17143006
2011-03-03,27.382,27.622,27.19,27.505,21131677
2011-03-04,27.538,27.548,26.658,26.973,29108729
2011-03-07,26.94,27.063,26.249,26.399,18102476
2011-03-08,26.433,27.332,26.389,27.246,17423232
2011-03-09,27.263,27.281,26.733,26.856,13477322
2011-03-10,26.205,26.464,25.774,26.165,46027019
2011-03-11,26.022,26.69,26.015,26.59,16838694
2011-03-14,26.764,26.899,26.173,26.306,11980305
2011-03-15,25.8,27.056,25.524,26.94,25780855
2011-03-16,26.998,27.091,26.15,26.464,16991697
2011-03-17,26.8,26.973,26.09,26.182,13242737
2011-03-18,26.433,26.607,26.165,26.524,11841706
2011-03-21,26.847,26.899,26.007,26.05,15830880
2011-03-22,26.022,26.105,25.407,25.598,20393153
2011-03-23,25.484,26.05,25.148,25.949,27639223
2011-03-24,26.081,26.314,26.015,26.142,18892580
2011-03-25,26.223,26.399,25.89,26.205,18302892
2011-03-28,26.298,26.298,25.69,25.69,12373645
2011-03-29,25.757,25.957,25.548,25.899,11649727
2011-03-30,25.949,26.35,25.848,26.273,9192079
2011-03-31,26.15,26.273,25.816,25.84,10769309
2011-04-01,26.142,27.172,25.682,26.99,35872229
2011-04-04,27.063,27.246,26.815,26.973,14807897
2011-04-05,26.94,27.373,26.733,27.373,12136457
2011-04-06,27.481,27.713,27.082,27.373,9764130
2011-04-07,27.347,27.347,26.707,26.907,13484652
2011-04-08,26.982,27.272,26.081,26.249,19279313
2011-04-11,26.099,26.191,25.44,25.624,18209497
2011-04-12,25.316,26.099,25.064,25.941,23594918
2011-04-13,26.007,26.081,25.474,25.699,16536929
2011-04-14,25.598,25.699,25.274,25.466,10820170
2011-04-15,25.474,25.582,25.135,25.183,11868245
2011-04-18,25.064,25.266,24.898,24.958,15303418
2011-04-19,24.907,24.907,24.291,24.641,23841852
2011-04-20,24.784,25.298,24.5,24.926,26465441
2011-04-21,25.064,25.816,24.989,25.774,22728481
2011-04-25,25.816,25.974,25.249,25.933,18541854
2011-04-26,26.142,26.241,25.782,26.042,18804401
2011-04-27,26.205,26.474,26.05,26.464,17947707
2011-04-28,26.399,26.725,26.215,26.573,18985570
2011-04-29,26.64,27.131,26.573,26.725,16536625
2011-05-02,26.99,27.063,26.582,26.8,13223712
2011-05-03,26.964,27.648,26.949,27.474,35881202
2011-05-04,27.612,27.873,27.239,27.514,24602302
2011-05-05,26.698,27.216,26.223,26.664,31963719
2011-05-06,27.063,27.148,26.516,26.573,15373836
2011-05-09,26.433,26.698,26.115,26.142,12787112
2011-05-10,26.205,26.35,26.09,26.323,9416624
2011-05-11,26.29,26.531,25.908,26.066,10893778
2011-05-12,25.882,26.314,25.757,26.165,16917580
2011-05-13,26.182,26.267,25.69,25.874,13013491
2011-05-16,26.022,26.232,25.882,25.899,8740832
2011-05-17,25.908,26.132,25.673,25.899,13398328
2011-05-18,25.874,26.332,25.816,26.249,11945023
2011-05-19,26.258,26.474,26.073,26.205,11501899
2011-05-20,26.115,26.232,25.899,25.966,8676158
2011-05-23,25.548,25.949,25.4,25.782,10772058
2011-05-24,25.924,25.981,25.4,25.673,10541469
2011-05-25,25.449,26.132,25.4,26.042,17181242
2011-05-26,25.882,25.899,25.415,25.548,14379804
2011-05-27,25.624,26.215,25.474,26.05,10867253
2011-05-31,26.182,26.54,25.924,26.489,27405676
2011-06-01,26.399,26.399,25.109,25.174,22947975
2011-06-02,25.257,25.449,24.482,24.649,26927688
2011-06-03,24.383,24.617,24.067,24.25,26369172
2011-06-06,24.169,24.491,23.776,23.783,16105446
2011-06-07,24.058,24.185,23.641,23.967,18342391
2011-06-08,23.752,24.433,23.651,24.031,19850719
2011-06-09,24.216,24.632,24.076,24.525,16297294
2011-06-10,24.401,24.401,23.859,24.024,14087776
2011-06-13,23.992,24.216,23.557,23.809,11757442
2011-06-14,24.076,24.557,24.031,24.241,13147104
2011-06-15,23.958,24.241,23.85,24.11,13998903
2011-06-16,23.9,24.14,23.449,23.809,16891271
2011-06-17,23.925,24.199,23.79,24.149,20092485
2011-06-20,24.04,24.641,23.958,24.583,10657919
2011-06-21,24.574,24.982,24.509,24.641,15124124
2011-06-22,24.666,25.135,24.566,24.958,18624908
2011-06-23,24.592,25.148,24.416,25.099,16547639
2011-06-24,25.064,25.233,24.7,24.917,59866827
2011-06-27,24.806,25.366,24.649,25.199,18430389
2011-06-28,25.257,25.641,25.135,25.4,15229670
2011-06-29,25.641,25.641,25.191,25.233,15135111
2011-06-30,25.217,25.449,25.165,25.282,22203057
2011-07-01,25.274,25.699,24.917,25.466,21557191
2011-07-05,25.709,26.115,25.466,25.699,10514569
2011-07-06,26.123,26.38,25.89,25.974,17050921
2011-07-07,26.474,26.715,26.358,26.483,15959803
2011-07-08,26.022,26.399,25.949,26.298,11798644
2011-07-11,25.84,25.981,25.44,25.608,9941505
2011-07-12,25.183,25.764,24.999,25.548,12619725
2011-07-13,25.709,26.066,25.491,25.608,9716242
2011-07-14,25.69,25.79,25.007,25.064,12863406
2011-07-15,25.308,25.499,24.583,24.784,12475828
2011-07-18,24.626,24.694,23.833,24.233,16591282
2011-07-19,24.318,24.557,23.95,24.426,12271614
2011-07-20,24.525,24.55,24.193,24.351,8342270
2011-07-21,24.474,24.999,24.283,24.951,14638068
2011-07-22,24.958,25.225,24.884,25.064,9284749
2011-07-25,24.592,24.85,24.474,24.566,10191171
2011-07-26,24.708,24.732,24.116,24.224,11060232
2011-07-27,24.067,24.149,23.34,23.434,17406268
2011-07-28,23.525,24.067,23.334,23.403,13238288
2011-07-29,23.001,23.403,22.743,23.05,14482309
2011-08-01,24.049,24.049,23.067,23.376,15309139
2011-08-02,23.108,23.394,22.5,22.525,21803380
2011-08-03,22.509,22.626,21.76,22.626,18967491
2011-08-04,22.617,22.652,21.412,21.642,46431146
2011-08-05,21.711,22.035,20.394,21.91,41823346
2011-08-08,20.492,21.111,19.811,20.46,39084208
2011-08-09,20.894,21.285,19.985,21.268,31849739
2011-08-10,20.537,20.818,19.845,19.919,24766259
2011-08-11,20.077,21.794,20.077,21.495,30190649
2011-08-12,21.902,22.07,21.228,21.442,22402646
2011-08-15,21.66,22.099,21.478,22.002,15561275
2011-08-16,21.835,22.225,21.393,21.51,12131939
2011-08-17,21.686,21.726,20.735,20.77,14473236
2011-08-18,19.977,20.054,19.378,19.654,18984367
2011-08-19,19.361,19.52,18.08,18.456,41287619
2011-08-22,18.77,18.921,17.637,18.08,32371193
2011-08-23,18.136,18.372,17.663,18.372,23907825
2011-08-24,18.229,18.645,17.961,18.629,17270217
2011-08-25,18.729,18.937,18.404,18.57,13121523
2011-08-26,18.488,19.219,18.156,19.043,12216122
2011-08-29,19.404,19.955,19.378,19.811,12672344
2011-08-30,19.539,19.769,19.195,19.637,9777464
2011-08-31,19.878,20.394,19.845,20.01,14795930
2011-09-01,20.059,20.196,19.078,19.18,20284804
2011-09-02,18.662,18.779,18.098,18.379,16910900
2011-09-06,17.862,17.97,17.388,17.853,17149271
2011-09-07,18.172,19.187,18.172,19.04,16083514
2011-09-08,18.978,19.26,18.52,18.721,14101723
2011-09-09,18.62,18.696,17.88,18.121,14299510
2011-09-12,17.614,18.279,17.488,18.211,11187249
2011-09-13,18.211,18.596,17.905,18.319,13342771
2011-09-14,18.537,18.729,18.005,18.47,13911909
2011-09-15,18.811,18.978,18.446,18.901,9606904
2011-09-16,18.888,18.962,18.605,18.828,9473767
2011-09-19,18.388,19.294,18.364,19.195,16829562
2011-09-20,19.195,19.237,18.671,18.678,11381730
2011-09-21,18.654,18.901,17.671,17.723,11750361
2011-09-22,17.147,17.479,16.688,16.856,20730359
2011-09-23,16.463,17.723,16.463,17.488,16477628
2011-09-26,17.753,17.853,17.097,17.553,10111026
2011-09-27,17.987,18.179,17.553,17.644,13414307
2011-09-28,17.653,17.853,16.963,16.997,12122711
2011-09-29,17.254,17.462,16.749,17.289,12939124
2011-09-30,17.019,17.073,16.739,16.804,12139973
2011-10-03,16.773,17.405,16.363,16.43,16671343
2011-10-04,16.198,17.872,15.864,17.838,28409289
2011-10-05,17.763,18.563,17.289,18.546,20543323
2011-10-06,18.588,18.821,18.113,18.611,16195098
2011-10-07,18.804,19.095,18.172,18.329,17360089
2011-10-10,18.746,19.12,18.62,18.838,13559315
2011-10-11,18.678,18.896,18.554,18.738,12315149
2011-10-12,19.105,19.961,19.04,19.495,20714146
2011-10-13,19.471,19.471,18.738,19.279,11807115
2011-10-14,19.72,20.12,19.452,20.12,17664225
2011-10-17,20.128,20.144,19.279,19.304,10331049
2011-10-18,19.312,19.878,18.962,19.603,16903392
2011-10-19,19.571,19.612,19.12,19.229,9116339
2011-10-20,19.17,19.304,18.746,19.12,11393553
2011-10-21,19.539,20.302,19.322,20.277,14796855
2011-10-24,20.235,21.019,20.196,20.803,16206635
2011-10-25,20.803,20.979,20.12,20.703,13651957
2011-10-26,20.835,21.053,20.562,20.809,20949630
2011-10-27,21.541,22.043,20.986,21.919,22092307
2011-10-28,21.835,22.109,21.652,22.025,12822054
2011-10-31,21.786,21.786,21.329,21.527,10631541
2011-11-01,20.669,20.735,19.361,19.428,30459652
2011-11-02,19.737,19.763,19.087,19.322,17238774
2011-11-03,19.878,20.077,18.954,20.01,23960298
2011-11-04,19.895,19.919,19.412,19.662,11350094
2011-11-07,19.928,20.113,19.586,19.995,11743063
2011-11-08,20.144,20.961,19.971,20.853,23855961
2011-11-09,19.212,19.629,18.446,18.579,39482590
2011-11-10,18.687,19.03,18.264,18.901,18999528
2011-11-11,19.113,19.237,18.503,18.746,18538686
2011-11-14,18.787,19.396,18.746,19.146,16108391
2011-11-15,18.994,19.593,18.821,19.445,16650835
2011-11-16,19.361,19.445,18.838,18.861,11070620
2011-11-17,18.921,18.945,17.953,18.146,15118566
2011-11-18,18.329,18.47,18.005,18.053,7905437
2011-11-21,17.571,17.637,17.104,17.529,14112226
2011-11-22,17.421,17.591,17.238,17.261,8721082
2011-11-23,17.055,17.23,16.704,16.856,11407845
2011-11-25,16.839,17.247,16.83,16.938,3311390
2011-11-28,17.446,17.845,17.197,17.27,10706971
2011-11-29,17.261,17.363,16.904,16.912,9195029
2011-11-30,17.506,17.744,17.438,17.729,13349075
2011-12-01,17.689,18.128,17.429,17.453,14428302
2011-12-02,17.763,18.098,17.595,17.723,11719350
2011-12-05,17.922,18.312,17.845,17.98,11722078
2011-12-06,17.987,18.219,17.723,18.053,12783296
2011-12-07,18.005,18.412,17.887,18.273,10865223
2011-12-08,18.045,18.121,17.363,17.471,13809497
2011-12-09,17.545,17.821,17.537,17.614,7707174
2011-12-12,17.205,17.405,17.121,17.321,7496967
2011-12-13,17.453,17.488,16.612,16.749,15139099
2011-12-14,16.612,16.664,16.172,16.215,18069788
2011-12-15,16.455,16.83,16.246,16.739,12141033
2011-12-16,16.789,17.089,16.63,16.781,10912533
2011-12-19,16.755,16.847,15.823,15.864,18706879
2011-12-20,16.172,16.572,16.114,16.397,16716872
2011-12-21,16.439,17.014,16.306,16.921,15647605
2011-12-22,16.865,17.363,16.796,17.238,8692144
2011-12-23,17.33,17.397,17.029,17.073,7743097
2011-12-27,17.014,17.014,16.721,16.729,7017102
2011-12-28,16.721,16.764,16.455,16.539,8533208
2011-12-29,16.53,16.865,16.415,16.83,8177300
2011-12-30,16.739,16.963,16.697,16.881,8372828
2012-01-03,17.321,17.637,17.279,17.529,11193148
2012-01-04,17.529,17.797,17.279,17.614,9434472
2012-01-05,17.571,18.563,17.453,18.464,21471417
2012-01-06,18.546,19.18,18.52,19.087,21896474
2012-01-09,19.336,19.511,18.901,19.022,14519925
2012-01-10,19.336,19.486,18.969,19.352,16257089
2012-01-11,19.511,20.518,19.436,20.376,26354480
2012-01-12,20.277,20.669,19.786,20.546,20115484
2012-01-13,20.211,20.527,19.911,20.227,15566746
2012-01-17,20.546,20.554,20.128,20.152,11270693
2012-01-18,20.211,20.469,20.003,20.412,10710343
2012-01-19,20.527,20.803,20.361,20.669,18283138
2012-01-20,20.761,20.911,20.686,20.818,11884102
2012-01-23,20.935,21.027,20.645,20.753,10715527
2012-01-24,20.629,20.761,20.402,20.645,10026863
2012-01-25,20.728,20.828,20.302,20.753,16140869
2012-01-26,20.935,21.236,20.487,20.585,13911825
2012-01-27,19.82,20.437,19.428,20.294,17753667
2012-01-30,20.037,20.46,19.945,20.177,7589722
2012-01-31,20.478,20.478,19.945,20.003,11037090
2012-02-01,20.262,20.469,20.047,20.294,16015901
2012-02-02,20.527,20.562,20.235,20.244,8010487
2012-02-03,20.818,22.017,20.645,21.801,30645127
2012-02-06,22.043,22.344,21.61,22.233,20732449
2012-02-07,22.17,22.17,21.778,21.835,12926078
2012-02-08,21.91,22.002,21.302,21.442,21039866
2012-02-09,21.618,21.835,21.236,21.435,8934052
2012-02-10,21.219,21.251,21.027,21.236,11790864
2012-02-13,21.652,21.652,20.993,21.101,12612985
2012-02-14,21.019,21.195,20.818,21.151,11872091
2012-02-15,21.403,21.442,20.735,20.761,15999331
2012-02-16,21.062,22.702,21.043,22.626,42415937
2012-02-17,22.584,23.05,22.492,22.766,21139419
2012-02-21,22.709,22.943,22.475,22.535,10318906
2012-02-22,22.567,22.594,22.092,22.109,12841137
2012-02-23,22.225,22.702,21.868,22.307,12369572
2012-02-24,22.398,22.444,21.702,21.711,11293413
2012-02-27,21.702,22.109,21.294,22.035,10328322
2012-02-28,22.061,22.092,21.734,21.768,9062581
2012-02-29,21.726,22.109,21.586,21.669,14454669
2012-03-01,21.81,22.315,21.778,22.043,10682555
2012-03-02,22.099,22.279,21.952,22.025,10162661
2012-03-05,21.877,21.986,21.487,21.652,9186868
2012-03-06,21.076,21.101,20.302,20.469,22901438
2012-03-07,20.661,20.993,20.611,20.719,5792163
2012-03-08,21.159,21.311,20.904,21.195,10383068
2012-03-09,21.403,21.503,21.144,21.335,7593501
2012-03-12,21.329,21.412,20.944,21.144,4810986
2012-03-13,21.219,21.734,21.093,21.711,10040351
2012-03-14,21.76,22.144,21.652,21.919,10906529
2012-03-15,21.96,22.135,21.55,21.694,12168793
2012-03-16,21.652,21.711,21.035,21.294,14112905
2012-03-19,21.236,21.403,21.019,21.144,6560586
2012-03-20,20.904,21.169,20.487,20.894,12992185
2012-03-21,20.97,21.228,20.904,21.062,7352382
2012-03-22,20.818,21.035,20.71,20.86,6731519
2012-03-23,20.853,21.085,20.629,20.961,6968068
2012-03-26,21.069,21.343,20.935,21.302,9555740
2012-03-27,21.169,21.527,21.101,21.111,7964420
2012-03-28,21.159,21.219,20.835,20.944,6198630
2012-03-29,20.835,21.128,20.77,21.076,7725164
2012-03-30,21.228,21.468,20.911,21.36,7248650
2012-04-02,21.677,22.407,21.634,22.286,17370278
2012-04-03,22.192,22.509,21.043,21.268,31716392
2012-04-04,20.904,21.151,20.735,20.904,11751204
2012-04-05,20.809,20.97,20.492,20.703,6883312
2012-04-09,20.169,20.32,20.01,20.152,9522625
2012-04-10,20.077,20.104,19.396,19.746,14237219
2012-04-11,19.853,20.221,19.836,20.01,11122207
2012-04-12,20.028,20.394,19.985,20.235,6054584
2012-04-13,20.169,20.227,19.669,19.82,8779005
2012-04-16,19.802,19.928,19.445,19.504,9040362
2012-04-17,19.645,20.437,19.612,20.019,12319153
2012-04-18,19.878,20.227,19.776,20.113,7509209
2012-04-19,20.059,20.71,19.878,19.995,13457999
2012-04-20,20.037,20.037,19.586,19.654,15548339
2012-04-23,19.294,19.404,19.069,19.113,19439465
2012-04-24,19.17,19.486,19.053,19.062,10425659
2012-04-25,19.279,19.452,19.062,19.412,6663474
2012-04-26,19.286,19.776,19.286,19.754,9766250
2012-04-27,19.829,20.059,19.436,19.593,11822749
2012-04-30,19.471,19.561,18.986,19.152,9941932
2012-05-01,19.187,19.552,18.821,19.412,12191699
2012-05-02,19.312,19.361,18.846,19.095,17386339
2012-05-03,19.26,19.312,18.478,18.629,27399093
2012-05-04,18.488,18.662,18.172,18.62,17797201
2012-05-07,18.211,18.738,18.195,18.662,9430638
2012-05-08,18.53,18.611,18.211,18.51,11186259
2012-05-09,18.219,18.986,18.195,18.687,11784226
2012-05-10,18.896,19.062,18.596,18.629,8682973
2012-05-11,18.319,18.77,18.304,18.319,9661393
2012-05-14,18.113,18.295,17.987,18.015,11589509
2012-05-15,17.961,18.179,17.77,17.838,8867009
2012-05-16,18.364,18.838,18.195,18.246,16379396
2012-05-17,18.295,18.546,17.946,17.996,11159059
2012-05-18,17.937,18.062,17.561,17.637,9045950
2012-05-21,17.77,18.053,17.705,17.937,7560277
2012-05-22,18.08,18.238,17.77,17.905,8431927
2012-05-23,17.763,18.488,17.753,18.428,10014165
2012-05-24,18.304,18.428,18.172,18.355,5112976
2012-05-25,18.355,18.703,18.319,18.687,6799031
2012-05-29,18.838,19.095,18.811,19.03,11757198
2012-05-30,18.738,18.738,18.304,18.629,8849419
2012-05-31,18.537,18.662,18.319,18.488,7216060
2012-06-01,18.028,19.436,17.862,18.329,35568910
2012-06-04,18.329,18.355,17.205,17.581,18523050
2012-06-05,17.471,17.88,17.462,17.697,6779719
2012-06-06,17.845,18.273,17.77,18.179,8346539
2012-06-07,18.412,18.637,18.121,18.195,7075643
2012-06-08,18.195,18.394,17.905,18.364,5113721
2012-06-11,18.554,18.57,18.238,18.255,7265955
2012-06-12,18.255,18.488,18.053,18.464,7325203
2012-06-13,18.355,18.464,18.105,18.211,10312708
2012-06-14,18.187,18.312,17.97,18.156,5444828
2012-06-15,18.121,18.164,17.838,18.105,6861864
2012-06-18,17.937,18.088,17.806,17.845,7678012
2012-06-19,17.845,18.319,17.821,18.105,9328658
2012-06-20,18.136,18.172,17.723,17.887,10314187
2012-06-21,17.862,17.905,17.156,17.188,11039704
2012-06-22,17.446,17.446,17.037,17.156,8390076
2012-06-25,16.921,16.982,16.579,16.579,10646070
2012-06-26,16.606,16.688,16.338,16.53,10714914
2012-06-27,16.513,16.639,16.338,16.371,7869305
2012-06-28,16.356,16.588,16.231,16.507,13477442
2012-06-29,16.656,16.656,16.022,16.423,16154585
2012-07-02,16.406,16.439,16.073,16.297,7577877
2012-07-03,16.489,17.591,16.38,17.213,12871362
2012-07-05,17.279,17.663,17.104,17.104,9697291
2012-07-06,16.945,17.156,16.697,16.912,7820963
2012-07-09,16.83,16.989,16.697,16.839,6628937
2012-07-10,16.865,17.055,16.43,16.489,11775427
2012-07-11,16.447,16.664,16.324,16.572,8012966
2012-07-12,16.331,16.463,16.013,16.097,16951779
2012-07-13,16.097,16.415,16.047,16.338,8975798
2012-07-16,16.215,16.281,16.013,16.139,10887170
2012-07-17,16.281,16.324,16.073,16.324,9547901
2012-07-18,16.338,16.83,16.297,16.713,10531689
2012-07-19,16.755,16.938,16.713,16.773,8232106
2012-07-20,16.673,16.789,16.097,16.123,10565157
2012-07-23,15.898,16.123,15.697,16.073,10524720
2012-07-24,16.03,16.139,15.697,15.839,9849853
2012-07-25,15.906,15.931,15.589,15.656,8139497
2012-07-26,15.839,15.946,15.613,15.914,6691920
2012-07-27,15.938,16.397,15.881,16.38,8170851
2012-07-30,16.281,16.363,16.073,16.123,5066497
2012-07-31,16.206,16.463,16.131,16.415,6734485
2012-08-01,16.47,17.137,16.179,16.371,17810508
2012-08-02,16.316,16.704,15.765,15.938,13066181
2012-08-03,16.039,16.739,16.03,16.688,11281641
2012-08-06,16.697,16.739,16.455,16.53,7452069
2012-08-07,16.588,17.089,16.588,17.006,11501078
2012-08-08,16.773,17.029,16.697,16.972,5646917
2012-08-09,16.963,17.337,16.83,17.197,7989750
2012-08-10,17.089,17.238,16.912,17.104,4686966
2012-08-13,17.089,17.321,16.954,17.045,4835690
2012-08-14,17.179,17.313,16.739,16.83,9223469
2012-08-15,16.83,16.954,16.639,16.773,7803636
2012-08-16,16.755,17.872,16.755,17.763,17302845
2012-08-17,17.78,18.437,17.77,18.329,21557453
2012-08-20,18.113,18.337,18.036,18.211,7944359
2012-08-21,18.279,18.379,17.922,18.015,7825830
2012-08-22,17.97,18.113,17.605,18.098,8622501
2012-08-23,17.996,17.996,17.68,17.77,10759967
2012-08-24,17.663,17.788,17.545,17.637,6536374
2012-08-27,17.653,17.797,17.488,17.671,7464733
2012-08-28,17.488,17.697,17.415,17.438,6946296
2012-08-29,17.405,18.023,17.371,17.736,11557927
2012-08-30,17.697,17.705,17.506,17.581,4662563
2012-08-31,17.736,17.887,17.581,17.78,6996165
2012-09-04,17.697,17.905,17.506,17.744,9012560
2012-09-05,17.671,18.121,17.506,18.121,9526125
2012-09-06,18.146,18.93,18.113,18.696,14994243
2012-09-07,18.779,19.504,18.77,19.462,15500675
2012-09-10,19.386,19.504,19.105,19.137,9794863
2012-09-11,19.137,19.361,19.053,19.128,6535539
2012-09-12,19.27,19.428,19.195,19.26,6245490
2012-09-13,19.195,19.72,19.003,19.593,11383758
2012-09-14,19.729,20.262,19.678,20.104,14268238
2012-09-17,19.919,19.945,19.763,19.82,7325039
2012-09-18,20.227,20.361,20.003,20.344,13580081
2012-09-19,20.286,20.944,20.253,20.611,19253506
2012-09-20,20.27,20.437,19.911,20.337,8903995
2012-09-21,20.437,20.728,20.402,20.653,14672596
2012-09-24,20.412,20.554,20.086,20.286,6831848
2012-09-25,20.344,20.402,19.386,19.586,12400962
2012-09-26,19.361,19.763,19.03,19.477,10002222
2012-09-27,19.711,19.737,19.27,19.304,8217707
2012-09-28,19.152,19.237,18.911,18.945,10344743
2012-10-01,19.152,19.495,19.03,19.229,9104691
2012-10-02,19.571,20.067,18.88,19.72,25701763
2012-10-03,19.746,20.492,19.703,20.311,17699312
2012-10-04,20.444,20.546,20.253,20.527,10439566
2012-10-05,20.719,21.177,20.46,20.653,17112930
2012-10-08,20.645,20.661,20.412,20.46,7504550
2012-10-09,20.601,20.703,20.211,20.294,8657841
2012-10-10,20.329,20.469,20.067,20.177,7264093
2012-10-11,20.329,20.809,20.177,20.537,10533176
2012-10-12,20.453,20.676,20.262,20.352,5079740
2012-10-15,20.412,20.469,20.262,20.385,6141295
2012-10-16,20.42,20.694,20.329,20.645,5105962
2012-10-17,20.735,20.926,20.487,20.869,7208093
2012-10-18,20.894,21.419,20.785,21.285,11723480
2012-10-19,21.177,21.236,20.444,20.478,12553727
2012-10-22,20.453,20.694,20.211,20.502,8487125
2012-10-23,20.047,20.067,19.763,19.878,9842115
2012-10-24,20.113,20.211,19.703,19.729,7482083
2012-10-25,19.971,20.211,19.637,19.678,14261113
2012-10-26,19.662,19.902,19.312,19.386,12185371
2012-10-31,20.235,21.419,19.902,21.236,29669648
2012-11-01,21.26,21.527,20.745,21.385,17486529
2012-11-02,21.495,21.642,21.278,21.478,11913089
2012-11-05,21.185,21.642,21.111,21.294,9223544
2012-11-06,21.311,21.877,21.195,21.81,13075192
2012-11-07,21.352,21.376,20.753,20.845,13336724
2012-11-08,21.002,21.236,20.568,20.585,6293255
2012-11-09,20.302,21.053,20.302,20.853,9185076
2012-11-12,20.86,21.138,20.86,21.035,6360727
2012-11-13,20.761,20.97,20.611,20.669,11645465
2012-11-14,20.761,20.809,20.067,20.128,11513507
2012-11-15,20.136,20.144,19.603,19.886,11253716
2012-11-16,19.919,19.971,19.477,19.862,11585450
2012-11-19,20.211,20.77,20.094,20.761,9602744
2012-11-20,20.735,20.77,20.302,20.487,7899790
2012-11-21,20.46,20.795,20.344,20.487,5893813
2012-11-23,20.785,21.169,20.703,20.993,5518833
2012-11-26,20.961,21.159,20.776,21.01,7747424
2012-11-27,20.935,21.111,20.818,20.828,6991394
2012-11-28,20.562,21.069,20.518,21.053,6380317
2012-11-29,21.329,21.851,21.242,21.726,12023626
2012-11-30,21.56,21.794,21.302,21.55,7851675
2012-12-03,21.702,21.943,21.202,21.242,13607014
2012-12-04,21.069,21.236,20.42,21.159,15171012
2012-12-05,21.128,21.319,20.77,20.818,9193118
2012-12-06,20.745,20.818,20.369,20.46,11658594
2012-12-07,20.619,20.993,20.46,20.979,10879729
2012-12-10,20.869,21.159,20.853,21.053,7123065
2012-12-11,21.076,21.236,20.911,21.195,6807300
2012-12-12,21.268,21.711,21.185,21.343,10081497
2012-12-13,21.285,21.51,20.735,20.918,9291647
2012-12-14,20.886,20.911,20.32,20.492,11601550
2012-12-17,20.568,20.735,20.527,20.694,8562609
2012-12-18,20.803,21.268,20.653,21.228,11519099
2012-12-19,22.853,23.243,22.371,22.635,65894678
2012-12-20,22.483,22.885,22.379,22.766,18935142
2012-12-21,22.271,22.802,22.099,22.752,10536866
2012-12-24,22.743,23.101,22.743,23.033,5857950
2012-12-26,23.01,23.275,22.893,23.001,8413120
2012-12-27,23.101,23.311,22.844,23.284,11324337
2012-12-28,23.033,23.266,22.943,23.193,6164407
2012-12-31,23.067,24.067,23.001,24.01,15903827
2013-01-02,24.491,24.566,23.843,24.259,18741333
2013-01-03,24.193,25.174,24.018,24.833,27504757
2013-01-04,24.766,24.865,24.341,24.865,9687118
2013-01-07,24.684,24.865,24.401,24.7,10069627
2013-01-08,24.7,24.859,24.193,24.459,12530873
2013-01-09,24.632,25.217,24.617,24.958,16020661
2013-01-10,25.217,25.357,24.801,25.349,14549356
2013-01-11,25.298,25.484,25.074,25.282,8250074
2013-01-14,25.225,25.308,24.891,25.257,7967038
2013-01-15,25.074,25.548,24.941,25.484,9003568
2013-01-16,24.626,24.757,24.01,24.409,33984130
2013-01-17,24.55,24.694,24.308,24.557,14488444
2013-01-18,24.517,24.592,24.049,24.383,12002080
2013-01-22,24.308,24.374,23.633,23.843,22261991
2013-01-23,23.799,24.018,22.17,23.79,13636682
2013-01-24,23.809,24.131,23.61,23.967,10085598
2013-01-25,24.116,24.283,24.04,24.208,12318548
2013-01-28,24.193,24.275,23.826,24.01,8451994
2013-01-29,23.984,24.002,23.449,23.691,15684903
2013-01-30,23.551,23.859,23.126,23.266,13486331
2013-01-31,23.15,23.434,22.992,23.394,10431462
2013-02-01,23.641,23.733,23.385,23.458,12865318
2013-02-04,23.228,23.484,23.218,23.284,7818895
2013-02-05,23.34,23.817,23.34,23.809,13326127
2013-02-06,23.61,23.817,23.501,23.752,8418274
2013-02-07,23.883,24.076,23.34,23.708,12600784
2013-02-08,23.768,23.925,23.733,23.79,7585192
2013-02-11,23.742,23.859,23.61,23.76,6712414
2013-02-12,23.676,23.941,23.517,23.776,8616579
2013-02-13,23.958,24.04,23.682,23.875,11148478
2013-02-14,23.933,24.451,23.043,23.108,23087958
2013-02-15,22.977,23.247,22.666,23.118,15444115
2013-02-19,23.058,23.15,22.866,23.05,8515114
2013-02-20,23.159,23.159,22.525,22.567,8702279
2013-02-21,22.5,22.517,21.926,22.077,16684552
2013-02-22,21.986,22.584,21.91,22.575,11152620
2013-02-25,22.575,22.626,21.926,21.926,13357343
2013-02-26,22.192,22.363,21.81,22.344,16048359
2013-02-27,22.315,22.967,22.253,22.817,15750500
2013-02-28,22.902,22.958,22.391,22.608,12381203
2013-03-01,22.344,22.893,22.279,22.66,10829930
2013-03-04,22.6,22.727,22.475,22.561,7909750
2013-03-05,22.666,23.143,22.644,22.967,11047793
2013-03-06,23.118,23.284,23.001,23.243,10810885
2013-03-07,23.201,23.434,23.143,23.218,11323214
2013-03-08,23.243,23.476,23.228,23.32,7097474
2013-03-11,23.275,23.641,22.943,23.576,22962260
2013-03-12,23.534,23.85,23.394,23.625,12837657
2013-03-13,23.633,23.633,23.357,23.376,12353258
2013-03-14,23.357,23.509,23.348,23.449,7734660
2013-03-15,23.284,23.534,23.15,23.493,14548465
2013-03-18,23.275,23.441,23.093,23.348,16522751
2013-03-19,23.403,23.484,23.236,23.403,15309883
2013-03-20,23.525,24.401,23.476,24.318,30602924
2013-03-21,24.076,24.291,23.79,23.843,16153458
2013-03-22,23.826,23.908,23.284,23.501,15218356
2013-03-25,23.641,23.716,23.334,23.449,8009793
2013-03-26,23.567,23.61,23.311,23.441,8257379
2013-03-27,23.357,23.541,23.284,23.366,6537693
2013-03-28,23.334,23.394,23.018,23.166,11204834
2013-04-01,23.027,23.394,23.027,23.15,10609052
2013-04-02,23.284,23.567,22.926,23.256,19439238
2013-04-03,23.32,23.403,23.033,23.15,13448865
2013-04-04,23.108,23.32,22.908,23.101,10293751
2013-04-05,22.825,22.951,22.575,22.918,14161008
2013-04-08,22.902,23.018,22.817,22.977,13896959
2013-04-09,23.126,23.135,22.902,22.926,11626221
2013-04-10,23.058,23.742,23.05,23.625,15524698
2013-04-11,23.725,24.784,23.682,24.75,26784836
2013-04-12,24.632,24.85,24.61,24.666,18756042
2013-04-15,24.491,24.723,24.018,24.076,16907755
2013-04-16,24.291,24.583,24.291,24.542,9615913
2013-04-17,24.177,24.426,23.958,24.374,12813378
2013-04-18,24.358,24.465,23.941,24.131,13354855
2013-04-19,24.233,24.367,24.076,24.275,8626316
2013-04-22,24.318,24.433,24.024,24.358,8125909
2013-04-23,24.433,24.917,24.383,24.859,10152304
2013-04-24,24.875,25.649,24.865,25.357,25826651
2013-04-25,25.036,25.634,24.982,25.574,17421611
2013-04-26,25.641,25.649,25.007,25.4,16497832
2013-04-29,25.499,25.731,25.325,25.641,7442327
2013-04-30,25.624,25.79,25.458,25.682,9748780
2013-05-01,25.624,25.882,25.074,25.135,12482645
2013-05-02,26.066,26.499,25.856,25.949,22965476
2013-05-03,26.433,27.015,26.341,26.733,15007733
2013-05-06,26.664,26.841,26.464,26.499,10210195
2013-05-07,26.582,26.755,26.197,26.358,13725138
2013-05-08,26.158,26.806,25.89,26.715,11998077
2013-05-09,26.658,26.781,26.332,26.358,13042925
2013-05-10,26.273,26.399,25.79,26.165,15384193
2013-05-13,25.949,26.105,25.699,25.816,9724382
2013-05-14,25.833,26.399,25.824,26.273,12828298
2013-05-15,26.273,26.982,26.241,26.907,18115607
2013-05-16,26.725,27.209,26.649,26.973,12518930
2013-05-17,27.474,28.12,27.323,27.83,25101773
2013-05-20,27.787,28.323,27.781,28.065,18327800
2013-05-21,27.973,28.28,27.382,27.815,16561509
2013-05-22,27.668,28.255,27.474,27.675,15897003
2013-05-23,26.922,27.574,26.733,27.355,12653403
2013-05-24,27.106,27.481,27.072,27.373,7038284
2013-05-28,28.314,28.562,28.106,28.28,20377397
2013-05-29,28.074,28.562,27.857,28.357,13052115
2013-05-30,28.347,29.071,28.205,28.849,18114763
2013-05-31,28.756,28.963,28.221,28.221,12175537
2013-06-03,28.79,28.888,27.795,28.663,21358831
2013-06-04,29.48,29.554,28.94,29.114,36646247
2013-06-05,29.148,29.203,28.314,28.331,26832682
2013-06-06,28.414,28.756,28.13,28.682,95891164
2013-06-07,28.971,29.231,28.314,29.171,36846476
2013-06-10,29.296,29.346,28.748,28.931,18279709
2013-06-11,28.621,28.72,27.973,28.255,20442758
2013-06-12,28.545,28.697,27.681,27.857,16381663
2013-06-13,27.781,28.739,27.565,28.729,18746114
2013-06-14,28.697,28.831,28.389,28.554,12119295
2013-06-17,28.729,28.78,27.982,28.089,12242309
2013-06-18,28.148,28.365,27.848,28.323,11920264
2013-06-19,28.331,28.523,28.021,28.029,10121924
2013-06-20,27.822,27.822,26.881,27.114,34958998
2013-06-21,27.448,27.455,26.433,26.824,22816543
2013-06-24,26.449,26.516,25.924,26.165,22783125
2013-06-25,26.44,26.664,26.267,26.499,11130411
2013-06-26,26.8,27.232,26.672,27.106,12459280
2013-06-27,27.414,27.898,27.299,27.565,13214101
2013-06-28,27.497,28.08,27.314,27.74,18993793
2013-07-01,27.914,28.472,27.822,28.314,12381474
2013-07-02,28.347,29.096,28.165,28.397,18219014
2013-07-03,28.264,28.646,28.112,28.43,6863489
2013-07-05,28.606,29.004,28.514,28.871,8535178
2013-07-08,28.963,29.164,28.764,28.849,13491527
2013-07-09,29.062,29.355,28.912,29.079,8697926
2013-07-10,29.062,29.43,29.013,29.42,14234698
2013-07-11,29.744,30.146,29.679,30.098,15907241
2013-07-12,30.055,30.462,29.906,30.314,12902066
2013-07-15,30.48,30.579,30.213,30.397,10769351
2013-07-16,30.705,30.761,29.78,30.129,19543362
2013-07-17,30.17,30.445,30.045,30.28,13141025
2013-07-18,30.397,30.802,30.254,30.678,12824642
2013-07-19,30.721,30.721,30.027,30.488,13951271
2013-07-22,30.495,30.802,30.38,30.613,13521743
2013-07-23,30.721,30.771,30.412,30.488,11165549
2013-07-24,30.904,31.185,30.705,30.929,18241593
2013-07-25,31.203,31.404,30.405,30.879,21731720
2013-07-26,30.753,30.811,30.362,30.538,19088552
2013-07-29,30.454,30.538,30.104,30.297,10096338
2013-07-30,30.421,30.629,30.244,30.397,14703737
2013-07-31,30.495,30.579,29.707,29.871,24852661
2013-08-01,30.305,30.695,29.988,30.37,19393536
2013-08-02,30.345,30.963,30.262,30.771,14305489
2013-08-05,30.838,30.854,30.52,30.603,8586028
2013-08-06,30.345,30.388,29.945,29.945,16194379
2013-08-07,29.988,30.064,29.504,29.546,23298532
2013-08-08,29.653,30.07,29.624,29.988,17361171
2013-08-09,29.945,30.205,29.728,29.997,9254432
2013-08-12,29.78,30.064,29.643,29.963,10137205
2013-08-13,30.153,30.153,29.636,29.846,8581045
2013-08-14,29.846,29.988,29.321,29.624,13619235
2013-08-15,29.288,29.296,28.655,28.772,24477470
2013-08-16,28.803,29.071,28.463,28.628,15009041
2013-08-19,28.78,29.004,28.663,28.72,11045592
2013-08-20,28.78,29.071,28.357,28.971,16531645
2013-08-21,28.963,29.104,28.638,28.756,11766462
2013-08-22,28.863,29.189,28.856,29.139,11494531
2013-08-23,29.265,29.33,29.031,29.196,8990634
2013-08-26,29.171,29.58,29.022,29.079,13005842
2013-08-27,28.682,28.822,27.997,28.056,14297043
2013-08-28,27.957,28.448,27.898,28.249,10940245
2013-08-29,28.165,28.888,28.155,28.69,12678338
2013-08-30,28.729,28.764,28.23,28.38,9726230
2013-09-03,28.879,28.956,28.28,28.43,13097715
2013-09-04,28.479,29.897,28.455,29.854,27664524
2013-09-05,29.988,30.639,29.871,30.254,22378255
2013-09-06,30.314,30.495,29.653,30.104,17105702
2013-09-09,30.262,30.564,30.189,30.38,16225520
2013-09-10,30.761,31.036,30.579,30.811,12755503
2013-09-11,30.421,30.48,29.997,30.271,32455050
2013-09-12,30.288,30.445,29.88,30.288,18906140
2013-09-13,30.388,30.436,29.971,30.027,15182082
2013-09-16,30.37,30.495,30.104,30.162,17797009
2013-09-17,30.244,30.796,30.244,30.572,15601451
2013-09-18,30.613,31.421,30.572,31.296,25749158
2013-09-19,31.512,31.544,30.945,31.005,20202956
2013-09-20,31.345,31.377,30.669,30.669,42912895
2013-09-23,30.938,31.23,30.436,30.921,22199277
2013-09-24,30.945,31.619,30.864,31.179,28488097
2013-09-25,31.254,31.46,30.945,30.963,18151525
2013-09-26,30.97,31.103,30.613,30.771,16848277
2013-09-27,30.621,30.728,30.112,30.288,17111389
2013-09-30,29.735,30.236,29.663,29.953,21283971
2013-10-01,30.014,30.32,29.412,29.906,26283253
2013-10-02,29.762,29.979,29.339,29.929,23367699
2013-10-03,29.78,29.929,29.255,29.387,18013656
2013-10-04,29.512,29.813,29.255,29.728,16566571
2013-10-07,29.339,29.58,29.164,29.296,14625847
2013-10-08,29.355,29.374,28.455,28.488,28408075
2013-10-09,28.59,28.638,28.249,28.448,25336417
2013-10-10,28.931,29.055,28.822,29.022,21665217
2013-10-11,28.971,29.58,28.863,29.439,18500717
2013-10-14,29.004,29.521,28.987,29.42,13441343
2013-10-15,29.382,29.464,28.739,28.897,16457777
2013-10-16,29.164,29.321,28.963,29.255,18648081
2013-10-17,29.281,29.806,29.114,29.699,15108434
2013-10-18,30.153,30.229,29.714,29.889,17578257
2013-10-21,30.197,30.205,29.43,29.562,16153132
2013-10-22,29.663,30.088,29.455,29.487,20430166
2013-10-23,29.464,29.473,28.756,29.189,20783426
2013-10-24,29.554,30.006,29.231,29.67,23160309
2013-10-25,29.707,29.788,29.412,29.636,15427947
2013-10-28,29.512,29.953,29.504,29.813,15591819
2013-10-29,29.828,30.129,29.571,30.027,28885916
2013-10-30,30.978,31.269,30.629,31.005,50590810
2013-10-31,30.963,31.637,30.771,30.771,33750432
2013-11-01,30.954,31.82,30.854,31.137,36943921
2013-11-04,31.23,31.478,31.155,31.203,21621112
2013-11-05,31.044,31.236,30.871,30.886,18250204
2013-11-06,31.012,31.145,30.454,30.472,19412454
2013-11-07,30.488,30.603,29.906,29.915,23889027
2013-11-08,30.104,30.621,29.988,30.529,21858802
2013-11-11,30.546,30.886,30.397,30.546,16411054
2013-11-12,30.538,30.648,30.288,30.529,17248226
2013-11-13,30.397,32.088,30.38,32.015,52667385
2013-11-14,32.228,32.311,31.769,32.059,34214596
2013-11-15,32.069,32.543,31.812,32.286,26056480
2013-11-18,32.318,32.626,32.088,32.12,20163784
2013-11-19,32.12,32.261,31.553,31.656,23828076
2013-11-20,31.736,32.237,31.313,31.387,20292374
2013-11-21,32.353,32.478,31.678,31.745,40712680
2013-11-22,31.812,32.059,31.296,31.337,32154135
2013-11-25,31.438,31.537,31.137,31.269,25350710
2013-11-26,31.395,31.593,31.145,31.37,27377193
2013-11-27,31.404,32.468,31.313,32.353,32921352
2013-11-29,32.394,32.603,32.059,32.252,9212852
2013-12-02,32.56,32.801,32.403,32.568,25456561
2013-12-03,32.386,32.553,31.377,31.76,53847907
2013-12-04,32.088,32.992,31.745,32.237,47707043
2013-12-05,32.468,32.761,32.103,32.553,41529228
2013-12-06,33.3,33.627,32.977,33.452,45522736
2013-12-09,33.627,34.285,33.568,34.06,35154505
2013-12-10,33.768,34.251,33.641,33.641,39070132
2013-12-11,33.942,34.001,33.369,33.446,19673596
2013-12-12,33.395,33.821,33.318,33.353,22695519
2013-12-13,33.47,33.602,33.327,33.345,17875313
2013-12-16,33.775,34.6,33.693,34.508,40325046
2013-12-17,34.692,34.85,34.26,34.584,33975039
2013-12-18,34.285,34.475,33.192,34.367,62263359
2013-12-19,34.26,34.367,33.377,33.56,30296226
2013-12-20,33.71,34.186,33.46,34.134,59629149
2013-12-23,34.06,34.627,33.821,34.383,24447281
2013-12-24,34.353,34.401,34.001,34.043,9132668
2013-12-26,34.177,34.85,34.177,34.575,13411727
2013-12-27,34.401,34.508,34.027,34.094,12066370
2013-12-30,34.143,34.251,33.851,33.884,10492509
2013-12-31,33.894,34.177,33.793,34.034,13330700
2014-01-02,33.876,34.195,33.594,34.102,17728414
2014-01-03,34.076,34.102,32.478,32.955,49749854
2014-01-06,33.227,33.802,33.009,33.641,30100792
2014-01-07,33.894,34.094,33.395,33.477,17000533
2014-01-08,33.585,34.001,33.477,33.66,13622806
2014-01-09,34.043,34.094,33.544,33.719,11759016
2014-01-10,33.812,33.876,33.177,33.336,17533004
2014-01-13,33.446,33.841,32.844,32.963,25211337
2014-01-14,33.118,33.446,32.955,33.327,21076483
2014-01-15,33,33.118,32.445,32.795,107129565
2014-01-16,32.727,32.937,32.277,32.478,43341292
2014-01-17,32.535,32.56,31.921,32.144,33637084
2014-01-21,32.386,32.478,31.561,31.927,36970140
2014-01-22,31.977,32.328,31.745,32.311,20299278
2014-01-23,31.927,32.059,31.571,31.995,24687181
2014-01-24,31.702,31.736,30.564,30.669,47636924
2014-01-27,30.648,31.044,30.027,30.613,40734241
2014-01-28,30.945,30.978,30.579,30.654,19132166
2014-01-29,30.027,30.779,29.988,30.271,21042740
2014-01-30,30.712,30.871,30.38,30.678,18592645
2014-01-31,30.162,30.678,29.88,30.045,32676786
2014-02-03,30.205,30.236,29.071,29.355,46810752
2014-02-04,29.539,29.953,29.355,29.828,25155719
2014-02-05,29.846,29.846,29.114,29.346,35362000
2014-02-06,28.673,29.828,28.615,29.339,64475407
2014-02-07,29.953,30.37,29.496,30.07,37621901
2014-02-10,29.906,29.915,28.831,29.062,51988920
2014-02-11,29.33,29.762,29.302,29.355,28564955
2014-02-12,29.554,29.689,29.255,29.614,27996078
2014-02-13,29.288,29.33,28.948,29.312,36639790
2014-02-14,29.455,30.045,29.355,29.936,27436790
2014-02-18,30.37,30.388,29.979,30.236,29488808
2014-02-19,30.162,30.579,29.979,30.006,27701784
2014-02-20,30.139,30.48,29.979,30.405,22396274
2014-02-21,30.546,30.603,30.098,30.555,62110748
2014-02-24,30.564,30.661,30.345,30.436,26552034
2014-02-25,30.538,30.648,29.979,30.064,27045946
2014-02-26,29.936,30.921,29.929,30.669,32015591
2014-02-27,30.445,30.686,29.953,30.621,34525259
2014-02-28,30.586,30.613,29.889,30.146,53252417
2014-03-03,29.728,30.472,29.728,30.153,28836241
2014-03-04,30.462,30.802,30.335,30.753,21533869
2014-03-05,31.262,31.687,31.086,31.245,34220008
2014-03-06,31.537,31.687,31.262,31.262,22949384
2014-03-07,31.628,31.656,31.185,31.387,21082668
2014-03-10,31.277,31.277,30.613,30.886,21083537
2014-03-11,30.811,30.911,29.164,29.296,49343083
2014-03-12,28.948,29.355,28.621,29.031,55638444
2014-03-13,29.18,29.281,28.205,28.389,47586992
2014-03-14,28.489,29.038,28.203,28.64,37979533
2014-03-17,28.684,29.146,28.322,29.093,35353121
2014-03-18,29.137,29.609,28.984,29.548,25387790
2014-03-19,29.637,29.683,29.068,29.33,17484532
2014-03-20,29.23,29.632,28.9,29.626,17206468
2014-03-21,29.757,29.824,29.22,29.413,28585926
2014-03-24,29.146,29.548,28.8,29.523,25544735
2014-03-25,29.514,29.556,28.723,28.993,29539322
2014-03-26,29.137,29.187,28.733,28.751,20234038
2014-03-27,28.8,29.396,28.657,28.993,19499922
2014-03-28,29.102,29.421,29.038,29.178,22823739
2014-03-31,29.01,29.23,28.524,28.918,28911000
2014-04-01,28.984,29.523,28.835,28.853,55414012
2014-04-02,29.112,29.448,28.884,29.302,49827160
2014-04-03,29.355,29.824,29.178,29.776,24482961
2014-04-04,29.912,29.995,29.112,29.246,24243830
2014-04-07,29.129,29.178,28.414,28.657,28979939
2014-04-08,28.693,29.068,28.439,29.01,24537852
2014-04-09,28.48,28.768,28.229,28.247,39472924
2014-04-10,28.322,28.616,27.978,27.978,40829683
2014-04-11,27.752,27.799,26.632,26.827,54467270
2014-04-14,27.13,27.624,27.011,27.346,22328394
2014-04-15,27.506,28.096,27.13,28.026,27912257
2014-04-16,28.305,28.556,27.994,28.539,21592171
2014-04-17,28.424,28.64,28.397,28.547,14701097
2014-04-21,28.515,28.743,28.357,28.547,11794586
2014-04-22,28.592,28.937,28.564,28.759,14630177
2014-04-23,28.807,29.077,28.649,28.893,19120769
2014-04-24,29.824,29.995,28.163,28.707,39688280
2014-04-25,28.188,28.631,28.188,28.33,19082386
2014-04-28,28.414,28.515,28.153,28.365,24014532
2014-04-29,28.314,28.649,28.247,28.556,14388470
2014-04-30,28.489,29.019,28.43,28.967,16708571
2014-05-01,29.129,29.739,29.019,29.321,23296393
2014-05-02,29.43,29.683,29.288,29.382,13565328
2014-05-05,29.272,29.312,29.093,29.196,10052858
2014-05-06,29.465,29.523,29.196,29.196,12038900
2014-05-07,29.374,29.497,29.077,29.465,11035090
2014-05-08,29.388,29.767,29.178,29.28,12201890
2014-05-09,29.237,29.321,28.693,28.759,20000481
2014-05-12,28.884,29.355,28.884,29.254,11306298
2014-05-13,29.272,29.563,29.068,29.532,10769121
2014-05-14,29.489,29.497,29.237,29.355,12502718
2014-05-15,29.077,29.196,28.424,28.868,21529527
2014-05-16,28.33,29.112,28.136,28.564,25573670
2014-05-19,28.43,28.858,28.397,28.774,10719507
2014-05-20,28.774,28.817,27.688,27.783,29630108
2014-05-21,27.851,28.247,27.809,28.11,14750290
2014-05-22,28.053,28.314,27.986,28.078,10031679
2014-05-23,28.172,28.296,28.072,28.254,9840016
2014-05-27,28.508,28.547,28.37,28.515,10706281
2014-05-28,28.64,29.085,28.533,29.06,14967223
2014-05-29,29.068,29.112,28.774,28.944,12951069
2014-05-30,28.817,29.102,28.733,29.053,16867915
2014-06-02,29.019,29.321,28.807,29.288,13755493
2014-06-03,29.506,29.985,29.196,29.626,20389738
2014-06-04,29.824,30.985,29.702,30.682,39573043
2014-06-05,31.052,31.119,30.381,30.474,29868706
2014-06-06,30.558,31.133,30.287,30.965,20808156
2014-06-09,30.922,31.2,30.786,30.922,12133716
2014-06-10,30.736,31.091,30.652,30.838,9987174
2014-06-11,30.691,30.745,30.43,30.598,10466442
2014-06-12,30.496,30.736,30.067,30.092,19851311
2014-06-13,29.981,30.313,29.973,30.185,14220562
2014-06-16,30.067,30.652,30.067,30.549,14875721
2014-06-17,30.388,30.82,30.176,30.801,15595159
2014-06-18,30.81,30.895,30.438,30.752,19301662
2014-06-19,30.794,31.039,30.666,30.81,13311431
2014-06-20,30.965,30.99,30.581,30.683,16547836
2014-06-23,30.674,31.176,30.658,31.066,13681392
2014-06-24,31.022,31.405,30.895,30.99,17744994
2014-06-25,30.886,31.499,30.879,31.422,14401461
2014-06-26,31.252,31.32,30.846,31.26,13541097
2014-06-27,31.115,31.37,31.022,31.022,30015133
2014-06-30,30.999,31.26,30.482,30.752,24642679
2014-07-01,30.711,31.886,30.711,31.844,27638128
2014-07-02,31.769,32.318,31.66,31.971,20860504
2014-07-03,32.158,32.285,31.954,31.971,7960393
2014-07-07,32.116,32.116,31.491,31.718,13137917
2014-07-08,31.69,31.998,31.515,31.836,13912737
2014-07-09,31.904,32.304,31.878,32.168,13782813
2014-07-10,31.752,32.108,31.642,31.979,11684809
2014-07-11,31.954,32.201,31.844,32.149,7322621
2014-07-14,32.276,32.304,31.819,31.938,10995113
2014-07-15,31.862,32.149,31.718,31.836,10174751
2014-07-16,31.998,32.116,31.734,31.752,12929310
2014-07-17,31.606,31.914,31.352,31.431,12989448
2014-07-18,31.54,31.7,31.396,31.69,10319119
2014-07-21,31.667,31.794,31.388,31.709,7829902
2014-07-22,31.819,32.108,31.794,31.988,11397823
2014-07-23,32.016,32.123,31.69,31.69,16365964
2014-07-24,31.066,31.22,29.915,30.278,42132697
2014-07-25,29.733,29.897,29.27,29.711,33685508
2014-07-28,29.667,29.727,29.465,29.564,17769094
2014-07-29,29.711,29.82,29.167,29.184,19541242
2014-07-30,29.228,29.363,28.811,29.064,22358389
2014-07-31,28.932,29.007,28.618,28.651,15827998
2014-08-01,28.624,28.801,28.21,28.329,18076697
2014-08-04,28.601,28.821,28.379,28.472,13558620
2014-08-05,28.439,28.633,28.083,28.261,12998284
2014-08-06,28.151,28.525,28.151,28.295,10287036
2014-08-07,28.43,28.489,27.786,28.049,15965830
2014-08-08,28.031,28.43,28.031,28.406,11727530
2014-08-11,28.489,28.678,28.304,28.633,12835470
2014-08-12,28.593,28.923,28.424,28.548,12163094
2014-08-13,28.746,28.862,28.618,28.762,8445956
2014-08-14,28.641,28.762,28.143,28.762,11752556
2014-08-15,28.83,28.941,28.388,28.668,16706731
2014-08-18,28.878,29.175,28.839,29.143,12189199
2014-08-19,29.387,29.44,29.082,29.287,12301971
2014-08-20,29.21,29.413,29.058,29.252,10744415
2014-08-21,29.329,29.421,29.193,29.311,7780613
2014-08-22,29.236,29.244,28.932,29.007,10229128
2014-08-25,29.159,29.43,29.064,29.373,11268641
2014-08-26,29.448,29.648,29.338,29.524,8894403
2014-08-27,29.582,29.591,29.294,29.404,8402220
2014-08-28,29.236,29.44,28.988,29.381,7048972
2014-08-29,29.43,29.524,29.32,29.482,6560873
2014-09-02,29.549,29.77,29.329,29.482,9236004
2014-09-03,29.704,29.751,29.193,29.2,13723720
2014-09-04,29.218,29.582,29.175,29.338,11292106
2014-09-05,29.301,29.32,28.997,29.294,16136234
2014-09-08,29.08,29.183,28.329,28.406,25884418
2014-09-09,28.37,28.457,28.209,28.26,13879440
2014-09-10,28.304,28.491,28.252,28.449,12252848
2014-09-11,28.337,28.799,28.329,28.721,11921738
2014-09-12,28.613,28.712,28.286,28.431,12962704
2014-09-15,28.337,28.884,28.329,28.74,14638785
2014-09-16,28.626,29.013,28.586,28.806,12969010
2014-09-17,28.816,29.174,28.774,28.929,12053947
2014-09-18,28.995,29.243,28.995,29.08,10449183
2014-09-19,29.243,29.262,28.858,29.004,16992205
2014-09-22,28.834,28.919,28.27,28.578,13082516
2014-09-23,28.406,28.697,28.321,28.389,10216625
2014-09-24,28.482,28.782,28.217,28.757,12479781
2014-09-25,28.69,28.757,28.056,28.091,14403130
2014-09-26,28.235,28.457,28.149,28.346,11020221
2014-09-29,28.176,28.337,27.33,27.534,23058675
2014-09-30,27.552,27.808,27.062,27.296,29009298
2014-10-01,27.321,28.226,27.099,27.765,36437308
2014-10-02,27.79,28.541,27.765,28.356,24332958
2014-10-03,28.568,28.969,28.415,28.853,19870860
2014-10-06,28.919,29.262,28.518,28.843,10643027
2014-10-07,28.235,28.235,27.047,27.149,30026375
2014-10-08,27.211,27.534,26.311,27.499,33125535
2014-10-09,27.425,27.456,26.33,26.518,27028830
2014-10-10,25.877,26.44,25.717,25.886,23982646
2014-10-13,25.886,26.167,25.399,25.459,20741286
2014-10-14,25.552,25.962,25.508,25.73,16962805
2014-10-15,25.356,25.859,24.628,25.372,34663169
2014-10-16,24.892,25.764,24.861,25.585,21325730
2014-10-17,25.971,26.466,25.782,25.842,21460307
2014-10-20,25.825,26.081,25.655,25.928,13691523
2014-10-21,26.065,26.552,25.911,26.356,14716531
2014-10-22,26.16,26.918,26.124,26.755,20881827
2014-10-23,27.305,27.339,26.33,26.433,29769846
2014-10-24,26.526,26.732,25.62,25.671,35465416
2014-10-27,25.764,26.056,25.485,25.707,14966689
2014-10-28,25.971,26.678,25.757,26.637,30507946
2014-10-29,26.662,26.772,25.936,26.253,13618864
2014-10-30,26.124,26.518,26.02,26.303,11788437
2014-10-31,26.621,27.022,26.449,26.834,18183271
2014-11-03,26.791,26.885,26.311,26.646,11621122
2014-11-04,26.526,26.755,26.218,26.338,14110306
2014-11-05,26.621,26.646,26.115,26.263,12999664
2014-11-06,26.388,26.885,26.194,26.808,14895476
2014-11-07,26.755,27.126,26.698,26.996,11784701
2014-11-10,26.772,26.918,26.338,26.593,12049225
2014-11-11,26.526,26.834,26.491,26.791,8819539
2014-11-12,26.749,26.96,26.586,26.85,8724644
2014-11-13,26.927,27.26,26.893,27.047,9775457
2014-11-14,27.047,27.353,26.903,27.166,9941698
2014-11-17,27.345,27.765,27.26,27.609,13923469
2014-11-18,27.694,27.765,27.237,27.578,11428017
2014-11-19,27.527,27.609,27.296,27.474,9700808
2014-11-20,27.312,27.568,27.175,27.456,9422640
2014-11-21,27.758,27.818,27.321,27.456,10024987
2014-11-24,27.562,27.646,27.149,27.509,15579144
2014-11-25,27.562,27.673,27.321,27.542,10846644
2014-11-26,27.578,27.602,27.305,27.406,8676201
2014-11-28,27.68,28.662,27.542,28.568,16428996
2014-12-01,28.534,28.604,28.081,28.149,16839330
2014-12-02,28.244,28.73,28.193,28.424,17346098
2014-12-03,28.518,28.868,28.501,28.748,13630713
2014-12-04,28.766,28.774,28.235,28.278,13675054
2014-12-05,28.398,29.132,28.346,28.995,20748067
2014-12-08,28.9,28.937,28.115,28.178,18702720
2014-12-09,27.831,28.339,27.737,28.289,12928747
2014-12-10,28.211,28.323,27.477,27.564,13433001
2014-12-11,27.711,28.187,27.582,27.755,15404341
2014-12-12,27.642,27.729,27.219,27.219,13032614
2014-12-15,27.333,27.392,26.711,26.73,18654689
2014-12-16,26.4,26.77,26.124,26.495,28173799
2014-12-17,26.565,26.987,26.417,26.857,15403794
2014-12-18,27.279,27.374,26.875,27.374,16367159
2014-12-19,27.384,28.392,27.374,28.289,22026193
2014-12-22,28.123,28.718,28.123,28.65,15360301
2014-12-23,28.833,29.057,28.78,28.937,9822974
2014-12-24,28.909,28.962,28.659,28.823,5214608
2014-12-26,28.928,29.185,28.841,29.081,7738644
2014-12-29,29.201,30.029,29.133,29.831,19314719
2014-12-30,29.799,30.35,29.668,30.255,17358865
2014-12-31,30.384,30.566,30.082,30.099,14241141
2015-01-02,30.409,30.444,29.668,30.039,11315041
2015-01-05,30.159,30.393,29.376,29.599,18815771
2015-01-06,29.668,30.366,29.399,30.048,20584104
2015-01-07,30.375,30.997,30.211,30.901,22406767
2015-01-08,31.091,31.428,30.867,31.213,17636962
2015-01-09,31.222,31.356,30.532,30.684,17038070
2015-01-12,30.875,30.988,30.581,30.901,12359377
2015-01-13,31.109,31.384,29.901,30.393,25392258
2015-01-14,29.627,29.807,28.962,29.573,32359035
2015-01-15,29.987,30.066,28.78,28.823,22543899
2015-01-16,28.737,29.133,28.687,29.041,20621717
2015-01-20,29.229,29.322,28.755,29.255,13887417
2015-01-21,29.16,29.417,28.9,29.219,16643445
2015-01-22,29.445,29.471,28.718,29.16,16540390
2015-01-23,29.229,29.471,29.063,29.098,16224491
2015-01-26,29.063,29.349,28.969,29.057,12554895
2015-01-27,28.797,29.049,28.583,28.814,17157699
2015-01-28,28.892,28.944,28.237,28.315,16890994
2015-01-29,28.374,28.747,27.901,28.592,18347420
2015-01-30,28.349,28.583,28.123,28.123,22227970
2015-02-02,28.168,28.583,27.97,28.545,21336377
2015-02-03,28.883,29.487,28.833,29.297,30392150
2015-02-04,30.409,31.021,29.445,30.891,57177081
2015-02-05,31.28,31.556,31.047,31.254,24187671
2015-02-06,31.28,31.504,30.969,31.038,18928423
2015-02-09,30.859,31.125,30.617,31.038,17162009
2015-02-10,32.142,32.376,31.384,32.35,37530941
2015-02-11,32.341,32.642,32.142,32.479,26242045
2015-02-12,32.632,32.917,32.53,32.781,18019422
2015-02-13,32.703,32.824,32.202,32.436,17041401
2015-02-17,32.074,32.307,31.945,32.109,15247857
2015-02-18,32.116,32.307,32.016,32.064,9873283
2015-02-19,31.927,32.428,31.883,32.341,13659568
2015-02-20,32.323,32.522,32.038,32.46,10838766
2015-02-23,32.436,32.565,32.195,32.496,12724400
2015-02-24,32.436,32.687,32.401,32.547,9930110
2015-02-25,32.584,32.729,32.428,32.642,12941820
2015-02-26,32.602,32.877,32.341,32.385,12419274
2015-02-27,32.229,32.289,31.997,32.169,12166792
2015-03-02,32.211,32.514,32.211,32.428,13029723
2015-03-03,32.229,32.602,32.16,32.592,11640018
2015-03-04,32.445,32.592,32.16,32.393,14771897
2015-03-05,32.46,32.607,32.385,32.428,7678748
2015-03-06,32.299,32.376,31.668,31.763,15964083
2015-03-09,32.65,32.868,32.441,32.737,26434965
2015-03-10,32.535,32.841,32.294,32.64,23368855
2015-03-11,32.686,33.145,32.615,32.841,15175374
2015-03-12,32.894,33.442,32.894,33.405,16089122
2015-03-13,33.363,33.371,32.798,33.075,13119067
2015-03-16,33.285,33.553,33.214,33.538,12906015
2015-03-17,33.137,33.442,33.083,33.285,11161692
2015-03-18,33.18,33.553,32.841,33.468,21875195
2015-03-19,33.423,33.71,33.285,33.599,12948235
2015-03-20,33.649,33.839,33.511,33.788,22742585
2015-03-23,33.737,33.904,33.545,33.545,13409768
2015-03-24,33.458,33.484,32.816,32.901,18240333
2015-03-25,32.928,32.955,32.485,32.494,11745052
2015-03-26,32.806,32.955,32.294,32.467,15891831
2015-03-27,32.458,32.582,32.233,32.433,10626765
2015-03-30,32.668,32.918,32.623,32.753,11481155
2015-03-31,32.753,33.066,32.572,32.6,14533201
2015-04-01,32.407,32.485,31.78,31.937,19132226
2015-04-02,31.772,31.927,31.581,31.73,19001545
2015-04-06,31.519,32.136,31.476,31.869,15160766
2015-04-07,31.285,31.372,30.981,31.059,64676992
2015-04-08,31.188,31.458,31.078,31.39,31589826
2015-04-09,31.38,31.633,31.321,31.545,17774106
2015-04-10,31.92,31.971,31.615,31.789,19290520
2015-04-13,31.841,32.041,31.633,31.642,15565353
2015-04-14,31.692,32.009,31.676,31.711,14942998
2015-04-15,32.009,32.233,31.86,32.112,15762689
2015-04-16,32.25,32.318,31.937,32.233,14064385
2015-04-17,32.017,32.032,31.73,31.85,16536851
2015-04-20,32.119,32.31,31.947,32.26,15968229
2015-04-21,32.45,32.554,32.009,32.304,19706588
2015-04-22,32.276,32.355,31.877,32.304,18412571
2015-04-23,31.495,31.554,30.929,31.227,48109307
2015-04-24,31.059,31.128,30.806,30.939,24448451
2015-04-27,30.991,31.25,30.911,31.103,17827924
2015-04-28,31.078,31.258,30.573,31.05,17091786
2015-04-29,30.86,31.033,30.645,30.868,13697824
2015-04-30,30.652,30.797,30.364,30.477,18158084
2015-05-01,30.573,30.834,30.259,30.791,17609354
2015-05-04,30.86,31.05,30.772,30.772,13827702
2015-05-05,30.772,30.877,30.415,30.432,12732422
2015-05-06,30.547,30.625,30.033,30.225,15039911
2015-05-07,30.11,30.452,30.033,30.32,16144093
2015-05-08,30.501,30.825,30.452,30.703,14709932
2015-05-11,30.684,30.939,30.573,30.616,10161436
2015-05-12,30.39,30.39,29.998,30.198,16162055
2015-05-13,30.234,30.399,30.172,30.251,10580617
2015-05-14,30.425,30.459,30.016,30.12,14546921
2015-05-15,30.164,30.408,30.164,30.347,11248064
2015-05-18,30.399,30.597,30.294,30.469,11831878
2015-05-19,30.573,30.635,30.39,30.53,11338961
2015-05-20,30.635,30.684,30.13,30.442,14870158
2015-05-21,30.425,31,30.425,30.929,18424397
2015-05-22,30.877,31.068,30.791,31.033,11098998
2015-05-26,30.816,30.945,30.797,30.877,14421865
2015-05-27,30.877,31.128,30.797,31.128,11570883
2015-05-28,31.39,31.711,31.266,31.633,20780195
2015-05-29,31.721,31.799,31.163,31.266,18183163
2015-06-01,31.345,31.589,30.991,31.448,13818915
2015-06-02,31.372,31.73,31.266,31.486,19496685
2015-06-03,31.615,31.661,31.181,31.241,14744557
2015-06-04,31,31.181,30.834,30.893,12123296
2015-06-05,30.868,30.903,30.39,30.53,28332980
2015-06-08,30.714,30.846,30.566,30.731,17803102
2015-06-09,30.775,31.02,30.741,30.968,14688859
2015-06-10,31.135,31.284,30.996,31.257,12982407
2015-06-11,31.399,31.627,31.225,31.225,19149964
2015-06-12,31.074,31.53,31.074,31.362,12718159
2015-06-15,31.056,31.38,30.75,31.144,15958358
2015-06-16,31.056,31.426,30.88,31.274,7559209
2015-06-17,31.337,31.449,30.996,31.449,11712215
2015-06-18,31.504,32.039,31.487,31.794,17637665
2015-06-19,31.725,31.908,31.575,31.715,16886648
2015-06-22,31.874,32.094,31.733,31.785,15693180
2015-06-23,31.944,32.039,31.856,31.88,8288779
2015-06-24,31.539,31.591,30.838,30.88,19276208
2015-06-25,30.925,31.02,30.362,30.476,16615553
2015-06-26,30.476,30.581,30.106,30.196,13244986
2015-06-29,29.968,30.011,29.159,29.185,21311779
2015-06-30,29.396,29.484,29.037,29.274,14701279
2015-07-01,29.519,29.519,28.703,29.018,18410309
2015-07-02,29.151,29.379,29.037,29.185,9844587
2015-07-06,28.853,29.087,28.64,28.678,11878905
2015-07-07,28.649,28.94,28.113,28.86,21165468
2015-07-08,28.395,28.465,27.173,27.393,34125009
2015-07-09,27.771,27.886,27.155,27.237,19280989
2015-07-10,27.491,27.596,27.219,27.578,13933831
2015-07-13,27.993,28.018,27.631,27.824,18589751
2015-07-14,27.746,28.098,27.604,27.904,12334234
2015-07-15,27.973,28.018,27.491,27.604,20519494
2015-07-16,27.348,27.403,26.621,26.884,40898934
2015-07-17,26.911,27.051,26.727,26.918,18479423
2015-07-20,27.095,27.095,26.717,26.787,17811983
2015-07-21,26.797,26.841,26.621,26.691,26724974
2015-07-22,26.639,26.805,26.253,26.612,23759860
2015-07-23,28.678,28.718,27.578,27.668,44367989
2015-07-24,28.018,28.052,27.067,27.279,26150555
2015-07-27,27.182,27.508,26.875,27.27,26570127
2015-07-28,27.658,27.788,27.421,27.508,26397516
2015-07-29,27.648,28.157,27.604,28.061,23492198
2015-07-30,28.009,28.148,27.886,28.024,11526283
2015-07-31,28.176,28.218,27.604,27.675,14117600
2015-08-03,27.92,28.009,27.498,27.824,16851826
2015-08-04,27.807,27.904,27.568,27.682,17199419
2015-08-05,27.904,27.904,27.403,27.755,16399673
2015-08-06,27.746,28.043,27.348,27.983,22279815
2015-08-07,28.185,28.228,27.755,27.877,14756005
2015-08-10,28.061,28.325,27.983,28.052,13294510
2015-08-11,27.481,27.498,26.867,27.077,27713558
2015-08-12,26.727,27.227,26.164,27.113,26414368
2015-08-13,27.113,27.447,27.06,27.279,23264120
2015-08-14,27.348,27.71,27.279,27.658,13916183
2015-08-17,27.64,27.824,27.376,27.762,13728887
2015-08-18,27.587,27.904,27.527,27.85,10565770
2015-08-19,27.762,28.148,27.552,27.779,15848028
2015-08-20,27.604,27.631,27.077,27.086,15203017
2015-08-21,26.753,26.813,25.971,25.998,31359261
2015-08-24,23.977,25.383,21.623,24.416,40693086
2015-08-25,25.645,25.645,23.959,23.959,22733307
2015-08-26,24.258,24.768,23.626,24.68,31558514
2015-08-27,25.049,25.312,24.61,25.101,32448550
2015-08-28,25.128,25.592,25.058,25.471,17269216
2015-08-31,25.548,26.076,25.489,25.856,18540679
2015-09-01,25.628,25.796,24.944,25.153,19000098
2015-09-02,25.462,25.663,25.128,25.655,12269781
2015-09-03,25.805,26.094,25.489,25.568,13098447
2015-09-04,25.277,25.504,25.092,25.365,15297292
2015-09-08,25.91,26.294,25.91,26.243,21973527
2015-09-09,26.525,26.699,25.927,26.014,18278462
2015-09-10,25.952,27.091,25.952,26.672,21001336
2015-09-11,26.68,26.851,26.298,26.806,17258857
2015-09-14,26.769,27.356,26.727,27.313,22662498
2015-09-15,27.356,28.05,27.346,27.553,25195102
2015-09-16,27.632,28.069,27.491,27.74,19206927
2015-09-17,27.783,28.281,27.677,27.837,18720986
2015-09-18,27.543,27.67,27.082,27.127,34963565
2015-09-21,27.267,27.528,27.011,27.224,16112734
2015-09-22,26.158,26.727,26.149,26.698,19334697
2015-09-23,26.68,26.798,26.306,26.424,12683936
2015-09-24,26.149,26.236,25.58,26.175,22142486
2015-09-25,26.485,26.53,25.988,26.149,15037248
2015-09-28,26.042,26.069,25.286,25.392,17601159
2015-09-29,25.483,26.042,25.233,25.917,19169809
2015-09-30,26.335,26.76,26.121,26.69,21293565
2015-10-01,26.931,27.339,26.656,27.267,20539980
2015-10-02,26.851,28.238,26.814,28.21,18667045
2015-10-05,28.363,28.594,28.022,28.238,17328461
2015-10-06,28.281,28.789,28.281,28.645,15988113
2015-10-07,28.852,29.508,28.815,29.386,17727242
2015-10-08,29.294,29.784,29.215,29.722,14520314
2015-10-09,29.64,29.9,29.154,29.294,15936149
2015-10-12,29.376,29.483,29.001,29.358,12109491
2015-10-13,29.205,29.669,29.081,29.456,13259917
2015-10-14,29.517,29.784,29.27,29.632,13467799
2015-10-15,29.828,29.926,29.483,29.626,12197028
2015-10-16,29.669,29.748,29.234,29.474,10624174
2015-10-19,29.341,29.598,29.163,29.553,11342618
2015-10-20,29.499,30.132,29.41,29.767,13326431
2015-10-21,31.083,31.89,30.869,31.493,41889672
2015-10-22,31.687,31.82,31.092,31.493,25540964
2015-10-23,31.597,32.059,31.483,31.962,20557977
2015-10-26,31.919,31.953,31.348,31.714,15758551
2015-10-27,31.463,31.553,30.886,31.092,17474133
2015-10-28,31.11,31.384,30.805,31.314,10874770
2015-10-29,31.154,31.161,30.326,30.895,13595431
2015-10-30,30.985,31.297,30.64,31.037,12061604
2015-11-02,31.012,31.785,30.995,31.625,13337676
2015-11-03,31.589,31.999,31.439,31.811,17034218
2015-11-04,31.857,31.936,31.454,31.493,14303038
2015-11-05,31.589,31.616,31.287,31.51,8637752
2015-11-06,31.404,31.828,31.348,31.785,10546680
2015-11-09,31.989,32.114,31.51,31.714,11244669
2015-11-10,31.597,31.678,31.26,31.668,10895577
2015-11-11,31.776,32.018,31.58,31.606,7594095
2015-11-12,31.422,31.544,31.136,31.198,11979613
2015-11-13,31.092,31.268,30.389,30.503,13598918
2015-11-16,30.503,31.314,30.488,31.268,16420355
2015-11-17,31.333,31.643,31.126,31.305,13213802
2015-11-18,31.473,32.434,31.384,32.415,16720889
2015-11-19,32.389,32.425,32.069,32.131,10978460
2015-11-20,32.283,32.389,32.018,32.309,12139666
2015-11-23,32.355,32.782,32.059,32.079,11077898
2015-11-24,31.794,32.302,31.732,32.202,11637576
2015-11-25,32.14,32.381,32.105,32.309,8202586
2015-11-27,32.326,32.443,32.202,32.336,3260880
2015-11-30,32.539,32.791,32.176,32.186,15700852
2015-12-01,31.962,32.309,31.828,32.239,14235323
2015-12-02,32.283,32.326,31.668,31.768,10926727
2015-12-03,31.857,32.009,31.323,31.535,12142616
2015-12-04,31.653,32.309,31.445,32.229,13005048
2015-12-07,32.415,32.469,31.999,32.122,12713624
2015-12-08,31.857,31.89,31.323,31.544,13390622
2015-12-09,31.384,31.739,30.995,31.518,13150477
2015-12-10,31.341,31.91,31.277,31.678,9928178
2015-12-11,31.241,31.483,30.47,30.719,18301052
2015-12-14,30.923,30.975,30.274,30.576,15512765
2015-12-15,30.895,31.083,30.495,30.71,15605024
2015-12-16,30.863,31.597,30.772,31.573,16441209
2015-12-17,31.58,31.688,30.61,30.648,16081367
2015-12-18,30.51,30.6,30.135,30.252,21670103
2015-12-21,30.36,30.6,30.179,30.395,14268911
2015-12-22,30.736,30.988,30.61,30.806,10243108
2015-12-23,31.007,31.392,30.887,31.247,9813127
2015-12-24,31.194,31.223,30.998,31.086,3489135
2015-12-28,31.023,31.154,30.816,31.007,5296468
2015-12-29,31.14,31.166,30.695,30.998,7853987
2015-12-30,30.836,31.045,30.797,30.845,5223048
2015-12-31,30.736,30.816,30.548,30.557,7330253
2016-01-04,30.054,30.135,29.504,29.927,16530950
2016-01-05,29.944,30.016,28.912,29.137,21732651
2016-01-06,28.705,28.732,27.861,28.096,30624276
2016-01-07,27.187,27.688,26.797,26.946,23261270
2016-01-08,27.367,27.583,26.434,26.531,18301334
2016-01-11,27.287,27.385,26.666,27.177,18783977
2016-01-12,27.521,27.623,26.773,27.223,14912384
2016-01-13,28.598,28.661,27.034,27.393,35069469
2016-01-14,27.681,27.754,26.459,27.223,30129634
2016-01-15,26.468,26.666,25.875,26.567,25654115
2016-01-19,26.889,26.954,25.974,26.415,19841510
2016-01-20,25.93,26.865,25.443,26.434,23907826
2016-01-21,26.468,27.074,26.117,26.549,17616808
2016-01-22,27.098,27.217,26.082,26.305,20368505
2016-01-25,26.354,26.586,26.07,26.264,37427903
2016-01-26,26.424,26.73,26.091,26.64,12972576
2016-01-27,26.701,26.865,26.055,26.244,14379702
2016-01-28,26.477,26.485,25.514,26.073,18250513
2016-01-29,26.206,26.63,26.073,26.63,14940464
2016-02-01,26.468,27.168,26.146,27.052,15373389
2016-02-02,26.946,27.126,25.938,26.64,26424684
2016-02-03,27.044,27.177,25.318,25.983,32342822
2016-02-04,26.003,26.244,25.246,25.73,23359154
2016-02-05,25.758,26.234,25.528,25.642,15719469
2016-02-08,25.408,25.911,25.201,25.767,21336107
2016-02-09,25.273,25.938,24.951,25.041,24068561
2016-02-10,25.265,25.73,24.879,24.895,16871238
2016-02-11,24.691,25.238,23.98,24.169,28003550
2016-02-12,24.465,24.923,24.303,24.895,12257443
2016-02-16,25.156,25.686,24.941,25.677,16245524
2016-02-17,25.93,26.369,25.786,26.296,14727296
2016-02-18,26.459,26.545,25.978,26.082,12948008
2016-02-19,25.946,26.037,25.499,25.857,13757963
2016-02-22,26.216,26.63,26.082,26.621,13581832
2016-02-23,26.424,26.792,26.305,26.395,11072541
2016-02-24,25.804,25.965,24.985,25.912,23357446
2016-02-25,25.903,26.514,25.651,26.505,13248556
2016-02-26,26.711,26.917,26.535,26.621,17561148
2016-02-29,26.386,26.773,26.314,26.451,11473565
2016-03-01,26.971,27.159,25.983,26.961,23357209
2016-03-02,26.954,27.24,26.809,27.089,13459689
2016-03-03,27.187,28.049,27.133,27.914,20412632
2016-03-04,28.049,28.517,27.906,28.185,15540743
2016-03-07,28.13,28.551,28.021,28.383,12656939
2016-03-08,28.211,28.211,27.367,27.563,18687886
2016-03-09,27.72,27.865,27.473,27.782,13365461
2016-03-10,27.946,28.093,27.536,28.037,16590524
2016-03-11,28.247,28.502,28.184,28.437,14676026
2016-03-14,28.365,28.555,28.11,28.365,10281264
2016-03-15,28.074,28.274,27.69,28.247,9875019
2016-03-16,28.046,28.893,28.046,28.829,10982439
2016-03-17,28.865,29.2,28.779,29.074,12415848
2016-03-18,29.183,29.457,29.029,29.074,16963034
2016-03-21,29.21,29.284,28.884,29.183,8130427
2016-03-22,29.183,29.301,28.893,29.02,9008606
2016-03-23,29.039,29.049,28.356,28.483,10009495
2016-03-24,28.093,28.174,27.647,28.165,13236003
2016-03-28,28.319,28.427,28.147,28.219,6695728
2016-03-29,28.238,28.456,27.82,28.374,15007858
2016-03-30,28.602,28.81,28.16,28.193,14688386
2016-03-31,28.21,28.738,28.202,28.594,11217473
2016-04-01,28.365,28.384,27.583,27.72,19145812
2016-04-04,27.656,27.729,27.062,27.202,13343320
2016-04-05,26.99,27.046,26.699,26.928,10005050
2016-04-06,26.982,27.245,26.656,27.237,10574476
2016-04-07,27.153,27.245,26.545,26.763,14140670
2016-04-08,26.99,27.072,26.591,26.718,9719410
2016-04-11,26.828,27.328,26.818,26.865,9744286
2016-04-12,26.89,27.082,26.628,27.029,12283890
2016-04-13,27.302,28.083,27.237,28.001,12130705
2016-04-14,28.056,28.247,27.874,27.946,9012295
2016-04-15,27.91,28.065,27.661,27.801,9056412
2016-04-18,27.984,28.538,27.845,28.483,17270971
2016-04-19,28.793,29.257,28.757,29.083,15837478
2016-04-20,29.111,29.484,29.111,29.284,14191216
2016-04-21,30.185,30.394,29.539,29.712,25053144
2016-04-22,29.712,29.829,29.22,29.275,15158042
2016-04-25,29.192,29.21,28.748,29.065,11626863
2016-04-26,29.111,29.385,29.049,29.284,9564275
2016-04-27,29.275,29.375,29.101,29.257,7377358
2016-04-28,29.083,29.775,28.865,29.511,14772735
2016-04-29,29.429,29.429,28.676,28.93,13763519
2016-05-02,29.157,29.22,28.861,28.884,10762377
2016-05-03,28.718,28.748,27.898,28.427,16535949
2016-05-04,28.202,28.279,27.674,27.827,15035988
2016-05-05,28.011,28.027,27.563,27.782,11410779
2016-05-06,27.956,28.302,27.801,28.165,12546658
2016-05-09,28.202,28.264,27.782,28.001,8931456
2016-05-10,28.11,28.533,28.056,28.52,10092552
2016-05-11,28.492,28.619,28.202,28.274,9385344
2016-05-12,28.384,28.538,27.974,28.365,10276739
2016-05-13,28.083,28.461,27.629,27.764,11595532
2016-05-16,27.747,28.184,27.747,27.902,19498551
2016-05-17,27.656,27.996,27.546,27.865,10488582
2016-05-18,27.801,28.238,27.687,27.974,9293166
2016-05-19,27.756,27.91,27.447,27.583,11146783
2016-05-20,27.756,28.011,27.656,27.811,8503170
2016-05-23,27.747,27.865,27.606,27.827,7363746
2016-05-24,27.884,28.274,27.855,28.247,9610798
2016-05-25,28.374,28.901,28.311,28.793,11159034
2016-05-26,28.793,28.884,28.365,28.465,7417325
2016-05-27,28.483,28.783,28.437,28.555,6694002
2016-05-31,28.694,28.767,28.319,28.456,12974016
2016-06-01,28.337,28.337,27.173,27.492,28539108
2016-06-02,27.41,27.71,27.337,27.53,13903894
2016-06-03,27.373,27.429,26.847,26.928,20387258
2016-06-06,27.153,27.328,27.037,27.283,12074127
2016-06-07,27.438,27.637,27.245,27.5,15854895
2016-06-08,27.639,27.668,27.198,27.241,14099698
2016-06-09,27.158,27.178,26.861,27.049,12912572
2016-06-10,26.92,27.032,26.698,26.772,11642547
2016-06-13,26.579,27.086,26.533,26.791,15056013
2016-06-14,26.782,27.003,26.394,26.561,11669336
2016-06-15,26.698,26.92,26.525,26.589,9204058
2016-06-16,26.414,26.782,26.259,26.737,10476425
2016-06-17,26.847,27.115,26.772,26.93,13792685
2016-06-20,27.29,27.668,27.26,27.317,13368584
2016-06-21,27.308,27.428,27.115,27.188,11199205
2016-06-22,27.032,27.26,26.966,27.013,9445686
2016-06-23,27.26,27.5,27.224,27.473,10408691
2016-06-24,26.331,26.755,26.026,26.118,32753151
2016-06-27,25.879,25.889,25.189,25.345,20230382
2016-06-28,25.731,25.778,25.243,25.557,15261277
2016-06-29,25.797,25.98,25.427,25.953,11549149
2016-06-30,25.962,26.073,25.519,26.073,16667798
2016-07-01,26.433,26.698,26.127,26.616,16450523
2016-07-05,26.385,26.423,25.834,25.953,13213178
2016-07-06,25.797,26.175,25.354,26.166,15862967
2016-07-07,26.249,26.768,26.184,26.478,11748068
2016-07-08,26.966,27.52,26.966,27.326,18078238
2016-07-11,27.446,27.888,27.4,27.759,15054722
2016-07-12,28.054,28.423,27.998,28.193,18220263
2016-07-13,28.219,28.275,27.841,28.219,14433407
2016-07-14,28.45,28.606,28.193,28.338,12267985
2016-07-15,28.394,28.54,28.164,28.348,9143516
2016-07-18,28.33,28.652,28.202,28.44,9474261
2016-07-19,28.284,28.808,28.284,28.791,18613575
2016-07-20,28.947,29.093,28.624,29.011,22687501
2016-07-21,29.998,30.283,29.324,29.509,39383552
2016-07-22,29.574,29.704,29.224,29.63,14441376
2016-07-25,29.656,29.814,29.445,29.537,12279384
2016-07-26,29.463,29.684,29.381,29.621,10265605
2016-07-27,29.646,29.748,29.454,29.5,9926848
2016-07-28,28.606,28.745,28.238,28.55,22099562
2016-07-29,28.366,29.067,28.358,29.059,17530096
2016-08-01,29.059,29.132,28.745,28.837,12146581
2016-08-02,28.589,28.633,27.473,27.574,26419526
2016-08-03,27.639,27.87,27.557,27.86,15727253
2016-08-04,27.86,28.127,27.85,27.952,9381706
2016-08-05,28.108,28.459,28.101,28.376,14257899
2016-08-08,28.487,28.615,28.376,28.45,11353769
2016-08-09,28.478,28.791,28.404,28.624,14860576
2016-08-10,28.589,28.808,28.523,28.791,11750952
2016-08-11,28.957,29.288,28.892,29.251,14326514
2016-08-12,29.113,29.251,29.067,29.085,10681461
2016-08-15,29.103,29.381,29.067,29.353,10143048
2016-08-16,29.306,29.344,29.122,29.214,10720996
2016-08-17,29.214,29.372,29.067,29.344,9093874
2016-08-18,29.296,29.353,29.002,29.067,15289401
2016-08-19,29.002,29.381,28.93,29.324,9547816
2016-08-22,29.288,29.436,29.204,29.362,9016189
2016-08-23,29.454,29.528,29.362,29.39,11883511
2016-08-24,29.334,29.564,29.261,29.28,8866178
2016-08-25,29.214,29.251,28.887,29.059,17260385
2016-08-26,29.177,29.319,28.947,29.05,11326856
2016-08-29,29.28,29.445,29.085,29.306,8366685
2016-08-30,29.177,29.482,28.773,29.177,11666386
2016-08-31,29.177,29.426,29.16,29.407,10446406
2016-09-01,29.353,29.988,28.873,29.296,16170310
2016-09-02,29.372,29.666,29.344,29.63,11746686
2016-09-06,29.713,29.795,29.344,29.592,18194581
2016-09-07,29.825,29.825,29.481,29.731,13464888
2016-09-08,29.695,29.834,29.537,29.564,12661871
2016-09-09,29.312,29.422,28.315,28.418,24086882
2016-09-12,28.306,29.229,28.092,29.07,18485126
2016-09-13,28.921,29.043,28.734,28.847,17322742
2016-09-14,28.707,28.781,28.426,28.631,13839682
2016-09-15,28.67,29.116,28.66,29.014,14446670
2016-09-16,29.024,29.024,28.533,28.874,13707239
2016-09-19,29.74,29.91,29.517,29.574,34571597
2016-09-20,29.75,29.778,29.209,29.508,13809236
2016-09-21,29.574,29.983,29.574,29.936,15513786
2016-09-22,30.086,30.273,30.086,30.198,12855861
2016-09-23,29.928,30.18,29.881,29.946,10522265
2016-09-26,29.853,29.946,29.602,29.647,13622237
2016-09-27,29.621,29.798,29.405,29.461,15500810
2016-09-28,29.602,29.778,29.405,29.74,11474371
2016-09-29,29.621,29.798,29.321,29.35,9454124
2016-09-30,29.49,29.788,29.439,29.621,9990663
2016-10-03,29.499,30.063,29.471,29.872,12201217
2016-10-04,29.91,30.273,29.872,29.993,9122598
2016-10-05,30.123,30.562,30.049,30.469,11897166
2016-10-06,30.338,30.431,30.03,30.328,9233067
2016-10-07,30.301,30.394,29.881,30.151,9556063
2016-10-10,30.123,30.394,29.941,29.974,6535980
2016-10-11,30.049,30.096,29.545,29.731,8556506
2016-10-12,29.74,29.825,29.508,29.537,5992580
2016-10-13,29.35,29.49,28.791,29.378,12981543
2016-10-14,29.611,29.825,29.532,29.715,11911152
2016-10-17,29.685,29.89,29.396,29.424,8017658
2016-10-18,29.676,29.723,29.079,29.276,8549476
2016-10-19,29.405,29.817,29.35,29.695,9795860
2016-10-20,29.63,29.705,29.266,29.602,8663890
2016-10-21,29.443,29.993,29.35,29.872,12802605
2016-10-24,30.003,30.842,29.974,30.75,21673771
2016-10-25,30.627,30.627,29.266,29.461,36526459
2016-10-26,29.107,29.592,29.014,29.443,16017171
2016-10-27,29.602,29.63,29.079,29.209,22142952
2016-10-28,29.209,29.611,29.107,29.199,11337644
2016-10-31,29.292,29.508,29.229,29.461,8531368
2016-11-01,29.554,29.91,29.079,29.35,15731920
2016-11-02,29.209,29.574,29.191,29.321,12615635
2016-11-03,29.321,29.499,28.856,28.967,14715923
2016-11-04,28.901,29.405,28.847,29.052,13696700
2016-11-07,29.443,29.97,29.405,29.853,14539221
2016-11-08,29.74,29.807,29.285,29.582,11114059
2016-11-09,28.818,29.043,28.165,28.865,41392095
2016-11-10,28.837,30.608,28.818,30.515,29823161
2016-11-11,30.291,31.964,30.206,31.718,35418983
2016-11-14,31.606,32.092,30.813,31.028,21681881
2016-11-15,31.046,31.332,30.86,31.167,11697626
2016-11-16,31.103,31.103,30.833,30.981,9461607
2016-11-17,30.74,31.177,30.535,31.158,12554529
2016-11-18,31.14,31.158,30.73,30.767,9240402
2016-11-21,30.981,31.028,30.745,30.776,12499935
2016-11-22,30.598,31.531,30.553,31.523,13174059
2016-11-23,31.456,31.689,31.41,31.569,9341320
2016-11-25,31.699,31.993,31.634,31.931,5703725
2016-11-28,32.025,32.053,31.662,31.746,12344297
2016-11-29,31.727,32.24,31.569,32.23,13519829
2016-11-30,32.352,32.613,32.118,32.194,16819054
2016-12-01,32.454,34.18,32.435,33.965,39771464
2016-12-02,33.797,33.843,32.91,33.013,24388964
2016-12-05,33.315,33.419,32.905,32.929,13183572
2016-12-06,33.07,33.137,32.9,33.053,12591977
2016-12-07,33.157,34.438,33.07,34.21,28243708
2016-12-08,34.107,34.361,33.966,34.324,15400156
2016-12-09,34.314,35.511,34.314,35.493,28042587
2016-12-12,35.351,35.568,34.881,34.965,16525563
2016-12-13,35.012,35.285,34.823,35.211,9683453
2016-12-14,34.21,34.663,33.862,33.88,21002107
2016-12-15,33.806,34.295,33.721,34.154,19326110
2016-12-16,34.305,34.314,34.023,34.277,25201584
2016-12-19,34.389,34.616,34.069,34.305,11628928
2016-12-20,34.305,34.616,34.144,34.502,9321745
2016-12-21,34.399,34.577,34.262,34.324,7076513
2016-12-22,34.202,34.305,33.579,33.637,10511516
2016-12-23,33.768,33.806,33.494,33.637,9776833
2016-12-27,33.739,33.862,33.456,33.494,6351224
2016-12-28,33.683,33.739,33.107,33.127,8910452
2016-12-29,33.221,33.438,33.097,33.117,4685554
2016-12-30,33.182,33.278,32.675,32.834,8112835
2017-01-03,32.967,33.522,32.834,33.127,11569296
2017-01-04,33.55,35.092,33.428,34.955,24775399
2017-01-05,34.881,34.917,33.989,34.295,16579047
2017-01-06,34.314,34.442,33.862,33.919,14044834
2017-01-09,34.04,34.433,33.796,33.937,16133113
2017-01-10,34.107,35.964,33.975,35.201,36924109
2017-01-11,35.379,35.917,35.077,35.765,20742207
2017-01-12,35.814,35.954,34.927,35.351,17856711
2017-01-13,35.389,35.595,35.012,35.191,9244957
2017-01-17,35.191,35.521,35.026,35.162,8726116
2017-01-18,35.295,35.417,34.983,35.315,11888759
2017-01-19,35.464,35.662,35.021,35.152,8751003
2017-01-20,35.265,35.265,34.645,34.881,14721329
2017-01-23,34.881,34.993,34.287,34.542,12311922
2017-01-24,34.587,35.097,34.569,34.871,12307863
2017-01-25,35.54,36.166,35.436,36.077,22007503
2017-01-26,35.908,36.048,35.221,35.359,11467507
2017-01-27,35.359,35.427,34.757,34.881,10850829
2017-01-30,34.72,34.777,34.05,34.239,12505804
2017-01-31,34.163,34.542,34.04,34.502,11331231
2017-02-01,34.569,34.975,33.796,34.06,14579874
2017-02-02,34.004,34.06,33.428,33.674,12479292
2017-02-03,33.853,34.239,33.627,34.239,14814834
2017-02-06,34.314,34.71,34.173,34.71,14758922
2017-02-07,33.692,33.89,32.797,33.08,41863100
2017-02-08,33.173,33.295,32.721,33.117,17895058
2017-02-09,33.251,33.362,33.003,33.063,15733965
2017-02-10,33.182,33.286,33.063,33.147,10951595
2017-02-13,33.344,33.494,33.157,33.476,10745614
2017-02-14,34.606,35.246,34.559,35.097,33295147
2017-02-15,34.823,34.975,34.493,34.945,16629421
2017-02-16,34.975,35.021,34.7,34.897,9930787
2017-02-17,34.672,35.719,34.314,35.077,16740864
2017-02-21,35.436,35.908,35.265,35.634,15398788
2017-02-22,35.709,35.913,35.62,35.662,9658411
2017-02-23,35.756,35.878,35.049,35.107,13943495
2017-02-24,34.748,35.049,34.465,34.777,13834714
2017-02-27,34.794,35.211,34.739,35.126,10708078
2017-02-28,35.012,35.077,34.447,34.72,11116473
2017-03-01,35.059,35.578,35.039,35.275,11337154
2017-03-02,35.221,35.908,35.107,35.586,15830504
2017-03-03,35.586,36.161,35.417,36.029,20698141
2017-03-06,35.794,36.331,35.059,35.728,21421177
2017-03-07,35.586,35.662,35.152,35.359,18282923
2017-03-08,35.331,35.881,35.331,35.484,11949120
2017-03-09,35.542,35.56,35.017,35.066,13341597
2017-03-10,35.324,35.404,35.008,35.066,19163300
2017-03-13,35.228,35.346,35.066,35.104,10624363
2017-03-14,34.989,35.194,34.922,35.189,6222500
2017-03-15,35.294,35.379,35.027,35.314,29503343
2017-03-16,35.314,35.341,35.008,35.304,13232917
2017-03-17,35.351,35.379,34.56,34.589,20587942
2017-03-20,34.618,34.703,33.894,33.999,40439072
2017-03-21,34.227,34.256,32.819,32.895,32448180
2017-03-22,32.666,32.952,32.332,32.741,19893006
2017-03-23,32.372,32.805,32.171,32.618,15266936
2017-03-24,32.751,33.389,32.447,32.904,17073335
2017-03-27,32.637,33.084,32.342,33.048,13577818
2017-03-28,32.998,34.513,32.998,33.857,31288472
2017-03-29,33.914,34.332,33.818,33.837,14575421
2017-03-30,33.799,34.075,33.623,33.713,9129144
2017-03-31,33.656,33.809,33.58,33.666,12361552
2017-04-03,33.637,33.704,32.181,32.532,33497672
2017-04-04,32.276,32.781,32.276,32.628,9973574
2017-04-05,32.961,32.99,32.362,32.372,11177978
2017-04-06,32.391,32.819,32.266,32.523,12768250
2017-04-07,32.4,32.562,32.086,32.095,15272423
2017-04-10,32.218,32.486,32.181,32.342,14496790
2017-04-11,32.457,32.457,31.976,32.296,10948952
2017-04-12,32.4,32.647,32.105,32.312,15453322
2017-04-13,32.161,32.286,31.771,31.79,9977602
2017-04-17,31.867,32.352,31.771,32.276,11273281
2017-04-18,32.105,32.205,31.88,32.076,7360412
2017-04-19,32.266,32.467,32.095,32.171,12989777
2017-04-20,32.322,32.866,32.276,32.467,12231952
2017-04-21,32.477,32.523,32,32.133,10169344
2017-04-24,32.427,32.513,32.018,32.286,13603335
2017-04-25,32.467,32.523,32.105,32.362,12118590
2017-04-26,32.381,33.266,32.322,32.733,15433235
2017-04-27,32.866,32.933,32.322,32.885,14561095
2017-04-28,33.389,33.6,32.771,32.98,17488660
2017-05-01,32.971,32.99,32.495,32.562,13431841
2017-05-02,32.457,32.695,31.247,31.61,25424466
2017-05-03,31.446,32.046,31.43,31.876,13245424
2017-05-04,32.037,32.056,31.39,31.561,13089470
2017-05-05,31.704,32.151,31.61,32.151,10654479
2017-05-08,32.227,32.608,32.181,32.342,12323076
2017-05-09,32.276,32.819,32.276,32.618,8857910
2017-05-10,32.608,32.809,32.447,32.591,8050836
2017-05-11,32.437,32.591,32.276,32.477,9500253
2017-05-12,32.312,32.508,31.676,32.01,13117924
2017-05-15,32.342,32.513,32.037,32.2,14269324
2017-05-16,32.276,32.362,31.757,31.819,14226893
2017-05-17,31.571,31.905,30.553,30.867,19568906
2017-05-18,30.685,31.105,30.667,30.914,14737149
2017-05-19,30.991,31.39,30.952,31.152,14702893
2017-05-22,31.39,31.657,31.171,31.343,19172855
2017-05-23,31.465,31.8,31.425,31.628,18458625
2017-05-24,31.61,31.809,31.42,31.61,11256869
2017-05-25,31.61,31.867,30.391,31.038,33969513
2017-05-26,30.809,31.485,30.694,31.485,17652176
2017-05-30,31.505,32.118,31.456,31.922,14623629
2017-05-31,32.095,32.342,31.876,32.306,17369496
2017-06-01,32.427,33.198,31.465,32.781,23796788
2017-06-02,32.704,32.876,32.332,32.799,12240249
2017-06-05,32.819,33.075,32.618,32.809,12482658
2017-06-06,32.686,32.828,32.467,32.781,12101712
2017-06-07,32.915,33.175,32.819,33.061,13523403
2017-06-08,32.616,32.945,32.579,32.838,11148807
2017-06-09,32.781,33.157,32.781,33.061,15428811
2017-06-12,32.945,33.522,32.945,33.387,14858991
2017-06-13,33.387,33.406,32.925,33.223,12551251
2017-06-14,33.253,33.349,32.877,33.319,10996955
2017-06-15,33.127,33.378,33.097,33.309,10571209
2017-06-16,33.299,33.309,32.66,33.011,16820472
2017-06-19,33.088,33.281,33.001,33.068,11655954
2017-06-20,33.061,33.233,32.877,33.117,8617994
2017-06-21,33.193,33.213,32.685,32.857,9481153
2017-06-22,32.781,33.061,32.598,32.915,9274351
2017-06-23,32.867,32.992,32.694,32.925,10634533
2017-06-26,32.992,33.358,32.905,33.233,12292349
2017-06-27,33.051,33.213,32.746,32.935,12108435
2017-06-28,33.281,33.454,33.175,33.29,11427784
2017-06-29,33.368,33.628,33.243,33.56,10604264
2017-06-30,33.666,33.743,33.474,33.628,7966604
2017-07-03,33.233,34.658,33.166,34.244,11338548
2017-07-05,34.244,34.253,33.579,33.705,11237619
2017-07-06,33.57,33.849,33.435,33.57,8885171
2017-07-07,33.695,33.738,33.474,33.637,8830199
2017-07-10,33.695,34.032,33.57,33.877,10954766
2017-07-11,33.877,34.138,33.83,34.08,10514813
2017-07-12,34.176,34.561,34.147,34.176,7810627
2017-07-13,34.176,34.774,34.128,34.523,14306121
2017-07-14,34.686,35.076,34.639,34.995,10624163
2017-07-17,35.023,35.177,34.85,35.023,11032269
2017-07-18,34.956,35.125,34.87,35.072,8009212
2017-07-19,35.023,35.177,34.946,35.111,8104279
2017-07-20,35.138,35.263,34.937,35.052,10522995
2017-07-21,34.705,34.764,34.378,34.725,9162265
2017-07-24,34.649,34.745,34.391,34.484,12053405
2017-07-25,34.599,34.821,34.176,34.244,15059596
2017-07-26,34.224,34.571,34.08,34.292,11156517
2017-07-27,34.196,34.649,34.061,34.599,10355719
2017-07-28,34.484,34.533,34.157,34.437,7823635
2017-07-31,34.484,34.946,34.455,34.639,14380475
2017-08-01,34.474,34.639,33.299,33.464,22416646
2017-08-02,33.349,33.685,33.329,33.522,9606873
2017-08-03,33.618,33.877,33.454,33.474,10763684
2017-08-04,33.656,34.128,33.464,33.955,9514120
2017-08-07,33.849,34.075,33.811,33.983,8574382
2017-08-08,33.983,34.494,33.917,34.07,9371230
2017-08-09,33.839,34.114,33.762,33.965,8579746
2017-08-10,33.887,33.983,33.57,33.579,9998860
2017-08-11,33.666,33.892,33.563,33.628,7082225
2017-08-14,33.849,34.234,33.743,34.147,7652035
2017-08-15,34.234,34.523,34.099,34.214,6246994
2017-08-16,34.321,34.437,34.196,34.417,7195581
2017-08-17,34.282,34.325,33.666,33.695,7455285
2017-08-18,33.599,33.752,33.319,33.531,7471072
2017-08-21,33.599,33.752,33.488,33.608,6227005
2017-08-22,33.695,34.099,33.666,33.983,8116843
2017-08-23,33.955,34.33,33.811,34.166,6679453
2017-08-24,34.311,34.398,34.128,34.196,5147368
2017-08-25,34.214,34.543,34.214,34.272,6922058
2017-08-28,34.35,34.446,33.979,34.186,8301548
2017-08-29,34.032,34.224,33.897,34.196,5733593
2017-08-30,34.214,34.503,34.09,34.484,7529529
2017-08-31,34.561,35.369,34.561,35.177,14094483
2017-09-01,35.359,36.342,35.283,35.967,18667722
2017-09-05,35.9,36.034,35.49,35.841,13230468
2017-09-06,36.111,36.332,35.937,36.266,12837554
2017-09-07,36.373,36.402,35.692,35.896,14732334
2017-09-08,35.789,36.022,35.614,35.983,8411652
2017-09-11,36.09,36.45,36.022,36.323,13870897
2017-09-12,36.383,36.956,36.323,36.848,11062994
2017-09-13,36.839,37.228,36.781,37.161,10908548
2017-09-14,37.141,38.104,37.063,37.724,18013718
2017-09-15,37.675,37.958,37.578,37.811,26067347
2017-09-18,37.831,37.909,37.49,37.53,12709404
2017-09-19,37.481,37.802,37.481,37.637,11871985
2017-09-20,37.792,37.928,37.627,37.811,12743062
2017-09-21,37.792,38.157,37.792,38.025,14200676
2017-09-22,38.221,38.453,38.104,38.337,13024837
2017-09-25,39.086,39.523,38.901,39.193,22150095
2017-09-26,39.222,39.504,39.076,39.153,14658441
2017-09-27,39.203,39.572,39.056,39.465,9975874
2017-09-28,39.367,39.465,39.26,39.465,9917338
2017-09-29,39.445,39.552,39.163,39.27,9171227
2017-10-02,39.883,41.313,39.679,40.991,34756428
2017-10-03,41.935,42.499,41.818,42.255,31909914
2017-10-04,42.158,42.733,42.013,42.576,13799634
2017-10-05,42.693,42.869,42.479,42.645,17099610
2017-10-06,42.83,43.929,42.791,43.696,21508721
2017-10-09,43.793,44.181,43.696,44.084,11232081
2017-10-10,44.046,44.084,43.627,43.967,14422069
2017-10-11,44.056,44.337,43.841,44.22,13725718
2017-10-12,43.734,44.181,42.936,43.656,16162494
2017-10-13,44.036,44.843,43.763,44.619,14324356
2017-10-16,44.512,44.6,44.103,44.502,9090052
2017-10-17,44.541,44.794,43.72,43.783,14468238
2017-10-18,44.036,44.337,43.793,43.88,11183035
2017-10-19,43.52,44.153,43.335,44.103,13255649
2017-10-20,44.25,44.474,43.9,44.357,12522964
2017-10-23,44.289,44.551,43.909,43.909,11059171
2017-10-24,44.648,45.474,44.464,45.203,28667913
2017-10-25,44.444,44.707,43.539,43.88,18567513
2017-10-26,43.949,44.387,43.86,44.006,9922456
2017-10-27,43.9,43.929,42.888,43.414,12210222
2017-10-30,41.818,42.606,41.098,42.178,24461515
2017-10-31,42.042,42.469,41.779,41.799,13613021
2017-11-01,41.546,42.178,40.748,41.945,15116416
2017-11-02,42.111,42.111,41.293,41.43,12345542
2017-11-03,41.43,41.556,41.031,41.177,10126892
2017-11-06,41.138,41.196,40.213,40.982,14573240
2017-11-07,40.991,41.245,40.447,40.554,9129097
2017-11-08,40.71,40.963,40.39,40.953,14620035
2017-11-09,40.885,40.996,40.477,40.953,9148397
2017-11-10,40.982,41.818,40.904,41.487,14497548
2017-11-13,41.43,42.432,41.38,42.372,12061538
2017-11-14,41.964,42.255,41.566,41.818,9699719
2017-11-15,41.556,41.858,40.943,41.682,14002901
2017-11-16,41.858,42.432,41.624,42.402,11565159
2017-11-17,42.335,42.927,42.29,42.674,10893565
2017-11-20,43.258,43.85,43.043,43.646,15506459
2017-11-21,43.832,43.938,43.432,43.734,12309070
2017-11-22,43.656,43.715,42.995,43.073,10114601
2017-11-24,43.228,43.316,43.025,43.238,3913429
2017-11-27,43.248,43.267,42.674,42.956,8895804
2017-11-28,43.131,43.841,42.928,43.686,16381340
2017-11-29,43.86,44.103,42.586,42.606,19976712
2017-11-30,42.791,43.307,41.527,41.906,33429476
2017-12-01,42.003,42.061,40.72,41.614,19869309
2017-12-04,42.013,42.228,41.736,41.867,14405185
2017-12-05,41.828,41.877,41.352,41.624,11607200
2017-12-06,41.4,41.517,40.982,40.991,13229678
2017-12-07,40.933,41.6,40.766,41.237,16762332
2017-12-08,41.472,41.512,41.065,41.237,13917634
2017-12-11,41.099,41.149,40.786,40.893,14365704
2017-12-12,40.874,40.991,40.492,40.756,8988834
2017-12-13,40.766,41.129,40.619,40.628,10158115
2017-12-14,40.609,40.668,39.941,40.05,9451501
2017-12-15,40.158,40.56,40.158,40.187,24930417
2017-12-18,40.501,41.532,40.482,41.374,22554575
2017-12-19,41.914,42.003,41.65,41.698,13492073
2017-12-20,41.944,41.983,41.6,41.728,8800468
2017-12-21,41.786,41.954,41.345,41.374,10336322
2017-12-22,41.512,41.522,41.031,41.237,4998107
2017-12-26,41.081,41.306,40.855,41.021,3433387
2017-12-27,40.982,41.071,40.53,40.54,5026466
2017-12-28,40.57,40.668,40.432,40.609,5099782
2017-12-29,40.746,40.817,40.226,40.226,6704377
2018-01-02,40.472,41.089,40.384,41.021,7056325
2018-01-03,41.424,42.15,41.414,42.022,14857208
2018-01-04,42.287,43.425,42.248,43.318,17625389
2018-01-05,43.671,43.809,43.141,43.19,9700678
2018-01-08,43.22,43.759,42.709,43.396,13348214
2018-01-09,43.485,43.759,42.925,43.229,7915382
2018-01-10,43.024,43.318,41.816,42.199,18624937
2018-01-11,42.473,43.445,42.35,43.367,11442133
2018-01-12,43.327,43.867,42.846,43.249,15178795
2018-01-16,44.26,44.672,42.934,43.367,20376955
2018-01-17,43.19,43.445,42.591,43.21,16138627
2018-01-18,43.357,43.367,42.827,43.042,12088137
2018-01-19,43.229,43.268,42.238,42.347,13797786
2018-01-22,42.355,42.611,42.022,42.483,19759552
2018-01-23,42.533,42.631,42.106,42.572,14333953
2018-01-24,42.69,43.573,42.641,43.337,11535969
2018-01-25,43.631,43.651,42.174,42.355,11238279
2018-01-26,42.513,42.753,42.189,42.68,8773399
2018-01-29,42.66,42.964,42.182,42.219,8331462
2018-01-30,42.032,42.415,41.728,41.904,8600714
2018-01-31,41.983,42.15,41.355,41.62,20111714
2018-02-01,41.335,41.806,41.169,41.64,9812661
2018-02-02,41.433,41.482,40.089,40.236,14245920
2018-02-05,40.216,40.893,38.774,38.803,19922589
2018-02-06,39.314,41.443,39.254,41.081,27500649
2018-02-07,41.021,42.748,40.874,41.6,19750800
2018-02-08,41.668,41.914,39.981,39.991,18370977
2018-02-09,40.394,41.188,39.481,40.688,19940816
2018-02-12,41.169,41.826,40.835,41.217,19743516
2018-02-13,40.923,41.286,40.599,40.628,9096331
2018-02-14,40.266,41.129,40.168,41.031,10464457
2018-02-15,41.277,41.424,40.624,41.071,9900142
2018-02-16,41.071,41.492,40.236,40.324,15143537
2018-02-20,40.01,40.56,40.01,40.01,7821400
2018-02-21,39.991,40.53,39.755,39.805,9257145
2018-02-22,39.903,40.432,39.745,40.148,8949126
2018-02-23,40.285,40.374,39.824,40.148,6541146
2018-02-26,40.314,40.845,40.01,40.766,9564258
2018-02-27,40.717,40.766,39.372,39.422,12980690
2018-02-28,38.882,39.402,38.582,38.617,23584649
2018-03-01,38.852,38.852,36.713,37.085,26680184
2018-03-02,36.772,36.909,35.909,36.732,24517315
2018-03-05,36.634,37.193,36.418,37.037,12239091
2018-03-06,37.311,37.37,36.841,37.223,12399494
2018-03-07,36.694,37.135,36.468,37.037,15337814
2018-03-08,37.314,37.602,36.898,37.513,13211008
2018-03-09,37.523,37.751,37.334,37.513,12379268
2018-03-12,37.542,37.661,37.255,37.503,11446261
2018-03-13,37.642,38.207,37.542,37.681,12514682
2018-03-14,38.147,38.276,37.324,37.364,13480652
2018-03-15,37.642,37.661,37.265,37.523,8211124
2018-03-16,37.592,37.82,37.364,37.612,10394955
2018-03-19,37.602,37.651,36.224,36.69,12208754
2018-03-20,36.809,36.938,36.422,36.571,8568902
2018-03-21,36.839,37.691,36.779,37.255,11669360
2018-03-22,36.908,37.007,35.956,36.036,15287276
2018-03-23,36.105,36.273,34.826,34.866,13349496
2018-03-26,35.629,35.738,34.98,35.679,9401563
2018-03-27,35.708,35.718,34.202,34.568,17827539
2018-03-28,34.707,35.48,34.598,35.163,18061961
2018-03-29,35.52,36.209,35.381,36.026,13163647
2018-04-02,35.788,35.946,34.925,35.451,14030423
2018-04-03,36.482,37.027,36.075,36.62,15971469
2018-04-04,35.699,37.8,35.639,37.701,17162509
2018-04-05,37.919,38.147,37.562,37.671,11989088
2018-04-06,37.632,37.83,36.878,37.354,14860039
2018-04-09,37.949,38.167,37.483,37.503,13548094
2018-04-10,38.266,39.01,38.058,38.732,15683050
2018-04-11,38.385,38.95,38.157,38.663,8462051
2018-04-12,38.93,39.148,38.435,38.494,7965295
2018-04-13,38.782,39.039,38.231,38.395,6172023
2018-04-16,38.633,39.078,38.335,38.831,5109062
2018-04-17,39.297,39.307,38.742,38.881,5508352
2018-04-18,38.901,39.327,38.564,38.593,6148559
2018-04-19,38.375,38.573,37.101,37.443,10319276
2018-04-20,37.423,37.681,37.027,37.285,8774418
2018-04-23,37.166,37.632,37.106,37.364,7372398
2018-04-24,37.602,37.84,37.215,37.602,9366789
2018-04-25,37.404,37.87,37.176,37.78,8052358
2018-04-26,37.265,37.949,36.511,37.919,16706900
2018-04-27,37.83,37.879,37.166,37.324,8735923
2018-04-30,37.552,37.741,36.422,36.422,12071733
2018-05-01,36.442,36.64,35.58,36.105,11480546
2018-05-02,36.164,36.383,35.837,35.887,9523054
2018-05-03,35.679,35.857,34.975,35.837,15879993
2018-05-04,35.837,36.462,35.56,36.392,6696933
2018-05-07,36.313,36.452,35.971,36.026,9277672
2018-05-08,36.065,36.293,35.798,36.016,8437390
2018-05-09,36.075,36.422,35.654,35.956,7675864
2018-05-10,36.145,36.898,36.105,36.839,6874201
2018-05-11,36.789,36.928,36.462,36.571,4899119
2018-05-14,36.739,36.749,36.244,36.313,6449131
2018-05-15,36.085,36.64,36.085,36.62,6563718
2018-05-16,36.65,37.711,36.647,37.701,8265346
2018-05-17,37.642,38.142,37.426,37.969,9656267
2018-05-18,37.939,38.068,37.394,37.463,5624953
2018-05-21,37.83,38.003,37.651,37.761,6282018
2018-05-22,38.246,38.435,37.924,37.949,7051445
2018-05-23,37.85,37.86,37.136,37.523,8871000
2018-05-24,37.671,38.256,37.567,38.058,8539973
2018-05-25,37.919,38.068,37.78,37.969,5293115
2018-05-29,37.681,37.721,36.948,37.057,12450271
2018-05-30,37.176,37.542,37.156,37.503,11924703
2018-05-31,41.29,42.4,40.913,42.331,60460470
2018-06-01,42.608,42.94,41.964,42.826,24675260
2018-06-04,42.866,43.471,42.787,43.401,13051886
2018-06-05,43.233,43.391,42.97,43.034,12123414
2018-06-06,43.282,43.619,42.985,43.55,18183400
2018-06-07,43.51,44.37,43.51,44.01,15330902
2018-06-08,43.98,44.33,43.92,44.25,8549271
2018-06-11,44.3,44.89,44.29,44.85,14061378
2018-06-12,44.86,44.95,44.1632,44.18,9933236
2018-06-13,44.12,44.46,43.83,44.45,11233122
2018-06-14,44.39,44.4,43.42,43.57,10109160
2018-06-15,43.28,45,42.76,43.91,23838541
2018-06-18,43.6,44.135,43.365,43.95,10806701
2018-06-19,43.07,43.19,41.88,42.26,18272914
2018-06-20,42.57,42.83,41.79,41.95,9536074
2018-06-21,41.14,41.84,40.805,41.12,13913342
2018-06-22,41.41,41.75,40.94,41.25,9565924
2018-06-25,41,41.2,40.21,40.61,10614782
2018-06-26,40.55,41.32,40.49,41.01,12818919
2018-06-27,41,41.32,40.35,40.37,9542858
2018-06-28,40.45,40.67,39.66,40.52,10173879
2018-06-29,40.67,40.8,39.37,39.4,14054913
2018-07-02,39.08,39.56,38.75,39.5,8608074
2018-07-03,39.71,39.8201,38.92,38.97,4975776
2018-07-05,39.61,40,39.21,39.47,8351381
2018-07-06,39.38,39.45,38.7,39.16,7897112
2018-07-09,39.38,40,39.05,39.75,8148976
2018-07-10,39.84,40.31,39.605,40.09,10140127
2018-07-11,39.5,39.6899,39.18,39.3,8840023
2018-07-12,39.6,39.64,39.01,39.27,8250386
2018-07-13,39.11,39.41,38.93,39.36,5152759
2018-07-16,39.31,39.595,39.17,39.56,7466380
2018-07-17,39.5,40.5,39.49,40.03,8806133
2018-07-18,40.06,40.29,39.56,39.87,9180945
2018-07-19,39.58,39.81,39.18,39.31,6778745
2018-07-20,39.07,39.415,38.86,39.4,10962057
2018-07-23,39.2,39.38,38.95,39.27,7687705
2018-07-24,39.87,39.98,39.26,39.48,10760097
2018-07-25,37.45,37.9,36.26,37.65,42414903
2018-07-26,37.07,37.55,36.6,36.75,16719360
2018-07-27,36.83,37.64,36.7743,37.53,12630087
2018-07-30,37.66,38.1,37.45,37.67,9460554
2018-07-31,37.79,38.19,37.7,37.91,16479316
2018-08-01,37.89,37.89,36.88,37.14,11179703
2018-08-02,37,37.05,36.345,36.62,13066127
2018-08-03,36.65,37.77,36.65,37.73,9375062
2018-08-06,37.57,37.69,37.35,37.6,5266992
2018-08-07,37.7,37.87,37.5,37.58,7652087
2018-08-08,37.61,37.93,37.285,37.66,6760543
2018-08-09,37.67,38.32,37.32,37.51,12413781
2018-08-10,37.32,37.36,36.47,36.59,9326184
2018-08-13,36.59,36.67,35.8746,36.16,15575398
2018-08-14,36.25,36.54,36.17,36.2,7326117
2018-08-15,35.82,35.95,35.21,35.94,10720393
2018-08-16,36.18,36.68,36.07,36.29,9414171
2018-08-17,36.08,36.57,35.91,36.38,7796688
2018-08-20,36.63,36.95,36.36,36.77,7072818
2018-08-21,36.75,37.07,36.74,36.91,10048476
2018-08-22,36.6,36.7199,36.095,36.13,8865649
