Date,Open,High,Low,Close,Volume
2013-12-12,43.557,44.824,43.452,43.964,34790965
2013-12-13,44.968,45.767,44.067,45.191,5843454
2013-12-16,47.177,53.063,44.004,44.004,4733373
2013-12-17,44.191,44.968,44.129,44.596,2324304
2013-12-18,44.639,45.355,44.295,44.639,2867859
2013-12-19,44.476,45.825,44.067,45.561,1474430
2013-12-20,46.008,46.112,44.7,44.845,998294
2013-12-23,45.008,45.373,44.088,44.088,1225273
2013-12-24,44.17,44.313,43.25,43.983,1238360
2013-12-26,44.088,44.907,44.067,44.372,1313840
2013-12-27,44.17,44.66,44.067,44.17,1094128
2013-12-30,44.415,44.928,44.17,44.763,874857
2013-12-31,44.987,45.945,44.886,45.498,1138318
2014-01-02,45.498,45.706,44.516,44.7,1769956
2014-01-03,44.575,45.173,44.476,45.008,462849
2014-01-06,44.968,45.231,44.497,44.987,1177324
2014-01-07,44.987,45.191,44.783,44.987,1999669
2014-01-08,45.048,45.048,44.575,45.048,1158331
2014-01-09,44.987,45.029,44.394,44.722,461277
2014-01-10,44.497,44.7,44.109,44.353,815385
2014-01-13,44.088,44.639,44.088,44.415,731009
2014-01-14,44.394,45.21,44.253,45.191,1256630
2014-01-15,45.089,45.334,44.639,44.804,918749
2014-01-16,44.783,45.048,44.353,44.907,1133981
2014-01-17,44.907,46.133,44.575,45.498,2712039
2014-01-21,46.008,46.194,44.66,44.824,1284662
2014-01-22,44.968,45.987,44.783,45.925,1433636
2014-01-23,45.863,46.337,45.191,46.337,939391
2014-01-24,45.706,45.965,45.173,45.904,894546
2014-01-27,45.904,45.904,44.763,44.968,1103469
2014-01-28,44.66,44.987,44.476,44.783,688793
2014-01-29,44.596,44.742,44.088,44.295,439411
2014-01-30,44.497,44.617,44.17,44.295,522087
2014-01-31,43.983,44.353,43.639,44.274,430218
2014-02-03,44.274,44.372,42.614,42.841,1118952
2014-02-04,42.942,43.109,42.614,43.003,838770
2014-02-05,42.633,42.862,42.022,42.534,697203
2014-02-06,42.614,43.348,42.576,43.348,295114
2014-02-07,43.475,44.722,43.39,44.274,514786
2014-02-10,44.313,44.353,43.557,43.779,564378
2014-02-11,44.435,44.516,43.883,44.353,644668
2014-02-12,44.455,44.886,44.212,44.763,438312
2014-02-13,44.536,45.029,44.274,44.886,553529
2014-02-14,44.987,45.089,44.7,44.987,650136
2014-02-18,44.987,44.987,44.435,44.497,618317
2014-02-19,44.497,44.886,43.964,44.025,442566
2014-02-20,43.964,44.313,43.578,43.943,604209
2014-02-21,43.964,45.373,43.904,45.292,1170172
2014-02-24,45.414,46.008,45.068,45.519,772619
2014-02-25,45.498,46.174,45.414,45.749,826049
2014-02-26,45.825,46.379,45.602,46.091,1075935
2014-02-27,45.728,46.744,44.575,45.987,2195668
2014-02-28,46.008,46.174,45.152,45.728,974052
2014-03-03,45.435,46.008,45.21,45.987,679337
2014-03-04,46.846,47.236,45.925,46.133,2315066
2014-03-05,45.945,46.808,45.904,46.561,671028
2014-03-06,46.561,46.744,45.806,45.965,684766
2014-03-07,45.844,46.683,45.806,46.442,644584
2014-03-10,46.542,46.725,45.456,45.767,925230
2014-03-11,45.787,45.925,44.987,45.21,838322
2014-03-12,45.068,45.806,44.516,45.706,791395
2014-03-13,45.456,45.863,44.907,45.089,996150
2014-03-14,44.907,45.519,44.722,45.048,611919
2014-03-17,45.21,45.787,45.173,45.231,370556
2014-03-18,45.191,46.194,45.11,46.154,680181
2014-03-19,46.048,46.069,45.313,45.519,736068
2014-03-20,45.498,45.844,45.21,45.334,654994
2014-03-21,45.54,47.012,45.292,47.012,3037567
2014-03-24,46.908,47.217,45.925,46.542,969550
2014-03-25,46.579,46.828,45.965,45.965,784770
2014-03-26,46.008,46.154,45.581,45.685,784747
2014-03-27,45.621,46.048,45.334,45.456,673119
2014-03-28,45.334,45.767,44.886,45.498,2080281
2014-03-31,45.685,45.863,44.987,45.477,4914009
2014-04-01,45.435,46.421,45.414,46.112,1056206
2014-04-02,46.008,46.4,45.904,45.945,1065270
2014-04-03,46.008,46.174,45.029,45.029,962708
2014-04-04,45.048,45.089,44.088,44.149,2776964
2014-04-07,44.17,44.233,43.475,43.701,696705
2014-04-08,43.659,43.757,43.23,43.68,688562
2014-04-09,43.822,44.274,43.72,43.983,867840
2014-04-10,43.904,44.109,43.024,43.308,529838
2014-04-11,43.146,43.72,42.862,43.452,763066
2014-04-14,43.538,44.191,43.168,43.659,517220
2014-04-15,43.983,43.983,42.942,43.72,486682
2014-04-16,43.496,44.212,43.411,44.17,525803
2014-04-17,44.046,44.7,43.557,44.516,807972
2014-04-21,44.415,44.415,43.701,43.883,499876
2014-04-22,43.861,44.415,43.822,43.983,513528
2014-04-23,43.923,44.274,43.68,43.943,471761
2014-04-24,44.088,44.313,43.883,43.964,303372
2014-04-25,43.964,44.004,43.432,43.618,205617
2014-04-28,43.639,43.822,43.045,43.701,627939
2014-04-29,44.212,44.332,42.881,43.126,1297346
2014-04-30,43.369,44.678,43.25,44.639,924406
2014-05-01,44.554,45.252,43.861,45.152,702990
2014-05-02,45.152,46.359,45.068,45.089,994511
2014-05-05,44.865,45.373,44.617,45.313,412286
2014-05-06,45.191,45.561,44.783,45.313,685550
2014-05-07,46.786,46.992,45.191,46.337,1041690
2014-05-08,46.542,46.744,46.133,46.297,1217158
2014-05-09,48.526,48.668,46.579,47.177,3473214
2014-05-12,47.951,48.154,46.359,46.992,1592285
2014-05-13,47.236,47.477,46.808,47.033,1102387
2014-05-14,47.033,47.156,45.581,46.112,1195901
2014-05-15,46.215,46.215,44.295,44.783,1827747
2014-05-16,44.987,45.11,43.84,44.722,1233121
2014-05-19,44.783,45.008,44.415,44.804,973815
2014-05-20,44.845,44.968,43.701,43.779,1363958
2014-05-21,43.964,44.987,43.861,44.678,1879330
2014-05-22,44.66,45.089,44.66,44.968,1005904
2014-05-23,45.54,45.685,45.008,45.089,529629
2014-05-27,45.355,45.664,44.886,45.477,1168873
2014-05-28,45.642,46.069,44.987,45.008,1057863
2014-05-29,45.11,45.394,44.742,45.355,735490
2014-05-30,45.252,46.316,45.252,46.255,1277012
2014-06-02,46.255,46.704,45.806,46.579,1206650
2014-06-03,46.379,46.846,45.883,46.442,1489769
2014-06-04,46.276,46.929,46.194,46.561,668013
2014-06-05,46.561,47.135,46.215,47.074,882032
2014-06-06,47.074,47.77,46.463,47.604,1239633
2014-06-09,47.646,47.951,46.908,47.625,1239596
2014-06-10,47.646,48.403,47.359,47.911,1356569
2014-06-11,47.012,47.177,46.316,46.642,3683946
2014-06-12,46.194,46.683,45.844,45.965,1822192
2014-06-13,45.904,46.112,45.334,45.581,2081463
2014-06-16,45.602,46.521,45.008,45.414,2622942
2014-06-17,45.394,46.091,45.394,45.685,1248119
2014-06-18,45.602,45.925,45.456,45.706,1405242
2014-06-19,45.767,46.174,45.602,45.664,1303775
2014-06-20,45.925,45.925,45.519,45.519,1650530
2014-06-23,45.749,46.008,45.414,45.685,1581590
2014-06-24,45.685,46.828,45.621,46.008,5487902
2014-06-25,46.828,47.604,46.579,46.95,27430619
2014-06-26,46.887,47.074,46.6,46.744,7599309
2014-06-27,46.908,47.236,46.421,46.642,6886707
2014-06-30,46.621,47.709,46.482,47.646,3216622
2014-07-01,47.625,48.505,47.519,48.32,5027689
2014-07-02,48.056,48.891,47.892,48.79,3312250
2014-07-03,48.79,50.712,48.79,50.712,5501235
2014-07-07,50.304,50.53,49.895,50.098,3768104
2014-07-08,49.895,49.916,49.055,49.465,2941455
2014-07-09,49.688,50.651,49.403,50.551,2842702
2014-07-10,49.669,50.551,49.628,50.141,1875211
2014-07-11,49.096,50.141,49.096,49.73,1389295
2014-07-14,50.223,50.795,49.895,50.017,2403160
2014-07-15,49.996,50.551,49.916,50.244,1924932
2014-07-16,50.325,50.509,49.772,50.264,1320330
2014-07-17,49.954,50.509,49.075,49.223,3203247
2014-07-18,49.567,50.244,49.364,50.204,1826874
2014-07-21,49.996,50.977,49.996,50.774,2390277
2014-07-22,50.897,51.652,50.612,51.388,2029961
2014-07-23,51.243,52.326,51.202,52.167,3083998
2014-07-24,52.146,52.798,51.61,51.713,3357539
2014-07-25,51.512,52.229,51.264,51.693,923436
2014-07-28,51.693,52.125,51.304,51.61,1147398
2014-07-29,51.838,51.898,50.977,51.082,1692473
2014-07-30,51.43,51.777,49.975,50.467,3045680
2014-07-31,49.937,50.284,49.096,49.506,2727937
2014-08-01,50.098,50.204,47.338,49.669,4689560
2014-08-04,49.709,49.856,48.953,49.445,1671124
2014-08-05,49.324,49.485,48.056,48.505,2787491
2014-08-06,48.077,48.237,47.437,47.951,2942614
2014-08-07,48.32,48.996,48.237,48.422,2247117
2014-08-08,48.505,48.83,47.892,48.484,1586246
2014-08-11,48.974,49.607,48.77,49.201,812287
2014-08-12,49.016,49.445,48.77,49.303,692042
2014-08-13,49.506,50.264,49.223,50.079,1195230
2014-08-14,50.223,50.591,50.079,50.57,927444
2014-08-15,50.857,51.019,49.876,50.444,1229042
2014-08-18,50.692,51.141,50.444,51.102,1076794
2014-08-19,51.141,51.631,50.937,51.346,1102681
2014-08-20,51.141,52.083,50.998,52.019,1640015
2014-08-21,51.938,52.429,51.878,52.229,1224211
2014-08-22,52.146,52.656,52.104,52.429,950255
2014-08-25,52.449,52.596,51.999,52.596,1308687
2014-08-26,52.553,52.737,52.209,52.449,965200
2014-08-27,52.491,53.001,52.429,52.675,1297426
2014-08-28,52.368,52.675,52.019,52.47,1373812
2014-08-29,52.47,52.574,51.53,51.777,5299868
2014-09-02,52.188,52.798,51.43,52.062,1351088
2014-09-03,52.265,52.429,51.572,51.693,2220215
2014-09-04,51.898,52.512,51.285,51.817,1598957
2014-09-05,51.859,52.964,51.43,52.675,1611692
2014-09-08,52.491,52.737,52.284,52.512,584329
2014-09-09,52.347,52.717,51.938,52.167,1525993
2014-09-10,52.248,52.284,51.572,51.693,1764159
2014-09-11,50.551,51.53,50.423,50.795,3307772
2014-09-12,50.672,50.815,49.588,49.895,2585445
2014-09-15,49.895,50.059,49.262,49.343,1706893
2014-09-16,49.223,50.551,49.096,50.402,1908518
2014-09-17,50.488,51.367,50.383,51.141,2669460
2014-09-18,51.202,51.493,50.488,50.57,1775162
2014-09-19,50.732,50.815,50.264,50.612,2267276
2014-09-22,50.591,50.774,50.183,50.732,2206147
2014-09-23,50.57,50.774,50.402,50.488,2160396
2014-09-24,50.591,50.815,50.264,50.509,1542501
2014-09-25,50.444,50.467,49.876,50.098,2205289
2014-09-26,50.119,50.774,49.813,50.753,1893802
2014-09-29,50.362,50.63,50.037,50.204,1422941
2014-09-30,50.141,50.591,49.73,50.362,2645816
2014-10-01,50.183,50.304,48.526,49.075,3830899
2014-10-02,49.075,49.343,48.403,49.037,2143748
2014-10-03,49.465,49.856,49.262,49.73,663533
2014-10-06,50.467,50.712,49.303,49.506,2120770
2014-10-07,49.075,49.485,48.77,49.037,1431526
2014-10-08,49.138,49.223,48.174,48.911,1808930
2014-10-09,49.201,49.324,47.73,47.791,2242355
2014-10-10,47.667,47.73,46.482,46.561,2648254
2014-10-13,46.683,46.808,45.008,45.068,4266618
2014-10-14,45.498,45.844,44.212,45.048,3018795
2014-10-15,43.779,45.292,42.372,44.191,5607313
2014-10-16,43.452,45.706,43.23,44.7,5384338
2014-10-17,45.825,47.498,45.825,46.642,3249532
2014-10-20,46.704,48.382,46.6,48.3,2329841
2014-10-21,49.075,50.162,49.037,50.119,2232582
2014-10-22,50.325,50.444,48.911,49.096,1734993
2014-10-23,49.813,50.017,48.811,49.159,1349868
2014-10-24,49.016,49.649,48.568,49.567,763891
2014-10-27,49.567,49.688,48.609,49.445,928851
2014-10-28,49.526,50.325,49.075,49.813,2393145
2014-10-29,50.059,50.63,49.688,50.223,1641740
2014-10-30,49.856,51.551,49.688,51.141,2107200
2014-10-31,51.798,52.449,50.712,51.61,3475490
2014-11-03,50.815,52.284,50.692,51.631,2782496
2014-11-04,50.444,50.732,49.895,50.304,24704512
2014-11-05,50.63,51.325,50.402,51.202,7325518
2014-11-06,51.162,51.53,50.977,51.222,3874734
2014-11-07,51.472,51.53,50.732,51.061,2387725
2014-11-10,51.141,51.493,50.958,51.409,2516009
2014-11-11,51.388,51.735,51.222,51.551,2894735
2014-11-12,51.53,51.878,50.897,51.777,2187536
2014-11-13,51.938,52.188,50.998,51.878,2886335
2014-11-14,51.938,52.798,51.591,52.777,4439757
2014-11-17,52.389,52.675,51.859,51.978,1573808
2014-11-18,51.978,52.656,51.798,52.368,1844594
2014-11-19,52.188,52.533,51.838,52.188,1348192
2014-11-20,52.083,52.265,51.346,52.041,2435368
2014-11-21,52.656,52.675,52.146,52.188,2754719
2014-11-24,52.491,53.023,52.41,52.757,2048148
2014-11-25,52.737,53.495,52.675,53.474,2269856
2014-11-26,53.412,53.535,52.981,53.206,1311163
2014-11-28,53.474,53.882,53.454,53.617,753696
2014-12-01,53.433,53.555,51.999,51.999,2718465
2014-12-02,52.284,52.533,52.125,52.167,2634719
2014-12-03,52.125,53.125,52.125,53.044,2239668
2014-12-04,52.964,53.617,52.656,53.165,4519217
2014-12-05,53.352,54.11,53.352,54.025,2268650
2014-12-08,53.945,54.169,53.576,53.861,1063960
2014-12-09,53.104,53.715,52.326,53.638,1538046
2014-12-10,53.454,54.007,53.063,53.145,1461207
2014-12-11,53.454,54.25,53.433,53.694,1596795
2014-12-12,53.596,53.694,52.861,52.901,1717662
2014-12-15,53.248,53.433,51.652,51.777,4527644
2014-12-16,51.304,51.631,50.591,50.591,4327847
2014-12-17,50.916,51.938,50.223,51.735,2937171
2014-12-18,52.41,52.922,51.959,52.901,2355245
2014-12-19,53.044,53.576,52.635,53.535,3033734
2014-12-22,53.535,53.882,53.084,53.165,1827248
2014-12-23,53.516,53.694,53.227,53.372,1855925
2014-12-24,53.269,53.882,53.185,53.596,563864
2014-12-26,53.82,54.11,53.715,53.736,315649
2014-12-29,53.617,53.638,53.044,53.391,1192379
2014-12-30,53.269,53.638,53.125,53.352,827377
2014-12-31,53.391,54.068,53.311,53.352,1119462
2015-01-02,53.576,53.715,52.104,53.044,1798028
2015-01-05,52.656,52.861,51.121,51.325,2119558
2015-01-06,51.222,51.243,49.813,50.857,3434620
2015-01-07,51.472,51.878,50.958,51.673,2247244
2015-01-08,52.125,53.206,51.959,53.104,2105797
2015-01-09,53.104,53.227,52.449,52.574,2068452
2015-01-12,52.533,52.533,51.817,52.041,1676527
2015-01-13,53.084,53.675,51.817,52.449,2906068
2015-01-14,51.859,53.023,51.45,53.023,1969565
2015-01-15,53.104,53.165,52.265,52.347,1162084
2015-01-16,52.062,52.922,51.878,52.882,1290447
2015-01-20,52.922,53.044,52.083,52.717,1496038
2015-01-21,52.553,53.165,52.146,52.922,1187934
2015-01-22,53.165,54.885,52.901,54.682,2683321
2015-01-23,54.764,55.006,54.229,54.312,1498493
2015-01-26,54.333,55.088,54.169,55.027,1621524
2015-01-27,54.452,54.785,53.694,54.129,1404027
2015-01-28,54.661,55.027,53.987,54.089,3149657
2015-01-29,53.987,54.271,53.433,53.945,2712605
2015-01-30,53.576,53.987,53.023,53.104,1687726
2015-02-02,53.165,53.474,52.248,53.412,3080307
2015-02-03,53.576,54.354,53.332,54.333,1693099
2015-02-04,54.598,54.722,53.535,53.84,2354369
2015-02-05,53.799,54.944,53.799,54.944,1191143
2015-02-06,55.19,55.722,53.861,53.903,4559969
2015-02-09,53.924,54.598,53.576,54.169,2408856
2015-02-10,54.923,56.17,54.743,56.15,3194210
2015-02-11,56.17,58.665,56.069,57.581,6639742
2015-02-12,58.014,58.547,57.48,58.151,4078885
2015-02-13,58.587,59.181,58.173,58.425,3190321
2015-02-17,58.425,59.099,57.954,58.587,2806958
2015-02-18,57.975,58.628,57.034,58.361,4500904
2015-02-19,58.361,58.665,57.975,57.975,2539768
2015-02-20,57.581,58.298,57.48,57.975,1920296
2015-02-23,57.664,57.811,56.971,57.093,2186734
2015-02-24,57.013,57.257,56.6,56.826,2525542
2015-02-25,56.887,57.195,56.706,57.093,2699142
2015-02-26,57.174,57.339,56.478,57.278,2975305
2015-02-27,57.257,57.851,57.257,57.811,2314279
2015-03-02,57.933,59.12,57.79,59.035,2037837
2015-03-03,58.973,59.856,58.235,59.856,4147415
2015-03-04,59.628,59.649,58.277,59.221,4547932
2015-03-05,59.242,59.975,59.181,59.361,1941646
2015-03-06,58.891,59.099,57.706,57.748,2674310
2015-03-09,58.071,58.071,57.48,57.831,1812933
2015-03-10,56.992,57.501,56.6,57.073,2946799
2015-03-11,56.992,57.501,56.887,57.339,2886990
2015-03-12,57.706,58.912,57.706,57.893,2322650
2015-03-13,57.811,58.09,57.195,57.561,4012639
2015-03-16,57.831,59.502,57.831,59.261,2632644
2015-03-17,59.099,59.302,58.684,59.078,1731558
2015-03-18,58.993,59.975,58.587,59.915,1592380
2015-03-19,59.692,60.344,59.628,60.239,1699576
2015-03-20,60.607,60.755,59.814,59.936,3339146
2015-03-23,59.975,60.734,59.649,60.258,2039597
2015-03-24,60.139,60.57,59.628,60.279,3192584
2015-03-25,60.218,60.239,58.684,58.786,3682789
2015-03-26,58.382,60.08,58.173,59.67,4971921
2015-03-27,59.544,61.121,59.383,60.834,4760317
2015-03-30,61.162,61.469,60.344,60.586,2538751
2015-03-31,60.508,61.039,60.197,60.57,5127971
2015-04-01,60.734,60.734,59.481,59.877,2315997
2015-04-02,59.975,60.755,59.915,60.039,3473337
2015-04-06,59.814,60.796,59.75,60.57,3112040
2015-04-07,60.755,60.755,59.649,59.692,1725063
2015-04-08,61.509,62.43,60.975,62.388,5756912
2015-04-09,62.125,63.798,61.653,63.596,4212595
2015-04-10,63.615,64.086,62.756,63.289,2834859
2015-04-13,62.388,62.983,62.146,62.33,1602992
2015-04-14,62.289,62.33,61.448,61.897,1340138
2015-04-15,62.246,62.756,61.775,61.775,1372506
2015-04-16,61.754,62.225,60.855,61.06,1976807
2015-04-17,60.549,61.039,60.159,60.529,1773909
2015-04-20,60.734,61.696,60.65,61.06,1905455
2015-04-21,61.386,61.837,61.081,61.571,1446163
2015-04-22,61.386,61.937,60.895,61.386,1574940
2015-04-23,61.386,62.289,61.203,61.977,1423663
2015-04-24,62.388,62.573,61.837,61.917,964318
2015-04-27,62.204,62.756,60.57,60.607,2149043
2015-04-28,60.713,61.081,59.71,60.197,2883029
2015-04-29,62.246,64.62,60.57,60.855,6080358
2015-04-30,60.508,60.796,58.547,59.221,3883634
2015-05-01,59.67,61.162,59.34,60.996,2473759
2015-05-04,61.018,61.346,59.955,60.101,1504695
2015-05-05,59.936,60.06,59.056,59.383,1413590
2015-05-06,59.502,59.771,58.87,59.425,1679901
2015-05-07,59.502,60.447,59.444,60.279,1536162
2015-05-08,61.203,62.268,60.876,61.551,2047177
2015-05-11,60.755,61.039,60.489,60.713,12743540
2015-05-12,60.447,60.692,60.039,60.178,3105374
2015-05-13,60.279,60.489,59.425,59.523,2901319
2015-05-14,60.159,60.855,59.73,60.323,6263939
2015-05-15,60.607,61.018,60.197,60.323,5029186
2015-05-18,60.258,60.607,60.178,60.344,3463508
2015-05-19,60.508,60.876,60.344,60.508,2394096
2015-05-20,60.489,60.713,59.856,60.57,2094125
2015-05-21,60.586,60.586,59.814,59.877,9952011
2015-05-22,59.856,60.139,59.461,60.018,3629681
2015-05-26,60.65,60.755,59.481,59.649,3019949
2015-05-27,59.936,60.386,59.523,60.178,3206520
2015-05-28,59.975,60.279,59.425,60.139,3106172
2015-05-29,59.955,60.12,59.202,59.221,4482744
2015-06-01,59.502,59.936,59.302,59.649,3472213
2015-06-02,59.383,59.814,59.321,59.692,2880037
2015-06-03,60.018,60.428,59.814,59.896,3373084
2015-06-04,59.425,60.344,59.34,59.856,2545207
2015-06-05,59.936,60.159,59.692,60.101,3087298
2015-06-08,60.06,60.139,58.665,58.807,7114117
2015-06-09,58.891,59.792,58.87,59.67,4952973
2015-06-10,59.607,59.955,58.526,58.628,5580130
2015-06-11,59.014,59.181,58.568,58.891,3804538
2015-06-12,58.587,58.849,58.052,58.488,3888572
2015-06-15,58.256,59.078,58.052,58.11,7144192
2015-06-16,58.014,58.214,57.237,57.317,7363669
2015-06-17,57.257,57.46,56.419,57.114,12427135
2015-06-18,57.278,58.628,57.278,57.997,18551605
2015-06-19,57.831,58.34,57.379,57.438,6754631
2015-06-22,57.831,58.404,57.379,57.397,5430045
2015-06-23,57.36,57.685,56.95,57.46,4919044
2015-06-24,57.438,57.954,57.114,57.216,2986702
2015-06-25,57.397,57.748,57.013,57.237,4342198
2015-06-26,57.317,57.893,56.866,57.417,12702900
2015-06-29,56.743,57.237,55.825,55.886,4066237
2015-06-30,56.339,56.579,55.929,56.339,2738982
2015-07-01,56.887,57.317,56.561,56.805,2662281
2015-07-02,57.278,57.438,56.457,56.805,1655222
2015-07-06,56.499,57.296,56.011,56.846,2693674
2015-07-07,56.846,57.073,56.011,56.95,3040496
2015-07-08,56.52,56.561,55.396,55.64,3138595
2015-07-09,56.255,56.764,55.722,55.783,2814905
2015-07-10,56.54,57.296,56.318,57.034,3396510
2015-07-13,57.727,57.997,57.501,57.602,3268628
2015-07-14,57.706,58.11,57.541,58.031,2319762
2015-07-15,58.173,58.319,57.48,57.541,2600304
2015-07-16,58.13,58.256,57.664,57.769,2782436
2015-07-17,57.933,58.173,57.417,57.811,2524423
2015-07-20,57.811,58.071,57.48,57.914,1906483
2015-07-21,57.581,57.706,57.073,57.296,2804880
2015-07-22,57.237,57.438,56.929,57.237,1998862
2015-07-23,57.195,57.237,54.743,55.314,7169916
2015-07-24,55.417,55.477,53.82,54.864,5904649
2015-07-27,54.25,54.785,53.694,54.188,4684713
2015-07-28,54.392,54.864,53.82,54.169,4097781
2015-07-29,55.294,57.073,55.108,56.664,9450261
2015-07-30,56.401,56.579,54.229,54.271,7598552
2015-07-31,54.844,55.314,54.129,54.903,4420002
2015-08-03,55.148,55.148,54.025,54.25,2416613
2015-08-04,54.169,54.577,53.269,53.495,3708659
2015-08-05,53.576,54.619,52.389,52.717,8809731
2015-08-06,52.617,52.617,51.45,52.533,7651082
2015-08-07,52.533,53.104,51.999,52.981,4418290
2015-08-10,53.391,53.715,53.206,53.596,4233339
2015-08-11,53.227,53.638,52.757,53.001,2933302
2015-08-12,52.944,53.104,51.813,52.981,3123925
2015-08-13,53.023,53.269,52.447,52.981,2708250
2015-08-14,52.819,52.964,52.06,52.531,2191962
2015-08-17,52.429,53.414,52.227,53.352,1917087
2015-08-18,53.435,53.435,52.882,52.981,1209959
2015-08-19,52.861,53.206,52.324,52.717,2114122
2015-08-20,52.123,52.263,51.056,51.178,3254193
2015-08-21,50.544,51.117,50.072,50.235,2972833
2015-08-24,47.406,50.051,42.914,48.595,3296263
2015-08-25,50.397,50.523,48.265,48.265,5667771
2015-08-26,49.475,50.072,48.265,49.886,3283405
2015-08-27,50.481,51.299,49.785,51.014,4374364
2015-08-28,50.605,51.426,50.357,51.343,2158165
2015-08-31,51.259,51.607,50.707,50.909,2131631
2015-09-01,49.867,50.46,49.086,49.414,2142410
2015-09-02,49.987,50.195,49.496,50.01,2214640
2015-09-03,50.153,51.385,50.051,50.687,2828813
2015-09-04,49.826,50.728,49.598,50.439,3511704
2015-09-08,51.32,52.06,51.138,51.975,2450009
2015-09-09,52.429,52.777,51.813,52.081,4207274
2015-09-10,52.081,52.675,51.586,52.206,3906804
2015-09-11,51.916,52.51,51.731,52.468,2346224
2015-09-14,52.429,52.675,52.039,52.227,2527214
2015-09-15,52.227,52.227,50.93,51.28,6699178
2015-09-16,51.447,52.468,51.364,52.227,3559986
2015-09-17,52.227,53.104,52.039,52.123,2202009
2015-09-18,50.871,50.871,49.086,49.128,6751265
2015-09-21,49.414,49.929,49.107,49.272,2729857
2015-09-22,48.595,48.758,47.877,48.555,3016679
2015-09-23,48.431,48.654,47.817,47.898,3156651
2015-09-24,47.777,48.063,47.16,47.547,3424212
2015-09-25,47.817,47.877,47.016,47.343,2960981
2015-09-28,47.037,47.12,45.047,45.191,3795619
2015-09-29,45.373,45.602,44.573,44.905,2989417
2015-09-30,45.313,47.037,45.11,47.037,4735659
2015-10-01,47.16,49.128,47.139,48.143,7976001
2015-10-02,47.465,48.514,46.77,48.348,16826076
2015-10-05,48.637,49.191,48.535,49.128,2936832
2015-10-06,49.272,49.556,48.595,48.779,2054673
2015-10-07,48.901,50.09,48.799,49.64,3080617
2015-10-08,49.577,51.526,49.313,51.035,3396410
2015-10-09,51.077,51.794,50.644,51.69,2794625
2015-10-12,51.626,52.227,51.447,51.71,1812372
2015-10-13,51.117,51.855,50.85,51.259,2815400
2015-10-14,51.138,51.488,49.966,50.072,2677819
2015-10-15,50.502,50.748,48.942,50.605,4077398
2015-10-16,50.111,50.481,49.212,49.661,3179430
2015-10-19,49.577,49.987,49.354,49.556,1997073
2015-10-20,49.764,51.117,49.682,51.097,2584126
2015-10-21,51.364,52.018,50.214,50.336,2134655
2015-10-22,50.85,52.165,50.687,51.71,3247999
2015-10-23,51.077,51.813,50.255,50.357,5187181
2015-10-26,50.378,51.546,50.295,51.259,2369390
2015-10-27,51.299,52.901,50.439,51.896,4743903
2015-10-28,53.393,53.863,50.03,51.447,8577688
2015-10-29,50.85,51.69,50.235,51.567,2738390
2015-10-30,51.586,51.773,50.892,51.238,1806720
2015-11-02,51.607,52.263,51.28,51.855,2285278
2015-11-03,51.648,52.717,51.117,52.429,2889339
2015-11-04,52.635,52.696,51.752,52.102,2221696
2015-11-05,52.018,53.063,51.896,52.635,1776482
2015-11-06,52.696,53.332,52.206,52.572,1515510
2015-11-09,52.263,52.447,51.385,52.165,1968248
2015-11-10,52.123,52.757,51.936,52.696,1925721
2015-11-11,52.964,53.104,52.429,52.489,1590374
2015-11-12,51.956,52.018,51.28,51.508,2147679
2015-11-13,51.28,51.406,49.886,50.072,2521849
2015-11-16,49.619,49.661,47.547,48.88,10497166
2015-11-17,49.254,49.331,47.24,47.465,6613242
2015-11-18,47.568,48.103,47.037,47.998,5663380
2015-11-19,48.183,48.472,47.758,48.183,2294333
2015-11-20,48.758,49.107,47.877,48.224,2117635
2015-11-23,48.286,49.331,48.286,48.472,1808817
2015-11-24,47.503,48.328,47.382,48.224,2826773
2015-11-25,48.286,48.637,47.795,47.997,2445233
2015-11-27,47.834,48.101,47.714,47.915,904599
2015-11-30,47.896,48.04,47.135,47.756,2449903
2015-12-01,48.122,48.576,47.714,48.514,1903153
2015-12-02,48.41,48.472,47.587,47.896,2064728
2015-12-03,48.882,49.007,46.354,46.972,2992541
2015-12-04,47.217,47.735,46.95,47.401,2122694
2015-12-07,47.442,47.607,46.065,46.619,2935195
2015-12-08,45.614,46.516,45.489,46.313,1982908
2015-12-09,46.169,46.866,44.708,44.708,5305446
2015-12-10,44.957,45.656,44.77,45.426,3761214
2015-12-11,44.77,45.017,44.216,44.832,3618300
2015-12-14,44.503,44.996,43.001,43.759,5506512
2015-12-15,44.257,44.666,43.802,43.885,3434930
2015-12-16,44.298,48.758,44.113,46.169,9281347
2015-12-17,47.033,47.052,45.447,45.489,3470331
2015-12-18,45.282,46.002,43.966,44.133,3733108
2015-12-21,44.278,44.503,43.641,43.945,4105198
2015-12-22,43.906,45.221,43.759,44.75,4913026
2015-12-23,44.77,45.489,44.133,45.324,3587423
2015-12-24,45.282,45.489,44.852,44.977,715758
2015-12-28,44.895,45.183,44.32,44.791,1495401
2015-12-29,45.057,45.2,44.446,44.812,1265719
2015-12-30,44.561,44.996,44.359,44.42,1600847
2015-12-31,44.378,44.936,43.998,44.008,1684397
2016-01-04,43.601,43.742,42.469,43.369,3504529
2016-01-05,43.39,43.906,43.022,43.39,2210508
2016-01-06,42.631,42.754,40.799,41.13,6948257
2016-01-07,40.351,40.778,39.362,39.588,13011021
2016-01-08,40.058,40.718,39.342,39.382,3428536
2016-01-11,39.608,40.392,39.074,39.566,4261510
2016-01-12,39.96,40.44,39.525,40.224,3494581
2016-01-13,40.077,40.287,38.026,38.128,5011463
2016-01-14,37.2,37.901,36.207,37.837,5808610
2016-01-15,36.627,36.812,35.619,36.502,5855444
2016-01-19,36.854,36.998,34.839,35.599,3529946
2016-01-20,35,37.118,33.233,36.481,8556607
2016-01-21,36.46,38.334,36.417,37.756,7632575
2016-01-22,38.375,38.803,37.008,37.572,4060366
2016-01-25,37.552,37.797,35.559,35.823,4182868
2016-01-26,36.176,38.11,35.947,38.026,4450379
2016-01-27,37.695,38.047,36.595,36.854,3535545
2016-01-28,37.346,37.367,35.204,35.331,4613955
2016-01-29,35.518,36.627,35.309,36.627,4166188
2016-02-01,36.544,37.129,36.031,36.935,2880964
2016-02-02,36.356,36.356,35.143,35.539,3474828
2016-02-03,35.76,36.01,34.119,35.802,3017889
2016-02-04,35.457,37.325,35.373,37.2,3498106
2016-02-05,37.079,37.241,35.886,36.197,3367209
2016-02-08,35.781,36.258,35.122,35.947,5057266
2016-02-09,35.781,37.493,35.415,36.278,3621247
2016-02-10,36.46,37.725,36.439,37.179,3412973
2016-02-11,36.356,36.977,36.051,36.708,5593580
2016-02-12,37.221,38.334,37.008,38.128,4200968
2016-02-16,38.747,39.321,37.963,39.055,3859044
2016-02-17,39.279,40.699,39.279,40.513,4672125
2016-02-18,40.371,41.07,39.156,40.33,4242380
2016-02-19,40.119,41.026,39.259,40.882,5244055
2016-02-22,41.459,42.137,40.203,40.924,3411016
2016-02-23,40.821,41.758,40.678,40.882,2861165
2016-02-24,40.513,41.006,39.546,40.903,3411018
2016-02-25,40.986,41.705,40.44,41.54,2656553
2016-02-26,43.703,44.091,41.644,42.569,6231777
2016-02-29,42.569,42.796,41.429,42.732,5185820
2016-03-01,43.144,43.496,42.428,43.085,2990214
2016-03-02,43.106,44.008,43.085,43.987,3139792
2016-03-03,43.906,44.543,43.682,44.399,2248328
2016-03-04,44.582,45.027,44.153,45.017,2758158
2016-03-07,44.791,45.12,44.237,44.338,2565755
2016-03-08,43.966,44.071,43.022,43.064,2865796
2016-03-09,43.308,43.411,42.198,42.712,2333444
2016-03-10,43.001,43.106,41.355,42.177,2568355
2016-03-11,42.754,43.722,42.035,43.722,2789524
2016-03-14,44.503,44.687,43.759,43.822,4007685
2016-03-15,43.496,43.661,43.022,43.432,2031945
2016-03-16,43.288,43.947,43.041,43.804,3053192
2016-03-17,43.62,43.887,42.815,43.824,2335173
2016-03-18,44.115,45.642,44.115,45.411,4115837
2016-03-21,45.642,46.629,45.517,46.241,4796022
2016-03-22,45.642,46.158,45.331,45.967,4416589
2016-03-23,45.946,46.074,45.002,45.268,2708465
2016-03-24,45.063,45.538,44.671,45.538,3891646
2016-03-28,45.827,46.343,44.816,45.967,2994904
2016-03-29,45.988,46.426,45.611,46.343,3004426
2016-03-30,46.712,47.004,46.178,46.9,3083002
2016-03-31,46.921,47.228,46.384,46.47,1911518
2016-04-01,45.517,45.706,44.324,45.411,7275044
2016-04-04,45.475,46.032,45.084,45.787,2197310
2016-04-05,45.331,45.391,44.722,45.063,3258648
2016-04-06,45.002,45.927,44.629,45.906,3114495
2016-04-07,45.496,45.787,45.205,45.6,3186946
2016-04-08,46.137,46.671,45.827,46.009,2747628
2016-04-11,46.283,46.818,45.988,46.009,2493746
2016-04-12,46.629,47.158,46.198,46.343,4437541
2016-04-13,46.486,47.086,46.262,47.046,2826325
2016-04-14,47.19,47.475,46.839,46.859,2247805
2016-04-15,46.671,46.942,45.957,46.405,2419355
2016-04-18,46.384,46.486,45.664,45.865,3365634
2016-04-19,45.906,46.323,45.559,46.032,2423182
2016-04-20,46.198,46.219,45.227,45.227,5963445
2016-04-21,45.433,46.426,45.433,45.642,4228583
2016-04-22,45.496,45.885,44.362,44.671,4767705
2016-04-25,44.754,45.433,44.754,44.857,3823104
2016-04-26,44.857,45.063,43.783,44.65,5175186
2016-04-27,44.32,46.426,44.218,45.967,4094627
2016-04-28,45.787,46.775,45.517,45.885,3996785
2016-04-29,45.846,45.946,45.148,45.496,2899482
2016-05-02,45.787,45.946,45.268,45.906,3101393
2016-05-03,45.433,46.074,45.351,45.806,3149585
2016-05-04,45.433,45.816,45.169,45.475,4335660
2016-05-05,45.579,45.946,45.32,45.475,1752257
2016-05-06,45.127,45.664,44.878,45.454,2438166
2016-05-09,45.411,45.728,45.063,45.685,2102067
2016-05-10,46.009,47.291,45.496,47.126,4062468
2016-05-11,46.818,47.097,45.806,45.967,3997740
2016-05-12,46.053,46.178,44.733,45.248,3247625
2016-05-13,45.063,45.664,44.281,44.362,2859872
2016-05-16,44.465,45.084,44.301,44.899,2139242
2016-05-17,44.733,45.31,44.404,44.878,3896041
2016-05-18,44.565,45.127,43.211,43.637,5582169
2016-05-19,42.289,42.766,41.918,42.683,8029409
2016-05-20,42.724,43.056,42.437,42.516,3102922
2016-05-23,42.437,43.014,42.332,42.683,3859146
2016-05-24,42.952,43.418,42.395,43.14,2852029
2016-05-25,43.159,43.637,42.416,43.387,4627562
2016-05-26,43.449,43.47,42.332,42.437,2578228
2016-05-27,42.495,43.14,42.437,42.952,2276269
2016-05-31,43.035,43.262,42.558,43.014,3369515
2016-06-01,43.014,43.408,42.931,43.343,1693548
2016-06-02,43.387,44.981,43.18,44.733,4765988
2016-06-03,44.545,45.023,43.977,44.959,6910243
2016-06-06,45.023,45.708,44.959,45.561,5488365
2016-06-07,45.602,45.779,45.127,45.188,2037854
2016-06-08,45.27,45.466,44.463,44.959,2708742
2016-06-09,44.754,44.919,44.298,44.713,1682853
2016-06-10,44.216,44.237,43.491,43.84,2488015
2016-06-13,43.779,44.402,43.576,43.84,2498186
2016-06-14,43.533,44.029,43.491,43.757,2824868
2016-06-15,43.987,45.466,43.883,44.878,4437772
2016-06-16,44.607,45.127,43.914,45.002,3578775
2016-06-17,45.002,46.553,45.002,46.513,4992331
2016-06-20,47.01,48.19,46.949,47.937,6216790
2016-06-21,47.898,47.958,47.114,47.34,3972495
2016-06-22,47.547,48.001,47.198,47.34,2587049
2016-06-23,47.958,48.851,47.716,48.501,5202564
2016-06-24,46.452,47.3,45.002,45.229,8138263
2016-06-27,44.774,44.774,43.18,43.738,6437039
2016-06-28,44.422,44.899,43.738,44.545,3714835
2016-06-29,45.148,46.99,45.148,46.142,5630952
2016-06-30,46.347,46.656,45.829,46.635,4383902
2016-07-01,46.74,47.463,46.74,47.361,1951587
2016-07-05,47.114,47.236,45.91,46.327,2231399
2016-07-06,46.163,46.74,45.889,46.719,2360621
2016-07-07,46.823,47.63,46.782,47.279,3394859
2016-07-08,47.88,48.339,47.758,48.293,1706409
2016-07-11,48.643,48.789,48.375,48.564,1798410
2016-07-12,49.039,49.554,48.872,49.185,5505408
2016-07-13,49.142,49.227,48.065,48.893,3287829
2016-07-14,49.286,49.492,48.956,49.079,1422468
2016-07-15,48.809,49.472,48.564,49.248,1836726
2016-07-18,49.286,49.785,49.185,49.659,3123433
2016-07-19,48.956,49.744,48.704,49.45,3291763
2016-07-20,49.744,50.011,49.267,49.681,3244732
2016-07-21,49.513,50.572,49.388,49.617,4223151
2016-07-22,49.617,50.423,49.388,50.383,3681280
2016-07-25,50.321,50.551,49.492,49.554,3045914
2016-07-26,49.472,49.744,49.307,49.409,4366942
2016-07-27,49.059,49.267,47.88,47.958,8011863
2016-07-28,47.799,47.819,46.823,47.382,5237366
2016-07-29,47.217,48.065,47.114,48.001,5361881
2016-08-01,47.92,48.375,47.651,48.272,2382413
2016-08-02,47.98,48.396,46.761,47.34,2408856
2016-08-03,47.135,47.88,46.698,47.257,3289628
2016-08-04,47.257,47.858,47.092,47.779,2354139
2016-08-05,48.086,48.726,47.958,48.543,1947967
2016-08-08,48.643,49.638,48.564,49.307,3802299
2016-08-09,49.185,49.723,48.83,49.018,6324514
2016-08-10,49.1,49.368,48.46,48.768,3845626
2016-08-11,48.998,49.43,48.83,48.977,4935277
2016-08-12,48.789,49.534,48.704,49.492,3476957
2016-08-15,49.659,49.947,49.286,49.929,2908277
2016-08-16,49.867,50.551,49.633,50.444,3354545
2016-08-17,50.444,50.551,50.092,50.402,7195482
2016-08-18,50.3,50.53,50.113,50.134,6528954
2016-08-19,49.926,50.197,49.803,50.176,2330973
2016-08-22,50.072,50.28,49.884,50.134,1285350
2016-08-23,50.24,50.498,50.072,50.092,1916168
2016-08-24,50.092,50.456,49.699,50.176,2179258
2016-08-25,50.072,50.26,49.803,50.24,1561963
2016-08-26,50.155,50.488,49.552,49.865,2425073
2016-08-29,49.845,50.197,49.783,49.824,1895188
2016-08-30,49.945,50.051,49.138,49.366,4545568
2016-08-31,48.868,49.772,48.868,49.552,2701840
2016-09-01,49.945,49.945,48.993,49.345,4623897
2016-09-02,49.075,49.72,49.055,49.281,1440558
2016-09-06,49.281,49.366,48.691,49.055,1338528
2016-09-07,49.075,49.324,48.951,49.096,1427219
2016-09-08,49.013,49.223,48.495,48.598,1964277
2016-09-09,48.163,48.348,47.114,47.188,4297012
2016-09-12,46.813,48.058,46.709,47.85,3739465
2016-09-13,47.352,47.871,47.28,47.602,2789076
2016-09-14,47.581,48.224,47.167,48.016,2922572
2016-09-15,47.831,48.328,47.831,47.953,2090746
2016-09-16,47.791,48.122,47.644,47.81,2313734
2016-09-19,47.995,48.265,47.665,47.791,1650748
2016-09-20,48.016,48.707,47.974,48.391,2534957
2016-09-21,48.37,48.454,47.549,48.391,4305985
2016-09-22,48.619,49.13,48.579,48.93,2001843
2016-09-23,48.659,49.201,48.619,48.993,1494441
2016-09-26,48.558,48.721,47.581,47.644,3031024
2016-09-27,47.728,48.047,47.644,47.871,1759854
2016-09-28,48.037,48.183,47.209,47.454,6261204
2016-09-29,47.332,47.953,47.041,47.373,4840686
2016-09-30,47.433,47.995,47.323,47.602,2767109
2016-10-03,47.623,47.922,47.363,47.496,1718590
2016-10-04,47.707,47.831,47.167,47.395,3455135
2016-10-05,47.352,47.581,47.081,47.209,2407676
2016-10-06,47.228,47.373,46.534,46.772,3055023
2016-10-07,46.793,47.06,46.356,46.563,1563923
2016-10-10,46.834,47.644,46.772,47.395,3329285
2016-10-11,47.27,47.395,46.709,46.813,3517112
2016-10-12,46.854,47.352,46.709,47.228,2984865
2016-10-13,46.666,47.465,46.169,47.167,3265013
2016-10-14,47.332,47.911,47.27,47.517,4604156
2016-10-17,47.352,47.781,47.188,47.228,2422535
2016-10-18,47.665,47.995,47.395,47.81,2271489
2016-10-19,48.016,48.433,47.81,47.953,1900098
2016-10-20,47.953,48.101,47.385,47.749,3458771
2016-10-21,47.539,47.974,47.228,47.56,2682650
2016-10-24,48.827,49.324,47.539,47.623,9776844
2016-10-25,47.312,47.56,46.98,47.188,3511559
2016-10-26,45.898,46.542,45.672,46.335,7478191
2016-10-27,45.257,46.419,45.257,46.19,5130549
2016-10-28,46.232,46.542,45.858,46.19,3621434
2016-10-31,46.917,47.123,46.645,46.917,5449479
2016-11-01,47.228,47.228,45.981,46.583,3035290
2016-11-02,46.583,47.102,46.232,46.296,3809975
2016-11-03,46.523,47.228,46.19,46.253,3382361
2016-11-04,46.211,47.27,46.211,46.896,4428833
2016-11-07,47.433,47.623,47.209,47.56,3151928
2016-11-08,46.978,48.872,46.707,48.519,4278236
2016-11-09,48.061,49.414,47.228,49.164,4188713
2016-11-10,49.121,49.268,48.632,48.851,10366935
2016-11-11,48.956,49.414,48.789,49.372,3577362
2016-11-14,49.538,51.017,49.248,50.643,6558959
2016-11-15,50.643,51.101,50.517,50.996,3849303
2016-11-16,50.829,51.578,50.829,51.121,4138689
2016-11-17,51.121,51.383,50.664,51.162,4935594
2016-11-18,51.183,51.308,50.694,50.85,3280943
2016-11-21,51.081,51.329,50.902,51.287,3804838
2016-11-22,51.414,51.787,51.308,51.745,2978434
2016-11-23,51.724,52.184,51.371,52.121,3351556
2016-11-25,52.265,52.996,52.204,52.703,1071793
2016-11-28,52.412,52.61,51.642,51.663,5339299
2016-11-29,51.83,52.328,51.578,51.663,5029522
2016-11-30,51.642,52.339,51.308,52.204,5106144
2016-12-01,52.453,52.849,52.015,52.496,8619222
2016-12-02,52.39,52.827,52.287,52.6,4412228
2016-12-05,53.744,54.431,53.287,54.329,8849539
2016-12-06,54.493,54.848,54.161,54.786,7851566
2016-12-07,54.889,56.796,54.682,56.307,8483865
2016-12-08,56.328,56.889,54.525,54.64,5776910
2016-12-09,54.93,55.869,54.682,55.223,3547134
2016-12-12,54.786,54.973,53.568,54.119,6577886
2016-12-13,54.368,55.057,54.244,54.93,4084118
2016-12-14,55.035,55.994,54.766,55.557,7029140
2016-12-15,56.18,57.036,55.828,56.868,7436195
2016-12-16,57.015,57.411,56.596,57.326,7984269
2016-12-19,57.369,58.035,57.201,57.679,10143309
2016-12-20,57.806,58.2,57.534,57.763,6445502
2016-12-21,57.952,58.2,57.658,57.742,5054711
2016-12-22,57.827,58.056,56.958,57.159,3351932
2016-12-23,57.036,57.264,56.848,56.994,1512619
2016-12-27,57.284,57.491,56.952,57.116,3101530
2016-12-28,57.305,57.39,56.265,56.328,5310995
2016-12-29,56.494,56.828,56.117,56.743,1356142
2016-12-30,56.743,56.952,56.286,56.638,2181053
2017-01-03,57.411,57.514,56.222,57.036,3279571
2017-01-04,56.439,58.858,56.439,57.127,5700465
2017-01-05,57.187,57.542,55.986,56.458,5200362
2017-01-06,56.322,56.695,55.385,56.605,3410049
2017-01-09,56.439,56.439,55.63,56.102,3981632
2017-01-10,56.102,56.142,54.941,55.179,3436337
2017-01-11,54.921,55.464,54.872,55.159,2824005
2017-01-12,55.266,55.454,54.173,54.567,7491213
2017-01-13,54.736,55.395,54.646,55.375,3105287
2017-01-17,55.474,55.474,54.843,55.246,2872021
2017-01-18,55.286,56.092,55.174,56.092,2898138
2017-01-19,56.625,57.04,56.42,56.635,4265552
2017-01-20,56.675,57.207,56.675,56.834,2090002
2017-01-23,56.843,56.971,56.332,56.882,2350579
2017-01-24,57.137,57.425,56.843,57.227,1885415
2017-01-25,57.227,58.055,57.227,57.897,2024270
2017-01-26,58.161,58.38,57.793,57.867,3035313
2017-01-27,57.987,58.107,57.59,57.669,1356396
2017-01-30,57.365,57.503,56.764,57.167,1745747
2017-01-31,56.902,57.088,56.7,56.715,2308602
2017-02-01,57.058,57.237,56.371,56.488,3746353
2017-02-02,56.665,56.824,56.272,56.439,2660121
2017-02-03,56.468,56.952,56.439,56.932,1373938
2017-02-06,56.695,57.35,56.527,56.853,1736474
2017-02-07,57.107,57.365,56.764,56.942,2092899
2017-02-08,56.853,57.552,56.605,57.385,1040669
2017-02-09,57.474,58.036,57.315,57.758,1499370
2017-02-10,57.957,57.957,57.6,57.808,1209159
2017-02-13,57.987,58.28,57.758,57.967,1639915
2017-02-14,57.907,58.021,57.542,57.59,2352680
2017-02-15,57.542,58.941,56.635,58.567,4788175
2017-02-16,58.644,59.582,58.25,58.35,3193259
2017-02-17,58.141,58.141,57.187,57.62,2804772
2017-02-21,57.768,57.768,57.107,57.147,2089448
2017-02-22,57.001,57.266,56.734,56.981,2620543
2017-02-23,57.217,57.335,56.257,56.351,1639533
2017-02-24,56.458,57.137,56.322,56.912,1534141
2017-02-27,56.902,57.227,56.546,57.147,1417292
2017-02-28,57.167,57.305,56.192,56.342,2674993
2017-03-01,57.021,57.315,56.655,56.834,2795744
2017-03-02,56.655,57.46,56.482,57.295,2878963
2017-03-03,56.853,56.917,55.62,56.882,3343657
2017-03-06,56.575,56.733,56.112,56.449,1831813
2017-03-07,56.361,56.361,55.454,55.789,2430709
2017-03-08,56.223,56.283,55.572,55.591,2744901
2017-03-09,55.61,55.908,55.098,55.147,1626980
2017-03-10,55.374,55.799,55.245,55.779,2473908
2017-03-13,55.799,56.807,55.719,56.797,1834704
2017-03-14,56.627,56.747,56.363,56.577,1841157
2017-03-15,56.737,57.64,56.667,57.429,2018604
2017-03-16,57.489,58.069,57.349,57.489,1600550
2017-03-17,57.863,57.918,57.116,57.201,1286095
2017-03-20,57.201,57.364,56.597,56.787,1012366
2017-03-21,57.171,57.625,55.928,55.987,2177427
2017-03-22,55.918,57.111,55.689,56.984,1533669
2017-03-23,57.091,58.074,56.984,57.595,2021980
2017-03-24,57.645,58.061,57.319,57.585,1080061
2017-03-27,57.161,57.309,56.617,57.131,2604286
2017-03-28,57.201,58.367,56.837,57.943,1895005
2017-03-29,57.713,58.227,57.625,57.883,1568579
2017-03-30,57.893,58.701,57.873,58.042,1990149
2017-03-31,57.933,58.447,57.635,57.733,2312620
2017-04-03,57.151,57.723,56.343,56.905,3314357
2017-04-04,56.697,56.817,56.054,56.363,2215977
2017-04-05,56.597,56.974,55.982,56.044,2343289
2017-04-06,56.283,56.412,55.835,56.393,1121165
2017-04-07,56.373,56.373,55.216,55.898,3104715
2017-04-10,56.637,56.837,56.173,56.47,2684303
2017-04-11,56.637,56.827,56.233,56.767,1386765
2017-04-12,56.905,56.915,56.451,56.707,1953850
2017-04-13,56.677,57.042,56.393,56.402,2156011
2017-04-17,56.627,56.767,56.243,56.617,1990464
2017-04-18,56.393,56.687,55.542,56.153,1751805
2017-04-19,56.46,56.647,55.955,56.213,1964197
2017-04-20,56.383,57.131,55.582,56.875,5282812
2017-04-21,56.925,56.925,56.441,56.637,1212966
2017-04-24,57.279,57.449,57.051,57.319,2177727
2017-04-25,57.479,58.003,57.399,57.813,1346674
2017-04-26,57.655,60.261,57.556,59.847,4558998
2017-04-27,59.986,59.986,59.137,59.492,1716669
2017-04-28,59.611,59.621,57.684,58.237,3263519
2017-05-01,58.661,59.304,58.167,58.583,2993827
2017-05-02,60.697,61.052,59.215,60.727,4249160
2017-05-03,60.687,61.102,60.006,60.243,2502755
2017-05-04,60.391,60.53,59.373,59.747,2345384
2017-05-05,59.927,60.361,59.917,60.311,2638271
2017-05-08,60.311,60.637,59.752,59.927,2030681
2017-05-09,61.032,62.622,60.875,61.556,3606855
2017-05-10,61.536,61.775,60.971,61.496,1974323
2017-05-11,61.18,61.735,60.893,61.586,1362419
2017-05-12,61.476,61.685,61.225,61.476,1175565
2017-05-15,61.616,62.121,61.486,61.991,2146474
2017-05-16,62.061,62.239,61.536,61.804,2136262
2017-05-17,61.2,61.26,60.405,60.685,1783042
2017-05-18,60.685,62.18,60.348,61.814,2262152
2017-05-19,62.17,63.408,61.986,63.209,2614643
2017-05-22,63.14,64.665,63.03,64.596,3680478
2017-05-23,64.842,65.725,64.258,64.832,4062529
2017-05-24,65.11,65.625,64.447,64.822,3057328
2017-05-25,65.1,65.442,64.477,64.477,2794580
2017-05-26,64.507,64.892,64.288,64.684,1459256
2017-05-30,64.606,65.042,64.477,64.882,1115740
2017-05-31,65.19,65.916,64.694,65.802,3436549
2017-06-01,66.041,66.822,65.655,65.971,2022223
2017-06-02,66.298,66.861,65.857,66.734,1599250
2017-06-05,66.991,67.111,66.298,66.316,1615398
2017-06-06,65.911,66.041,64.892,65.1,2019712
2017-06-07,65.1,65.606,64.763,65.486,2686872
2017-06-08,64.606,64.842,64.011,64.367,8263297
2017-06-09,64.694,65.2,63.378,64.101,8060960
2017-06-12,65.645,65.792,64.596,65.19,10265846
2017-06-13,65.477,66.021,65.357,65.782,5138706
2017-06-14,65.951,66.19,65.219,65.586,7462031
2017-06-15,65.15,66.316,64.872,66.18,4556863
2017-06-16,66.596,66.616,65.735,65.744,33549117
2017-06-19,65.921,66.636,65.635,66.17,4407006
2017-06-20,66.366,66.396,65.032,65.219,4072467
2017-06-21,65.635,65.685,64.626,64.942,4037521
2017-06-22,64.793,64.812,64.239,64.546,2650042
2017-06-23,64.447,64.902,64.11,64.743,3142418
2017-06-26,64.723,64.892,64.327,64.576,1753845
2017-06-27,64.397,64.447,62.779,62.814,3305394
2017-06-28,63.16,63.428,62.536,62.724,2633382
2017-06-29,62.615,62.704,61.041,61.626,3703860
2017-06-30,62.021,62.279,61.2,61.23,3592035
2017-07-03,61.358,61.456,60.68,60.695,1987369
2017-07-05,60.695,61.18,60.131,60.893,3718727
2017-07-06,60.408,60.923,60.012,60.467,2955348
2017-07-07,60.596,61.387,60.413,61.14,4469888
2017-07-10,61.14,61.665,61.011,61.576,4168077
2017-07-11,61.27,61.981,61.2,61.834,5908084
2017-07-12,62.17,62.339,61.22,61.31,2468756
2017-07-13,61.416,61.755,61.16,61.456,1798218
2017-07-14,61.339,61.911,61.131,61.824,3501599
2017-07-17,61.775,62.249,61.556,61.991,1407230
2017-07-18,61.931,62.269,61.705,61.863,2242137
2017-07-19,61.814,62.021,61.466,61.496,1828652
2017-07-20,61.486,61.606,60.893,61.387,2132275
2017-07-21,61.26,61.863,61.22,61.844,1890213
2017-07-24,61.873,62.16,61.368,61.387,1942886
2017-07-25,61.695,62.496,61.101,62.447,3748878
2017-07-26,63.259,64.011,61.407,61.893,6641317
2017-07-27,62.2,62.2,61.131,61.931,2911740
2017-07-28,61.606,62.121,61.606,61.834,1196776
2017-07-31,62.18,62.239,61.665,61.902,2089061
2017-08-01,62.249,62.714,61.814,62.141,2686178
2017-08-02,62.061,62.942,60.665,61.358,2208075
2017-08-03,61.476,62.021,61.378,61.506,1977738
2017-08-04,61.626,62.496,61.516,62.349,2909679
2017-08-07,62.704,63.229,62.388,63.13,3277984
2017-08-08,62.209,62.269,61.121,61.456,2881009
2017-08-09,61.14,61.175,60.373,60.755,3014230
2017-08-10,60.378,60.794,60.042,60.388,2249182
2017-08-11,60.308,60.942,60.16,60.685,1699914
2017-08-14,61.25,61.32,60.705,61.131,2434706
2017-08-15,61.349,61.775,61.001,61.586,2043249
2017-08-16,61.825,62.281,61.626,61.962,2165906
2017-08-17,61.556,61.912,60.217,60.355,2708423
2017-08-18,60.255,61.06,60.078,60.594,2674728
2017-08-21,60.743,61.426,60.633,61.309,1700170
2017-08-22,61.407,62.881,61.329,62.837,1834235
2017-08-23,62.409,62.916,62.241,62.638,1295898
2017-08-24,62.985,63.233,62.361,62.429,1456894
2017-08-25,62.677,63.223,62.528,62.995,1375517
2017-08-28,63.233,63.283,62.439,62.687,1529482
2017-08-29,62.341,62.518,62.052,62.409,1809864
2017-08-30,62.449,64.305,62.331,63.829,2086415
2017-08-31,63.838,64.265,63.541,63.838,2819434
2017-09-01,64.206,64.374,63.789,64.097,1282916
2017-09-05,63.928,63.968,62.419,63.114,2720248
2017-09-06,63.313,63.511,62.807,63.183,1507095
2017-09-07,63.392,63.68,63.044,63.402,1529642
2017-09-08,63.402,64.84,63.253,64.643,2572041
2017-09-11,65.169,65.791,65.089,65.446,2624435
2017-09-12,65.476,65.744,65.159,65.566,1222701
2017-09-13,65.366,66.343,65.326,66.171,1877844
2017-09-14,66.092,66.211,65.406,66.012,1740127
2017-09-15,65.952,66.378,65.566,66.122,2419028
2017-09-18,66.082,66.299,65.822,66.052,2223976
2017-09-19,66.052,66.558,65.705,66.378,1992390
2017-09-20,66.508,66.84,66.132,66.528,1451916
2017-09-21,66.478,67.004,66.308,66.825,1187465
2017-09-22,66.825,67.847,66.668,67.67,2088685
2017-09-25,67.67,68.82,67.46,68.186,2262898
2017-09-26,68.552,68.989,68.275,68.969,2785317
2017-09-27,69.158,69.207,68.161,68.582,1945269
2017-09-28,68.503,69.019,68.443,68.829,1496676
2017-09-29,68.423,68.919,67.912,68.919,7116875
2017-10-02,68.721,69.158,68.632,68.899,2924826
2017-10-03,68.959,68.979,68.196,68.333,2513250
2017-10-04,68.343,68.503,68.076,68.383,1920876
2017-10-05,68.413,69.078,68.275,68.839,2320023
2017-10-06,68.829,69.168,68.672,68.949,2002879
2017-10-09,68.969,69.435,68.924,69.128,1368746
2017-10-10,69.267,69.435,68.979,69.385,1812835
2017-10-11,69.465,69.813,69.297,69.683,3027259
2017-10-12,69.614,69.961,69.307,69.842,2107776
2017-10-13,70.041,70.835,69.862,70.617,2344029
2017-10-16,70.547,70.71,70.081,70.587,1918627
2017-10-17,70.497,70.676,70.179,70.676,1561170
2017-10-18,70.993,70.993,70.339,70.517,2188351
2017-10-19,70.408,70.577,69.793,70.557,2187207
2017-10-20,70.755,70.775,69.976,70.497,1740243
2017-10-23,70.725,70.725,69.852,69.882,1413420
2017-10-24,70.249,70.617,70.021,70.597,3228027
2017-10-25,70.617,70.864,70.269,70.775,2631887
2017-10-26,71.549,72.373,70.358,71.926,3343978
2017-10-27,71.252,72.254,71.043,71.361,2937531
2017-10-30,71.252,72.264,71.152,72.094,2591275
2017-10-31,72.194,72.294,71.698,71.728,2708948
2017-11-01,72.373,72.522,71.817,71.886,1885571
2017-11-02,72.412,72.75,71.341,71.886,1939371
2017-11-03,71.827,72.61,71.773,72.6,1666143
2017-11-06,72.83,72.89,72.83,72.83,1362945
2017-11-07,72.84,73.196,71.996,72.055,1822963
2017-11-08,72.114,72.89,71.808,72.344,1484806
2017-11-09,71.847,72.204,71.152,71.5,2344283
2017-11-10,71.668,72.274,71.083,72.134,2134003
2017-11-13,71.896,72.164,71.698,72.065,1833812
2017-11-14,71.38,72.412,71.321,72.354,1824520
2017-11-15,71.976,73.116,71.638,72.82,2896538
2017-11-16,73.337,73.894,72.87,73.605,1839444
2017-11-17,73.635,74.022,73.541,73.694,2457637
2017-11-20,73.754,74.211,73.635,73.894,1153219
2017-11-21,74.341,75.792,74.331,75.216,2889367
2017-11-22,75.285,75.703,74.768,75.255,1412075
2017-11-24,75.355,75.474,75.047,75.335,473102
2017-11-27,75.335,75.733,75.246,75.574,1402685
2017-11-28,75.624,76.101,75.325,75.703,1898220
2017-11-29,75.703,76.469,75.604,76.131,1885044
2017-11-30,76.141,77.354,75.703,77.125,2559085
2017-12-01,76.837,77.483,75.822,76.817,2176763
2017-12-04,77.592,78.179,77.085,77.225,2362561
2017-12-05,77.265,77.871,77.17,77.195,1501905
2017-12-06,77.314,77.423,76.201,76.32,1429635
2017-12-07,76.399,76.956,76.171,76.847,2267128
2017-12-08,77.175,77.955,77.065,77.94,2102600
2017-12-11,77.722,77.862,76.812,77.035,1598724
2017-12-12,77.135,77.145,76.498,76.568,2259226
2017-12-13,76.787,77.185,76.31,76.32,2158378
2017-12-14,76.658,76.658,75.584,75.594,1749320
2017-12-15,76.011,76.936,75.852,76.658,3715337
2017-12-18,77.055,78.129,76.946,77.652,2287954
2017-12-19,77.95,78.019,77.195,77.374,1457155
2017-12-20,77.483,78.189,77.125,77.911,1335308
2017-12-21,78.049,79.503,78.049,78.926,2058674
2017-12-22,78.936,79.253,78.806,78.906,1424272
2017-12-26,78.956,79.513,78.816,78.926,914800
2017-12-27,79.014,79.93,78.876,79.7,944519
2017-12-28,79.73,80.087,79.551,80,833639
2017-12-29,80.337,80.487,79.393,79.413,1548386
2018-01-02,79.83,79.89,78.487,79.233,1711117
2018-01-03,79.363,80.442,79.173,80.397,1433608
2018-01-04,80.407,80.774,79.78,79.8,1556899
2018-01-05,79.79,79.79,78.467,78.846,2286389
2018-01-08,79.85,80.605,79.083,80.487,2497145
2018-01-09,80.654,81.61,80.517,81.471,1362415
2018-01-10,81.201,81.65,80.934,81.191,1755378
2018-01-11,81.521,82.748,81.181,82.605,3908298
2018-01-12,82.783,84.235,82.634,83.479,1880641
2018-01-16,84.096,84.513,82.515,82.932,1430905
2018-01-17,82.435,84.036,82.435,83.559,1448538
2018-01-18,83.708,84.345,83.439,83.479,1321778
2018-01-19,84.165,85.567,84.001,85.011,2216644
2018-01-22,84.941,85.309,84.538,85.289,1547405
2018-01-23,85.209,86.493,85.09,86.045,1641769
2018-01-24,86.313,86.502,84.653,85.309,1995905
2018-01-25,85.558,86.263,84.951,86.144,1474507
2018-01-26,86.453,87.199,85.846,87.199,939057
2018-01-29,86.95,87.616,86.542,86.79,1569872
2018-01-30,86.015,86.94,85.876,85.926,1688105
2018-01-31,86.035,86.512,85.15,85.17,1867584
2018-02-01,84.852,85.801,84.623,85.279,2151964
2018-02-02,85.07,85.319,81.848,82.187,2733705
2018-02-05,81.67,82.545,79.373,79.463,2384148
2018-02-06,78.139,80.517,77.344,80.237,4660821
2018-02-07,80.537,82.813,80.087,81.561,3546619
2018-02-08,81.491,81.912,78.199,78.219,5055900
2018-02-09,78.786,80.774,77.126,79.98,3257361
2018-02-12,80.457,81.699,80.137,81.361,2235896
2018-02-13,81.281,83.102,81.201,82.744,2509626
2018-02-14,81.66,86.622,81.551,85.488,3969092
2018-02-15,85.607,85.826,83.857,84.086,3012713
2018-02-16,83.986,84.248,82.793,82.803,2558093
2018-02-20,82.265,84.225,82.265,83.837,1823163
2018-02-21,83.956,85.956,83.788,83.818,1776359
2018-02-22,84.265,84.424,82.654,82.912,1763825
2018-02-23,83.281,83.499,82.615,83.34,1574511
2018-02-26,83.559,83.818,81.67,81.679,2904696
2018-02-27,81.898,82.157,79.363,79.393,3887698
2018-02-28,79.95,81.62,79.333,80.337,4048396
2018-03-01,80.207,80.357,78.494,79.051,2524727
2018-03-02,78.434,78.823,76.94,78.603,2824572
2018-03-05,77.996,78.395,76.79,77.926,2729274
2018-03-06,78.325,79.071,78.115,78.643,2239044
2018-03-07,77.956,79.017,77.837,78.903,1465053
2018-03-08,79.231,79.589,78.703,78.913,2331558
2018-03-09,79.709,81.493,79.411,81.163,2923747
2018-03-12,81.213,81.403,80.387,80.825,1843883
2018-03-13,81.114,81.513,80.755,80.945,1647838
2018-03-14,81.163,81.233,80.745,80.935,1600322
2018-03-15,81.094,81.941,80.745,81.583,2313292
2018-03-16,81.692,82.23,81.134,81.203,2212741
2018-03-19,81.005,81.453,80.577,80.995,2034824
2018-03-20,81.303,81.821,80.965,81.045,1032161
2018-03-21,80.995,81.911,80.885,81.533,1237852
2018-03-22,80.945,81.293,80.107,80.137,3043033
2018-03-23,80.187,80.257,77.767,77.876,1689100
2018-03-26,78.743,79.779,78.155,79.679,1283070
2018-03-27,79.859,80.247,78.185,78.494,1591677
2018-03-28,78.444,78.663,77.498,78.016,2207325
2018-03-29,78.474,79.231,78.175,78.464,2490983
2018-04-02,78.424,78.738,75.376,76.78,2732236
2018-04-03,77.209,77.647,76.322,77.239,2585318
2018-04-04,76.083,78.035,76.043,77.737,3086310
2018-04-05,76.94,79.071,75.664,78.743,6865862
2018-04-06,78.395,78.992,76.392,77.219,3307831
2018-04-09,76.551,79.191,75.714,75.864,7585942
2018-04-10,76.452,76.501,74.33,74.728,11822876
2018-04-11,77.099,80.049,76.751,79.311,52292952
2018-04-12,80.087,80.635,79.042,79.649,10705930
2018-04-13,80.187,81.025,77.956,79.311,14494056
2018-04-16,79.789,80.367,79.301,80.227,4281394
2018-04-17,81.144,82.101,80.387,80.855,3891319
2018-04-18,81.363,82.678,81.223,81.871,3537060
2018-04-19,81.692,82.489,81.383,81.672,2561722
2018-04-20,81.741,82.359,81.353,82.021,2266073
2018-04-23,81.971,82.22,81.513,81.781,1802193
2018-04-24,82.289,82.808,80.572,81.731,4185939
2018-04-25,81.413,82.041,81.045,81.523,2876255
2018-04-26,81.622,82.479,80.177,81.622,5712665
2018-04-27,82.041,82.26,79.689,79.869,4396674
2018-04-30,79.999,80.437,78.494,78.543,3489537
2018-05-01,78.464,80.009,78.365,79.939,3256030
2018-05-02,79.659,80.357,78.962,79.151,2927678
2018-05-03,78.943,79.879,78.145,79.569,3094738
2018-05-04,79.301,81.213,78.783,80.855,2649790
2018-05-07,81.293,81.293,80.547,81.045,2095499
2018-05-08,81.163,82.339,80.615,82.12,3231794
2018-05-09,82.658,82.887,81.298,82.539,2419460
2018-05-10,82.998,83.068,82.149,82.599,2212065
2018-05-11,82.668,83.572,82.309,83.347,1753790
2018-05-14,83.327,83.567,82.569,82.808,2595602
2018-05-15,82.658,83.088,82.429,82.858,1912342
2018-05-16,82.958,84.255,82.469,84.036,2383968
2018-05-17,84.225,84.235,82.968,83.137,1311825
2018-05-18,83.467,84.515,82.239,83.676,8093642
2018-05-21,84.295,84.415,83.078,83.756,2133906
2018-05-22,83.926,84.086,82.459,82.599,1648390
2018-05-23,82.529,82.638,81.83,82.169,2288302
2018-05-24,82.319,82.778,81.83,81.87,2894318
2018-05-25,81.69,82.229,81.271,81.67,1896426
2018-05-29,80.812,81.411,79.85,80.173,2189037
2018-05-30,80.692,81.87,80.692,81.571,2053809
2018-05-31,81.441,81.481,80.413,80.553,2879848
2018-06-01,80.932,82.948,80.932,82.489,2500060
2018-06-04,83.018,83.147,82.119,83.028,1719507
2018-06-05,82.738,83.661,82.559,82.908,1915111
2018-06-06,82.878,84.565,82.718,84.515,3579931
2018-06-07,84.714,84.714,83.537,84.006,1776151
2018-06-08,83.926,84.245,83.232,83.976,1681122
2018-06-11,84.066,84.335,83.637,83.826,1795799
2018-06-12,84.335,84.709,82.509,83.647,3566287
2018-06-13,83.836,83.861,82.159,82.569,3612202
2018-06-14,82.958,83.277,82.569,82.768,2131141
2018-06-15,82.589,83.856,82.169,83.676,2958989
2018-06-18,82.928,84.255,82.928,84.165,1858055
2018-06-19,83.517,83.676,81.89,82.818,2108620
2018-06-20,83.028,83.756,81.82,81.85,3184981
2018-06-21,81.76,82.149,80.623,80.862,3830257
2018-06-22,81.461,81.561,80.373,80.712,4925034
2018-06-25,79.904,80.393,78.527,79.115,3209293
2018-06-26,79.135,79.564,78.796,79.036,3464106
2018-06-27,79.395,79.744,78.047,78.107,3226687
2018-06-28,77.968,78.097,76.64,78.097,5152940
2018-06-29,78.227,79.834,77.978,79.006,3551853
2018-07-02,78.337,79.155,77.369,79.145,3071786
2018-07-03,79.265,79.664,78.856,79.295,1724006
2018-07-05,79.495,79.784,78.696,79.535,3357423
2018-07-06,79.375,80.842,79.245,80.403,2283002
2018-07-09,80.852,81.521,80.398,80.782,2955677
2018-07-10,80.782,82.129,80.722,81.121,2920796
2018-07-11,80.343,80.842,79.864,80.453,3811248
2018-07-12,80.842,80.972,80.193,80.842,3374507
2018-07-13,80.832,81.002,80.513,80.812,2129291
2018-07-16,81.022,81.022,79.634,79.924,2290492
2018-07-17,80.064,81.012,79.644,80.912,3359902
2018-07-18,81.052,83.088,81.052,82.798,5314169
2018-07-19,82.838,83.327,81.81,81.98,2778848
2018-07-20,81.79,82.549,81.421,81.8,2444284
2018-07-23,81.84,82.1,81.381,81.451,3693957
2018-07-24,81.491,81.68,79.525,80.333,4268981
2018-07-25,79.914,80.393,77.489,80.213,5901563
2018-07-26,79.764,80.533,79.115,79.455,2779920
2018-07-27,79.754,80.054,78.032,78.297,3097705
2018-07-30,77.978,78.447,76.92,77.129,3138335
2018-07-31,77.269,78.671,77.259,78.507,2749340
2018-08-01,79.045,79.315,78.077,78.387,2672405
2018-08-02,77.708,78.497,76.97,78.287,3694762
2018-08-03,78.327,78.437,77.728,78.027,1972963
2018-08-06,77.908,78.107,77.419,77.978,3842606
2018-08-07,77.508,77.958,76.79,77.449,3785304
2018-08-08,77.658,77.948,76.021,76.74,2941960
2018-08-09,76.84,77.08,75.97,76.15,3906437
2018-08-10,76.09,76.42,75.39,75.65,3274320
2018-08-13,75.64,76.08,74.84,75.31,3066520
2018-08-14,75.62,76.74,75.035,76.54,2763687
2018-08-15,75.92,76.39,75.49,76.22,2919383
2018-08-16,76.92,77.92,76.58,77.24,3373628
2018-08-17,76.53,77.3,75.97,77.2,1964818
2018-08-20,77.19,77.54,76.12,76.29,2430654
2018-08-21,76.22,77.249,76.22,76.73,2324917
2018-08-22,76.54,77.405,76.38,77.2,2540545
