Date,Open,High,Low,Close,Volume
2015-11-03,13.482,14.097,13.098,13.76,41957858
2015-11-04,13.789,13.903,13.041,13.09,32898310
2015-11-05,13.071,13.312,12.573,12.725,23157395
2015-11-06,12.627,13.877,12.601,13.799,31359393
2015-11-09,13.664,13.877,13.541,13.609,18291916
2015-11-10,13.541,13.838,13.423,13.809,15421673
2015-11-11,13.609,13.712,13.502,13.522,11489055
2015-11-12,13.233,13.242,13.023,13.127,21259339
2015-11-13,13.041,13.185,12.601,12.83,15574870
2015-11-16,12.812,13.041,12.592,12.821,14382164
2015-11-17,12.821,12.927,12.573,12.666,12961960
2015-11-18,12.917,13.156,12.637,13.071,13587792
2015-11-19,12.966,13.312,12.956,13.205,13745374
2015-11-20,13.205,14.019,13.108,13.618,19368061
2015-11-23,13.579,13.618,13.003,13.272,15984785
2015-11-24,13.013,13.442,12.937,13.118,25159814
2015-11-25,13.332,14.239,13.262,13.531,23665201
2015-11-27,13.531,14.029,13.462,13.75,6304981
2015-11-30,13.637,14.375,13.589,14.239,30372480
2015-12-01,14.257,15.219,14.23,14.96,26200640
2015-12-02,14.726,14.892,14.248,14.326,13233673
2015-12-03,14.375,14.698,13.97,14.009,19729080
2015-12-04,13.789,14.663,13.646,14.584,12523971
2015-12-07,14.426,14.888,14.349,14.859,9925991
2015-12-08,14.512,14.703,14.061,14.589,12080055
2015-12-09,14.417,14.802,14.118,14.281,14829610
2015-12-10,14.224,14.243,13.973,14.156,11802009
2015-12-11,14.417,14.812,13.6,13.638,11038685
2015-12-14,13.752,13.944,13.385,13.888,11987035
2015-12-15,13.954,14.408,13.934,14.003,13401750
2015-12-16,14.061,14.243,13.993,14.138,8153016
2015-12-17,14.051,14.156,13.675,13.762,7928936
2015-12-18,13.723,13.84,13.463,13.619,20107354
2015-12-21,13.58,13.849,13.342,13.483,10255817
2015-12-22,13.503,13.6,13.385,13.523,7582761
2015-12-23,13.646,14.398,13.513,14.339,11700001
2015-12-24,14.243,14.589,14.224,14.445,2265176
2015-12-28,14.32,14.693,14.252,14.649,6166711
2015-12-29,14.703,14.847,14.599,14.619,6525566
2015-12-30,14.703,14.888,14.57,14.693,6525592
2015-12-31,14.649,14.722,14.522,14.619,7037171
2016-01-04,14.398,14.57,14.174,14.551,15602645
2016-01-05,14.551,14.666,14.369,14.454,10695273
2016-01-06,14.061,14.426,13.954,14.233,11764990
2016-01-07,13.944,14.003,13.127,13.185,20564997
2016-01-08,13.242,13.483,12.801,13.022,17085676
2016-01-11,12.916,13.185,12.57,12.753,15712352
2016-01-12,12.838,12.906,12.589,12.753,12954268
2016-01-13,12.838,12.838,12.05,12.261,18425846
2016-01-14,12.261,12.659,12.167,12.504,13884012
2016-01-15,12.117,12.309,12.012,12.06,20486757
2016-01-19,12.196,12.289,11.734,11.849,13440326
2016-01-20,11.54,11.734,11.18,11.598,17302432
2016-01-21,11.54,12.06,11.368,11.934,17394028
2016-01-22,12.215,12.916,12.167,12.838,15832933
2016-01-25,12.783,13.031,12.617,12.828,11628596
2016-01-26,12.838,13.2,12.838,13.079,11152474
2016-01-27,13.012,13.089,12.459,12.878,19220300
2016-01-28,12.936,13.175,12.57,12.684,10267486
2016-01-29,12.896,13.351,12.838,13.233,11789380
2016-02-01,13.146,13.351,13.012,13.262,9929779
2016-02-02,13.175,13.434,12.848,12.936,10062739
2016-02-03,13.136,13.242,12.609,12.858,7853679
2016-02-04,12.801,13.359,12.801,13.322,6757855
2016-02-05,13.166,13.225,12.537,12.694,13754221
2016-02-08,12.504,12.552,11.895,12.031,15405613
2016-02-09,11.895,12.368,11.839,12.233,6924566
2016-02-10,12.28,12.57,12.223,12.368,6220849
2016-02-11,12.088,12.186,11.554,11.925,10225745
2016-02-12,12.021,12.299,11.715,11.819,10969341
2016-02-16,11.934,12.012,11.799,11.859,12453644
2016-02-17,11.915,12.63,11.895,12.523,9010454
2016-02-18,12.552,13.175,12.523,13.012,12201203
2016-02-19,12.992,13.215,12.743,13.146,9789122
2016-02-22,13.225,13.351,13.05,13.272,11144587
2016-02-23,13.195,13.292,12.349,12.589,15229994
2016-02-24,12.504,13.05,12.329,13.012,13749122
2016-02-25,12.936,13.185,12.733,13.156,12560750
2016-02-26,13.252,13.272,12.645,12.926,11255841
2016-02-29,12.801,12.965,12.694,12.763,13226773
2016-03-01,12.906,12.955,12.589,12.773,8686748
2016-03-02,12.868,13.513,12.838,13.367,10415208
2016-03-03,13.376,13.414,12.773,13.079,10399561
2016-03-04,14.329,15.234,14.252,14.85,34676783
2016-03-07,14.603,15.432,14.536,15.413,19125150
2016-03-08,15.202,15.239,14.674,14.697,12775530
2016-03-09,14.807,15.282,14.767,14.951,11468451
2016-03-10,15.007,15.645,14.977,15.346,14800852
2016-03-11,15.442,15.868,15.442,15.762,16250212
2016-03-14,15.635,15.991,15.482,15.838,10018308
2016-03-15,15.789,16.291,15.685,16.186,14437299
2016-03-16,16.128,16.629,16.021,16.589,12965751
2016-03-17,16.534,16.724,16.368,16.563,11260573
2016-03-18,16.572,16.966,16.486,16.724,32098441
2016-03-21,16.724,17.315,16.698,17.094,11117277
2016-03-22,16.804,17.45,16.734,16.902,11727127
2016-03-23,16.91,16.958,16.496,16.852,11846730
2016-03-24,16.804,17,16.515,16.958,9190200
2016-03-28,16.872,17.049,16.619,16.902,5710538
2016-03-29,16.764,17.064,16.619,17.034,6140565
2016-03-30,17.103,17.29,17.015,17.267,10933458
2016-03-31,17.219,17.334,16.902,17.113,10764691
2016-04-01,16.995,17.899,16.948,17.758,15386048
2016-04-04,17.807,17.807,17.305,17.411,7943762
2016-04-05,17.247,17.285,16.948,16.995,8599639
2016-04-06,17.034,17.354,16.852,17.334,10767041
2016-04-07,17.17,17.411,17.01,17.122,9753286
2016-04-08,17.228,17.657,17.19,17.267,7542806
2016-04-11,17.325,17.43,17.044,17.113,6090382
2016-04-12,17.094,17.14,16.58,16.639,9099686
2016-04-13,16.688,16.902,16.554,16.892,8540829
2016-04-14,16.754,16.794,16.466,16.658,6854745
2016-04-15,16.804,16.872,16.263,16.794,12290230
2016-04-18,16.609,16.877,16.544,16.834,5865762
2016-04-19,16.852,16.872,16.554,16.639,6672182
2016-04-20,16.476,16.892,16.476,16.794,5636517
2016-04-21,16.734,17.122,16.716,16.852,6185706
2016-04-22,16.834,17.084,16.724,16.882,8245302
2016-04-25,16.754,16.804,16.235,16.609,6053053
2016-04-26,16.649,16.857,16.629,16.754,6512566
2016-04-27,16.698,16.91,16.649,16.707,6593389
2016-04-28,16.572,16.779,16.329,16.437,4959762
2016-04-29,16.301,16.319,15.935,16.08,7344804
2016-05-02,16.08,16.167,15.712,15.829,8766674
2016-05-03,15.665,15.685,15.231,15.375,11465222
2016-05-04,15.249,15.442,15.134,15.375,6877412
2016-05-05,15.395,15.413,15.095,15.174,3621830
2016-05-06,15.085,15.306,15.017,15.231,5163511
2016-05-09,15.164,15.404,15.124,15.306,5121790
2016-05-10,15.336,15.346,15.066,15.336,4929613
2016-05-11,15.336,15.785,15.326,15.462,6703743
2016-05-12,15.53,15.577,15.3,15.346,5613994
2016-05-13,15.346,15.553,15.144,15.222,7033907
2016-05-16,15.212,15.535,15.164,15.404,9137806
2016-05-17,15.326,15.635,15.144,15.268,15119434
2016-05-18,15.239,15.375,14.972,15.124,6813826
2016-05-19,14.969,15.239,14.845,15.231,6900636
2016-05-20,15.212,15.432,15.115,15.316,9307246
2016-05-23,15.326,15.702,15.316,15.51,8960159
2016-05-24,15.54,15.77,15.432,15.685,12874744
2016-05-25,17.692,17.856,16.525,16.744,45416061
2016-05-26,16.408,17.074,16.254,16.784,22517684
2016-05-27,16.852,17.702,16.852,17.624,23785891
2016-05-31,17.373,17.827,17.14,17.827,25851508
2016-06-01,17.672,17.74,17.508,17.654,12732013
2016-06-02,17.508,17.884,17.469,17.856,14156300
2016-06-03,17.758,17.856,17.644,17.712,9619862
2016-06-06,17.697,18.364,17.697,18.296,13236744
2016-06-07,18.237,18.629,18.17,18.549,14727643
2016-06-08,18.654,18.993,18.586,18.733,16341366
2016-06-09,18.77,19.02,18.714,18.926,9684252
2016-06-10,18.694,18.714,18.296,18.509,10136618
2016-06-13,18.403,18.539,17.986,18.006,10481265
2016-06-14,17.88,18.044,17.634,17.726,14828305
2016-06-15,17.842,18.452,17.822,18.199,12362493
2016-06-16,18.084,18.228,17.982,18.064,12736509
2016-06-17,17.996,18.403,17.9,18.335,17190017
2016-06-20,18.604,18.983,18.549,18.761,16375806
2016-06-21,18.789,19.216,18.644,19.13,11935938
2016-06-22,19.03,19.13,18.577,18.594,10922143
2016-06-23,18.751,19.06,18.724,19.02,10519991
2016-06-24,18.015,18.471,17.532,17.58,26231210
2016-06-27,17.425,17.434,16.423,16.65,19128356
2016-06-28,16.941,17.017,16.56,16.846,13278882
2016-06-29,17.173,17.338,17.042,17.213,8532500
2016-06-30,17.348,17.91,17.309,17.687,12898989
2016-07-01,17.88,18.044,17.571,17.9,9223075
2016-07-05,17.802,17.842,17.367,17.619,6337211
2016-07-06,17.425,17.842,17.348,17.812,7503772
2016-07-07,17.753,18.114,17.753,17.88,6484100
2016-07-08,18.161,18.433,17.982,18.433,11258029
2016-07-11,18.539,18.844,18.529,18.724,10378957
2016-07-12,18.809,19.264,18.809,19.06,13378540
2016-07-13,19.06,19.13,18.684,18.877,7091260
2016-07-14,18.993,19.523,18.993,19.351,15392880
2016-07-15,19.439,19.526,19.06,19.14,9032886
2016-07-18,19.09,19.341,19.02,19.159,6050859
2016-07-19,19.06,19.303,19.05,19.159,5717331
2016-07-20,19.168,19.439,19.095,19.419,5489315
2016-07-21,19.389,19.517,19.075,19.12,9398123
2016-07-22,19.187,19.409,19.11,19.409,8642532
2016-07-25,19.701,19.835,19.545,19.565,10035484
2016-07-26,19.545,19.806,19.503,19.796,8209669
2016-07-27,19.845,20.005,19.609,19.701,6769567
2016-07-28,19.651,19.777,19.508,19.661,4501324
2016-07-29,19.671,21.201,19.458,20.348,32496382
2016-08-01,20.465,20.9,19.971,20.407,14355222
2016-08-02,20.357,20.426,19.986,20.106,11389086
2016-08-03,20.106,20.832,20.02,20.823,14356612
2016-08-04,20.794,21.22,20.775,21.063,9041301
2016-08-05,21.143,21.49,21.073,21.21,9802307
2016-08-08,21.298,21.461,20.892,20.958,8032571
2016-08-09,21.036,21.162,20.929,21.008,8324525
2016-08-10,21.036,21.053,20.746,20.862,5868025
2016-08-11,20.9,21.162,20.832,21.083,7826415
2016-08-12,20.988,21.259,20.809,21.191,10909772
2016-08-15,21.229,21.48,21.201,21.307,7394684
2016-08-16,21.201,21.461,21.113,21.365,6302971
2016-08-17,21.356,21.48,20.794,20.949,10091950
2016-08-18,20.852,21.191,20.852,21.162,6939752
2016-08-19,21.083,21.259,21.044,21.182,6240159
2016-08-22,21.123,21.273,20.939,21.239,4586505
2016-08-23,21.327,21.365,21.177,21.229,8174607
2016-08-24,21.22,21.346,20.978,20.998,4660812
2016-08-25,20.939,21.234,20.765,21.143,7404607
2016-08-26,21.201,21.385,20.92,21.083,5464559
2016-08-29,21.063,21.423,21.036,21.143,6080676
2016-08-30,21.229,21.259,20.765,20.892,9344165
2016-08-31,20.852,20.988,20.484,20.794,9875218
2016-09-01,20.746,21.607,20.407,21.451,19510344
2016-09-02,21.461,21.588,21.239,21.5,6694939
2016-09-06,21.471,21.471,21.053,21.162,8722834
2016-09-07,21.307,21.607,20.823,21.385,21049458
2016-09-08,21.298,21.49,20.638,20.696,30212589
2016-09-09,20.474,20.785,20.253,20.253,16260191
2016-09-12,20.058,20.731,19.971,20.611,13148560
2016-09-13,20.426,20.686,20.377,20.484,12398499
2016-09-14,20.456,20.731,20.416,20.676,11339041
2016-09-15,20.638,21.432,20.611,21.423,13274897
2016-09-16,21.365,21.607,21.259,21.55,16886225
2016-09-19,21.655,22.265,21.645,21.955,12404145
2016-09-20,22.029,22.212,21.898,21.898,9987402
2016-09-21,21.878,22.381,21.848,22.381,11028861
2016-09-22,22.401,22.779,22.401,22.499,10576901
2016-09-23,22.391,22.521,22.178,22.246,7483395
2016-09-26,22.131,22.232,21.917,22.062,8374655
2016-09-27,21.965,22.289,21.84,22.188,13557823
2016-09-28,22.265,22.451,22.091,22.304,7305940
2016-09-29,22.227,22.565,22.144,22.168,9349773
2016-09-30,22.342,22.546,21.868,22.024,16742482
2016-10-03,21.868,22.106,21.829,21.927,12075612
2016-10-04,21.955,22.198,21.55,21.675,9421421
2016-10-05,21.744,22.139,21.744,22.071,7512225
2016-10-06,22.014,22.121,21.908,21.955,6766150
2016-10-07,21.999,22.029,21.514,21.679,9649078
2016-10-10,21.814,22.019,21.775,21.834,9480960
2016-10-11,21.834,21.834,21.247,21.33,10418008
2016-10-12,21.427,21.465,21.156,21.349,7905083
2016-10-13,21.136,21.3,20.825,21.116,14232212
2016-10-14,20.902,21.3,20.839,20.893,13974636
2016-10-17,20.864,21.046,20.584,20.64,12000897
2016-10-18,20.902,20.951,20.475,20.834,12041259
2016-10-19,20.971,21.32,20.912,21.086,18022899
2016-10-20,20.991,21.262,20.902,21.232,10914175
2016-10-21,21.056,21.086,20.816,20.991,12332171
2016-10-24,21.039,21.146,20.951,21.039,9319868
2016-10-25,21.011,21.056,20.757,20.961,9528176
2016-10-26,20.893,21.165,20.834,21.156,7834287
2016-10-27,21.232,21.728,21.232,21.534,13031161
2016-10-28,21.544,21.824,21.349,21.514,7736011
2016-10-31,21.592,21.853,21.563,21.805,8389120
2016-11-01,21.758,21.893,21.126,21.427,7604252
2016-11-02,21.389,21.514,21.223,21.369,8581962
2016-11-03,21.417,21.524,21.116,21.156,7211041
2016-11-04,21.001,21.737,20.884,21.389,7951358
2016-11-07,21.718,22.505,21.708,22.427,11134184
2016-11-08,22.427,22.795,22.213,22.552,13171114
2016-11-09,21.775,22.854,21.699,22.542,15824794
2016-11-10,22.659,22.989,22.233,22.387,13373298
2016-11-11,22.338,22.688,22.242,22.62,9736923
2016-11-14,22.659,22.921,22.387,22.659,12750883
2016-11-15,22.777,22.834,22.457,22.717,15225921
2016-11-16,22.62,22.949,22.522,22.834,11901109
2016-11-17,22.777,22.969,22.572,22.901,11232918
2016-11-18,22.988,23.144,22.581,22.62,17065413
2016-11-21,22.727,22.854,22.136,22.437,24015537
2016-11-22,22.417,22.649,21.936,22.194,24898613
2016-11-23,22.029,22.93,21.805,22.854,22226035
2016-11-25,22.338,22.698,22.039,22.532,10972451
2016-11-28,22.29,22.698,22.203,22.649,22469178
2016-11-29,22.532,23.194,22.532,23.039,14513147
2016-11-30,23.084,23.189,22.93,23.094,14913628
2016-12-01,23.075,23.194,22.639,22.678,12516821
2016-12-02,22.668,23.194,22.649,23.144,7536699
2016-12-05,23.214,23.503,23.124,23.494,10585376
2016-12-06,23.446,23.465,23.184,23.252,10122603
2016-12-07,23.134,24.057,23.104,23.949,16773933
2016-12-08,23.921,24.057,23.786,23.911,7316684
2016-12-09,23.834,24.037,23.601,23.786,13720058
2016-12-12,23.44,23.567,23.061,23.256,12692675
2016-12-13,23.197,23.567,23.107,23.283,11042886
2016-12-14,23.097,23.721,23.087,23.274,10091992
2016-12-15,23.207,23.226,23.032,23.087,16550095
2016-12-16,22.992,23.142,22.749,22.856,21196720
2016-12-19,22.787,23.256,22.787,23.087,6969584
2016-12-20,23.127,23.332,23.012,23.197,9306871
2016-12-21,23.197,23.39,23.152,23.246,5549322
2016-12-22,23.265,23.341,22.885,23.117,6580042
2016-12-23,23.127,23.197,23.042,23.177,6048874
2016-12-27,23.167,23.256,22.982,23.097,3890031
2016-12-28,23.177,23.177,22.661,22.67,6710884
2016-12-29,22.651,22.836,22.554,22.709,5292276
2016-12-30,22.603,22.817,22.408,22.514,6488587
2017-01-03,22.564,22.836,22.358,22.573,8280218
2017-01-04,22.67,23.07,22.612,22.817,7149585
2017-01-05,22.817,22.942,22.699,22.924,9388189
2017-01-06,22.933,22.933,21.805,22.477,14928269
2017-01-09,22.514,22.557,21.903,21.951,14688973
2017-01-10,22.076,22.388,21.903,22.329,13844492
2017-01-11,22.301,22.358,21.999,22.145,9517642
2017-01-12,22.116,22.224,21.819,22.136,8487560
2017-01-13,22.136,22.428,22.126,22.32,5916840
2017-01-17,22.214,22.368,22.024,22.076,6066313
2017-01-18,22.155,22.368,21.979,22.243,8683637
2017-01-19,22.175,22.262,22.066,22.155,5959433
2017-01-20,22.175,22.281,22.029,22.262,9306139
2017-01-23,22.204,22.311,21.785,21.96,9327234
2017-01-24,22.096,22.467,22.049,22.271,8448925
2017-01-25,22.398,22.514,22.219,22.358,7498402
2017-01-26,22.339,22.467,22.009,22.009,6304796
2017-01-27,22.116,22.185,21.873,21.941,6999046
2017-01-30,21.883,21.883,21.396,21.553,9604615
2017-01-31,21.543,22.076,21.25,22.066,12831956
2017-02-01,22.116,22.165,21.766,21.979,10010053
2017-02-02,21.658,22.121,21.658,22.076,8527210
2017-02-03,22.136,22.942,22.136,22.866,13806187
2017-02-06,22.719,23.022,22.68,22.904,5644747
2017-02-07,22.904,23.152,22.885,23.051,6685674
2017-02-08,22.982,23.236,22.914,22.992,6253831
2017-02-09,23.051,23.469,22.924,23.43,7204275
2017-02-10,23.43,23.605,23.332,23.341,8541854
2017-02-13,23.37,23.577,23.313,23.469,6647331
2017-02-14,23.43,23.498,23.313,23.488,10009775
2017-02-15,23.567,23.781,23.44,23.721,7026190
2017-02-16,23.711,23.82,23.557,23.672,7039232
2017-02-17,23.595,23.761,23.479,23.741,7787935
2017-02-21,23.741,24.033,23.701,23.994,9700429
2017-02-22,23.877,24.208,23.839,24.11,7854318
2017-02-23,24.159,24.189,23.839,23.994,13614243
2017-02-24,21.528,22.358,21.503,22.339,48141253
2017-02-27,22.145,22.145,21.668,21.707,19517902
2017-02-28,21.474,22.257,21.406,22.204,18853768
2017-03-01,22.388,22.67,22.311,22.554,13640642
2017-03-02,22.496,22.583,22.224,22.329,11063200
2017-03-03,22.291,22.641,22.262,22.428,11889072
2017-03-06,22.234,22.506,22.214,22.448,12989750
2017-03-07,22.348,22.564,22.086,22.204,14281531
2017-03-08,22.185,22.234,21.96,22.009,13057646
2017-03-09,21.922,22.076,21.775,21.863,11335496
2017-03-10,21.922,22.076,21.6,21.766,11463239
2017-03-13,21.653,21.888,21.634,21.78,10338294
2017-03-14,21.702,21.79,21.487,21.693,10338284
2017-03-15,21.693,22.298,21.576,22.141,14361069
2017-03-16,22.151,22.308,21.956,22.092,10552883
2017-03-17,22.102,22.435,21.966,22.298,12686412
2017-03-20,22.22,22.508,22.112,22.395,8785243
2017-03-21,22.395,22.521,21.663,21.712,16626875
2017-03-22,21.683,22.005,21.566,21.956,9317878
2017-03-23,21.908,22.405,21.839,22.249,10003979
2017-03-24,22.308,22.678,22.082,22.22,9401303
2017-03-27,22.005,22.298,21.839,22.171,6854485
2017-03-28,22.141,22.649,22.083,22.455,8619850
2017-03-29,22.445,23.351,22.35,23.096,17656271
2017-03-30,23.031,23.245,22.951,23.05,9170003
2017-03-31,22.864,23.42,22.864,23.126,14578037
2017-04-03,17.565,17.624,16.892,17.144,32805974
2017-04-04,16.979,17.476,16.93,17.467,19445793
2017-04-05,17.545,17.662,17.35,17.467,19476230
2017-04-06,17.545,17.692,17.476,17.584,12702016
2017-04-07,17.516,18.004,17.476,17.839,28843897
2017-04-10,17.897,18.062,17.799,17.858,22587196
2017-04-11,17.819,17.907,17.654,17.74,11623881
2017-04-12,17.887,17.897,17.506,17.614,14062920
2017-04-13,17.574,17.721,17.506,17.555,16684698
2017-04-17,17.584,17.692,17.545,17.672,8136695
2017-04-18,17.644,17.759,17.549,17.692,8208331
2017-04-19,17.712,17.848,17.654,17.721,7483736
2017-04-20,17.789,17.965,17.735,17.887,10497673
2017-04-21,17.858,17.872,17.584,17.702,12556365
2017-04-24,17.809,18.092,17.764,17.994,14394423
2017-04-25,18.042,18.142,17.975,18.072,8746189
2017-04-26,18.052,18.326,17.975,18.16,11200962
2017-04-27,18.152,18.209,17.984,18.18,14156990
2017-04-28,18.17,18.247,18.042,18.18,9511852
2017-05-01,18.237,18.375,18.19,18.277,8408158
2017-05-02,18.267,18.385,18.209,18.247,7940648
2017-05-03,18.209,18.316,18.122,18.218,11265282
2017-05-04,18.297,18.346,18.16,18.297,6724648
2017-05-05,18.385,18.395,18.218,18.375,13051500
2017-05-08,18.385,18.492,18.306,18.434,9330523
2017-05-09,18.414,18.511,18.185,18.326,16713754
2017-05-10,18.336,18.541,18.297,18.541,11650014
2017-05-11,18.463,18.593,18.351,18.404,12751615
2017-05-12,18.424,18.561,18.385,18.424,9852668
2017-05-15,18.443,18.668,18.414,18.531,10947427
2017-05-16,18.541,18.698,18.458,18.648,9746510
2017-05-17,18.472,18.565,18.267,18.346,13334801
2017-05-18,18.199,18.501,18.072,18.326,12741345
2017-05-19,18.385,18.541,18.023,18.082,20660278
2017-05-22,18.072,18.395,18.062,18.336,13862308
2017-05-23,18.414,18.443,18.297,18.404,14245294
2017-05-24,18.385,18.521,18.326,18.453,12056971
2017-05-25,18.511,18.541,18.356,18.385,18561967
2017-05-26,18.395,18.434,18.287,18.375,13768852
2017-05-30,18.326,18.472,18.237,18.395,18174152
2017-05-31,18.346,18.419,18.112,18.356,24442226
2017-06-01,17.907,17.926,17.048,17.097,39834985
2017-06-02,16.921,17.154,16.54,16.979,30679435
2017-06-05,16.921,16.93,16.716,16.744,15906904
2017-06-06,16.724,16.774,16.618,16.618,14162759
2017-06-07,16.618,16.824,16.598,16.628,14902499
2017-06-08,16.678,16.707,16.569,16.638,10941008
2017-06-09,16.628,16.902,16.399,16.578,10781120
2017-06-12,16.545,16.633,16.222,16.507,11796209
2017-06-13,16.477,16.623,16.457,16.535,12433663
2017-06-14,16.507,16.603,16.309,16.398,11630358
2017-06-15,16.358,16.417,16.133,16.182,18231648
2017-06-16,16.242,16.272,16.104,16.153,15323195
2017-06-19,16.172,16.427,16.172,16.378,11383796
2017-06-20,16.348,16.398,16.143,16.301,13760066
2017-06-21,16.358,16.447,16.202,16.232,10473843
2017-06-22,16.202,16.408,16.162,16.339,9131521
2017-06-23,16.408,16.653,16.319,16.507,17756357
2017-06-26,16.526,16.633,16.447,16.467,11111579
2017-06-27,16.398,16.447,16.162,16.162,10028509
2017-06-28,16.252,16.613,16.162,16.555,10328550
2017-06-29,16.408,16.457,16.036,16.309,12970282
2017-06-30,16.388,16.457,16.242,16.252,8963553
2017-07-03,16.329,16.545,16.329,16.329,4661803
2017-07-05,16.378,16.643,16.368,16.593,11028296
2017-07-06,16.507,16.574,16.085,16.143,14839995
2017-07-07,16.182,16.309,16.065,16.272,13342113
2017-07-10,16.272,16.492,16.262,16.398,10382675
2017-07-11,16.368,16.507,16.232,16.437,9313958
2017-07-12,16.408,16.507,16.237,16.447,10655339
2017-07-13,16.447,16.81,16.417,16.74,14024934
2017-07-14,16.75,16.878,16.673,16.84,6257435
2017-07-17,16.84,16.966,16.745,16.878,7892324
2017-07-18,16.849,16.898,16.703,16.8,10725511
2017-07-19,16.898,17.348,16.898,17.309,13395957
2017-07-20,17.309,17.564,17.289,17.535,14846815
2017-07-21,17.495,17.661,17.407,17.643,12072604
2017-07-24,17.613,17.73,17.427,17.475,11147174
2017-07-25,17.475,17.643,17.378,17.515,7862147
2017-07-26,17.535,17.593,17.191,17.251,8142215
2017-07-27,17.338,17.338,17.04,17.191,10441668
2017-07-28,17.141,17.191,16.936,17.151,9327479
2017-07-31,17.241,17.383,17.141,17.151,8944833
2017-08-01,17.191,17.241,17.09,17.191,7874855
2017-08-02,17.231,17.281,16.917,16.995,8132998
2017-08-03,16.986,17.005,16.81,16.936,6798294
2017-08-04,16.936,17.211,16.936,17.151,6433916
2017-08-07,17.132,17.284,17.095,17.271,4679991
2017-08-08,17.231,17.338,17.161,17.271,8057455
2017-08-09,17.191,17.338,17.085,17.281,7115791
2017-08-10,17.241,17.241,16.72,16.77,9065773
2017-08-11,16.849,17.015,16.805,16.946,5389536
2017-08-14,17.132,17.485,17.104,17.221,8120826
2017-08-15,17.201,17.475,17.171,17.387,8489928
2017-08-16,17.378,17.505,17.166,17.241,5018177
2017-08-17,17.161,17.319,16.946,16.946,9243453
2017-08-18,16.907,17.045,16.74,16.83,9759307
2017-08-21,16.849,16.995,16.73,16.956,6213460
2017-08-22,17.005,17.338,16.995,17.309,5564752
2017-08-23,17.191,17.387,17.171,17.348,7199064
2017-08-24,17.358,17.691,17.299,17.583,6774458
2017-08-25,17.623,17.769,17.441,17.583,9224186
2017-08-28,17.613,17.613,17.314,17.427,7651267
2017-08-29,17.289,17.578,17.221,17.554,6028822
2017-08-30,17.515,17.623,17.412,17.613,6408750
2017-08-31,17.613,17.764,17.583,17.691,11565199
2017-09-01,13.842,14.097,13.538,14.018,22663349
2017-09-05,13.91,14.105,13.547,13.753,27801852
2017-09-06,13.998,14.028,13.323,13.489,41424629
2017-09-07,13.449,13.489,12.98,12.98,27600198
2017-09-08,13.018,13.111,12.795,12.851,24813286
2017-09-11,13.028,13.195,12.97,13.077,16850036
2017-09-12,13.156,13.206,12.793,12.92,19700241
2017-09-13,12.88,13.048,12.773,13.028,25362526
2017-09-14,12.979,13.324,12.93,13.264,16320801
2017-09-15,13.166,13.353,13.116,13.314,15847873
2017-09-18,13.363,13.511,13.304,13.334,12707718
2017-09-19,13.353,13.432,13.264,13.284,10243894
2017-09-20,13.373,13.471,13.294,13.422,17616921
2017-09-21,13.392,13.687,13.304,13.58,22945866
2017-09-22,13.648,14.072,13.61,14.043,23287902
2017-09-25,13.973,14.495,13.954,14.475,29965195
2017-09-26,14.515,14.85,14.465,14.664,26260070
2017-09-27,14.664,14.889,14.594,14.624,22268098
2017-09-28,14.614,14.711,14.343,14.348,11651043
2017-09-29,14.378,14.525,14.318,14.485,6841311
2017-10-02,14.456,14.771,14.426,14.741,13932284
2017-10-03,14.741,14.758,14.397,14.465,10360005
2017-10-04,14.475,14.664,14.328,14.574,7754886
2017-10-05,14.614,14.731,14.535,14.604,7184080
2017-10-06,14.564,14.624,14.358,14.574,12010651
2017-10-09,14.614,14.741,14.544,14.574,6351868
2017-10-10,14.594,14.801,14.584,14.731,9455015
2017-10-11,14.711,14.811,14.624,14.711,10631916
2017-10-12,14.701,14.711,14.505,14.574,8454193
2017-10-13,14.426,14.83,14.417,14.664,10095379
2017-10-16,14.654,14.731,14.584,14.634,6449805
2017-10-17,14.614,14.664,14.323,14.388,13040108
2017-10-18,14.446,14.574,14.441,14.475,6936026
2017-10-19,14.278,14.308,13.59,13.648,23540946
2017-10-20,13.668,13.968,13.624,13.826,12860643
2017-10-23,13.875,14.106,13.845,14.033,8691031
2017-10-24,14.033,14.254,14.013,14.092,8332089
2017-10-25,14.062,14.072,13.668,13.865,15778084
2017-10-26,13.993,14.092,13.865,14.033,7115572
2017-10-27,14.052,14.121,13.963,14.062,7143076
2017-10-30,14.013,14.062,13.697,13.767,12125157
2017-10-31,13.807,13.841,13.663,13.707,10420439
2017-11-01,13.727,13.727,13.264,13.392,15739906
2017-11-02,13.363,13.451,13.279,13.422,17793984
2017-11-03,13.412,13.422,13.196,13.294,9690869
2017-11-06,13.254,13.422,13.038,13.422,9731418
2017-11-07,13.392,13.53,13.314,13.363,7474727
2017-11-08,13.353,13.382,13.254,13.334,7872012
2017-11-09,13.274,13.54,13.264,13.511,6327644
2017-11-10,13.511,13.54,13.392,13.491,4587895
2017-11-13,13.461,13.486,13.264,13.274,14908736
2017-11-14,13.068,13.274,13.068,13.068,11525858
2017-11-15,12.999,13.077,12.91,12.959,12188204
2017-11-16,13.009,13.216,13.009,13.068,15050371
2017-11-17,13.096,13.481,13.048,13.471,13095427
2017-11-20,13.471,13.894,13.451,13.875,12596856
2017-11-21,13.884,14.092,13.865,13.904,13883692
2017-11-22,12.999,13.196,12.619,12.9,42566869
2017-11-24,13.009,13.186,12.949,13.116,8688151
2017-11-27,13.009,13.334,12.949,13.264,14077184
2017-11-28,13.264,13.737,13.201,13.668,16302710
2017-11-29,13.737,14.082,13.58,13.757,12281419
2017-11-30,13.777,13.954,13.707,13.737,15352845
2017-12-01,13.687,14.245,13.54,14.22,18831211
2017-12-04,14.22,14.298,13.973,14.013,11267015
2017-12-05,13.894,13.954,13.787,13.865,12077164
2017-12-06,13.807,14.013,13.777,13.944,7200898
2017-12-07,13.983,14.052,13.909,14.003,6924372
2017-12-08,14.013,14.17,14.013,14.121,8240361
2017-12-11,14.033,14.368,14.013,14.358,11303013
2017-12-12,14.298,14.417,14.199,14.348,12329442
2017-12-13,14.308,14.397,14.169,14.169,8732564
2017-12-14,14.15,14.229,14.071,14.091,7681759
2017-12-15,14.14,14.328,14.105,14.258,20464634
2017-12-18,14.298,14.773,14.278,14.743,12787691
2017-12-19,14.723,14.743,14.585,14.645,9896613
2017-12-20,14.635,14.635,14.481,14.555,9358101
2017-12-21,14.555,14.693,14.511,14.565,7972098
2017-12-22,14.555,14.665,14.526,14.555,4216024
2017-12-26,14.536,14.63,14.516,14.585,2913401
2017-12-27,14.565,14.595,14.456,14.516,3295127
2017-12-28,14.536,14.545,14.402,14.456,3725826
2017-12-29,14.516,14.516,14.209,14.209,7172598
2018-01-02,14.278,14.476,14.229,14.456,7231684
2018-01-03,14.446,14.595,14.388,14.545,7991249
2018-01-04,14.545,14.912,14.501,14.902,11451906
2018-01-05,14.902,15.03,14.803,14.892,12672659
2018-01-08,14.793,14.813,14.491,14.665,13190716
2018-01-09,14.693,14.823,14.655,14.693,14635050
2018-01-10,14.605,15.149,14.605,15.03,10278126
2018-01-11,15.04,15.327,15.01,15.287,8327480
2018-01-12,15.287,15.703,15.258,15.644,15685501
2018-01-16,15.654,15.748,15.549,15.644,9767093
2018-01-17,15.693,15.931,15.654,15.901,9550737
2018-01-18,15.861,15.931,15.772,15.802,9878473
2018-01-19,15.802,15.921,15.743,15.911,9236630
2018-01-22,15.881,15.911,15.733,15.881,9515528
2018-01-23,16.109,16.545,16.03,16.495,14600303
2018-01-24,16.535,16.712,16.425,16.505,11931450
2018-01-25,16.535,16.663,16.277,16.307,7848340
2018-01-26,16.376,16.663,16.376,16.535,9866121
2018-01-29,16.485,16.885,16.445,16.792,10649049
2018-01-30,16.673,16.728,16.228,16.366,11321059
2018-01-31,16.416,16.515,16.138,16.228,12551302
2018-02-01,16.228,16.703,16.148,16.613,13637941
2018-02-02,16.485,16.752,16.346,16.475,13440799
2018-02-05,16.356,16.475,15.486,15.496,15903619
2018-02-06,15.11,15.649,14.803,15.564,16399184
2018-02-07,15.505,15.614,15.169,15.397,13251878
2018-02-08,15.367,15.515,14.882,14.882,12188967
2018-02-09,15.04,15.253,14.501,15.139,16893575
2018-02-12,15.258,15.684,15.199,15.584,7765198
2018-02-13,15.466,15.466,15.149,15.307,13880733
2018-02-14,15.248,16.049,15.189,15.981,14157147
2018-02-15,16.109,16.307,15.871,16.178,8262455
2018-02-16,16.128,16.386,16.039,16.218,8649043
2018-02-20,16.297,16.51,16.238,16.346,9133521
2018-02-21,16.425,16.51,16.049,16.079,11018742
2018-02-22,16.258,16.495,16.059,16.238,16274816
2018-02-23,17.821,17.999,17.376,17.949,45489995
2018-02-26,17.851,18.602,17.851,18.355,25811333
2018-02-27,18.305,18.929,18.305,18.622,21204222
2018-02-28,18.75,18.87,18.395,18.395,17713048
2018-03-01,18.503,18.637,17.949,18.206,14221527
2018-03-02,18.008,18.602,17.959,18.583,15075868
2018-03-05,18.573,18.899,18.543,18.78,11845097
2018-03-06,18.81,19.271,18.8,19.206,11674134
2018-03-07,19.037,19.176,18.78,18.949,11173730
2018-03-08,18.999,19.027,18.647,18.75,10663103
2018-03-09,18.87,19.008,18.78,18.959,14719490
2018-03-12,18.959,18.974,18.8,18.87,10269297
2018-03-13,18.959,19.098,18.73,18.75,9063975
2018-03-14,18.85,18.86,18.606,18.721,11662844
2018-03-15,18.77,18.85,18.651,18.701,15484201
2018-03-16,18.691,18.879,18.552,18.661,21495240
2018-03-19,18.572,18.701,18.373,18.572,9512482
2018-03-20,18.661,18.8,18.487,18.651,11257555
2018-03-21,18.651,18.76,18.442,18.582,10978205
2018-03-22,18.423,18.517,18.174,18.194,10937390
2018-03-23,18.244,18.333,17.509,17.509,10634373
2018-03-26,17.797,17.906,17.454,17.866,11079555
2018-03-27,17.966,18.03,17.335,17.439,12230143
2018-03-28,17.489,17.678,17.285,17.539,14102007
2018-03-29,17.578,17.633,17.335,17.42,16120325
2018-04-02,17.36,17.4,16.824,17.002,10345666
2018-04-03,17.132,17.231,16.844,17.022,13455483
2018-04-04,16.714,17.191,16.645,17.132,13295294
2018-04-05,17.3,17.3,17.002,17.082,15209228
2018-04-06,16.923,17.102,16.496,16.585,14246940
2018-04-09,16.615,17.092,16.615,16.695,8503512
2018-04-10,16.953,17.281,16.953,17.132,15460912
2018-04-11,17.082,17.181,16.973,17.122,9896496
2018-04-12,17.231,17.479,17.211,17.29,14016928
2018-04-13,17.39,17.39,17.062,17.281,10132139
2018-04-16,17.33,17.549,17.241,17.439,17076827
2018-04-17,17.559,17.757,17.499,17.628,17263017
2018-04-18,17.648,17.658,17.494,17.559,9676618
2018-04-19,17.529,17.529,17.261,17.29,7843144
2018-04-20,17.32,17.33,17.042,17.171,7754844
2018-04-23,17.261,17.42,17.186,17.3,8138877
2018-04-24,17.38,17.559,17.132,17.241,10172758
2018-04-25,17.181,17.295,16.903,17.191,9366727
2018-04-26,17.271,17.395,17.127,17.271,10761206
2018-04-27,17.519,17.519,17.122,17.231,8897783
2018-04-30,17.221,17.34,16.933,16.933,12559653
2018-05-01,16.873,17.082,16.834,17.062,9718497
2018-05-02,17.022,17.141,16.953,17.002,6411971
2018-05-03,16.873,16.963,16.635,16.784,8087438
2018-05-04,16.734,17.137,16.665,17.092,6209566
2018-05-07,17.122,17.33,17.072,17.181,10559246
2018-05-08,17.132,17.31,17.087,17.271,12493903
2018-05-09,17.281,17.549,17.221,17.479,13103880
2018-05-10,17.549,17.578,17.38,17.529,12383263
2018-05-11,17.539,17.658,17.489,17.549,11577794
2018-05-14,17.628,17.698,17.469,17.469,8514506
2018-05-15,17.36,17.41,17.166,17.281,8423589
2018-05-16,17.29,17.559,17.251,17.509,15365446
2018-05-17,17.559,17.638,17.315,17.549,10675561
2018-05-18,17.539,17.549,17.36,17.439,6831787
2018-05-21,17.539,17.618,17.36,17.39,6239620
2018-05-22,17.429,17.559,17.29,17.29,14520951
2018-05-23,16.734,16.834,15.344,15.473,56442753
2018-05-24,15.443,15.701,15.056,15.652,29720072
2018-05-25,15.642,15.711,15.334,15.413,14511155
2018-05-29,15.324,15.38,15.155,15.274,9794231
2018-05-30,15.364,15.557,15.215,15.463,12108029
2018-05-31,15.423,15.483,15.016,15.135,14547947
2018-06-01,15.225,15.423,15.215,15.423,10972051
2018-06-04,15.394,15.632,15.264,15.433,12321414
2018-06-05,15.394,16.019,15.344,15.95,22552888
2018-06-06,15.999,15.999,15.617,15.91,12480724
2018-06-07,15.87,15.95,15.711,15.811,7847915
2018-06-08,15.711,15.91,15.678,15.9,7976144
2018-06-11,15.85,16.069,15.85,15.91,11719648
2018-06-12,15.92,16,15.78,15.79,9010639
2018-06-13,15.76,15.89,15.7,15.79,8437829
2018-06-14,15.87,16.12,15.75,15.82,11926626
2018-06-15,15.8,15.95,15.62,15.95,25030367
2018-06-18,15.8,16.06,15.685,15.91,12084684
2018-06-19,15.7,15.93,15.67,15.9,8432667
2018-06-20,15.95,15.99,15.13,15.15,14603833
2018-06-21,15.2,15.49,15.14,15.42,14506745
2018-06-22,15.49,15.52,15.225,15.24,9283172
2018-06-25,15.17,15.23,14.94,15.07,15972807
2018-06-26,15.11,15.55,15.06,15.17,7978554
2018-06-27,15.22,15.25,14.72,14.72,14323583
2018-06-28,14.71,14.77,14.475,14.71,14739087
2018-06-29,14.77,14.85,14.61,14.61,11694527
2018-07-02,14.5,14.84,14.46,14.8,7088704
2018-07-03,14.79,14.92,14.75,14.77,4748199
2018-07-05,14.8,14.84,14.57,14.82,9473771
2018-07-06,14.88,15.05,14.73,14.98,5527834
2018-07-09,15.04,15.315,14.99,15.23,6361978
2018-07-10,15.24,15.535,15.2,15.5,12151360
2018-07-11,15.31,15.35,15.08,15.1,8725672
2018-07-12,15.15,15.47,15.12,15.39,4759838
2018-07-13,15.34,15.53,15.3,15.49,8808167
2018-07-16,15.45,15.65,15.335,15.64,10737970
2018-07-17,15.59,15.8,15.56,15.66,8883040
2018-07-18,15.69,15.95,15.65,15.93,6992383
2018-07-19,15.93,16.155,15.61,15.64,11530110
2018-07-20,15.59,15.615,15.405,15.47,6758414
2018-07-23,15.41,15.55,15.27,15.47,13145564
2018-07-24,15.61,15.665,15.25,15.3,7482036
2018-07-25,15.24,15.49,15.23,15.48,6029225
2018-07-26,15.49,15.77,15.48,15.69,4970568
2018-07-27,15.76,15.89,15.53,15.59,5753435
2018-07-30,15.58,15.64,15.32,15.45,4940037
2018-07-31,15.45,15.55,15.37,15.44,6644722
2018-08-01,15.42,15.61,15.37,15.45,5640157
2018-08-02,15.35,15.57,15.32,15.55,7753072
2018-08-03,15.61,15.9999,15.59,15.98,7397198
2018-08-06,15.93,16.045,15.85,16.01,5224110
2018-08-07,16.05,16.23,16.02,16.13,4396525
2018-08-08,16.14,16.29,16.07,16.16,4663973
2018-08-09,16.14,16.225,16.06,16.11,3503908
2018-08-10,15.98,16.085,15.78,15.85,5037146
2018-08-13,15.85,15.97,15.66,15.66,5039564
2018-08-14,15.7,16.02,15.7,15.99,5182786
2018-08-15,15.86,16.09,15.79,16.03,10275928
2018-08-16,16.12,16.39,16.025,16.27,10664803
2018-08-17,16.25,16.795,16.2075,16.67,12400065
2018-08-20,16.74,16.96,16.59,16.72,9402443
2018-08-21,16.47,16.47,15.74,15.78,16634003
2018-08-22,15.76,15.92,15.72,15.82,8331011
