Date,Open,High,Low,Close,Volume
2015-07-06,63.6,66.546,63.6,65.356,4252957
2015-07-07,66.046,66.92,65.356,66.852,6469024
2015-07-08,66.555,67.631,66.326,67.543,4775071
2015-07-09,68.5,69.038,66.736,67.005,4763462
2015-07-10,67.227,69.691,67.184,69.253,5562659
2015-07-13,71.224,71.394,69.79,70.615,10135227
2015-07-14,71.169,71.215,69.556,69.87,20927222
2015-07-15,69.556,70.022,68.437,68.714,7067048
2015-07-16,68.949,70.625,68.929,70.543,6289516
2015-07-17,71.15,71.384,69.207,71.331,6810626
2015-07-20,71.619,72.735,70.883,71.761,11481095
2015-07-21,71.633,72.27,71.123,71.861,6835635
2015-07-22,72.406,72.468,70.391,70.444,5806357
2015-07-23,70.742,70.876,69.136,69.227,3298579
2015-07-24,69.39,69.849,68.514,68.927,3454216
2015-07-27,69.128,70.346,68.819,69.804,6401054
2015-07-28,70.761,70.95,69.911,70.652,2101684
2015-07-29,70.596,70.635,69.459,70.279,2525813
2015-07-30,70.552,71.887,70.002,71.455,3599325
2015-07-31,72.114,72.114,71.136,71.689,2976990
2015-08-03,72.166,73.096,72.087,72.5,2972889
2015-08-04,72.681,73.069,71.868,71.996,2693312
2015-08-05,72.175,73.069,72.031,72.598,4794110
2015-08-06,73.114,73.24,71.726,71.951,4111184
2015-08-07,71.391,71.609,69.722,70.777,3629476
2015-08-10,71.652,71.987,70.876,71.095,3605200
2015-08-11,70.027,72.598,69.525,70.336,4311200
2015-08-12,70.21,70.644,68.641,69.18,4089190
2015-08-13,69.468,69.525,68.38,68.55,3234061
2015-08-14,68.621,69.227,67.764,68.937,2852611
2015-08-17,68.433,68.927,68.118,68.38,2505638
2015-08-18,68.306,68.514,67.71,67.827,2227727
2015-08-19,67.657,67.919,66.681,67.458,3354890
2015-08-20,66.773,67.441,66.555,66.98,2446440
2015-08-21,66.131,66.98,65.185,65.195,6168484
2015-08-24,61.695,65.168,55.405,63.929,10913139
2015-08-25,64.851,65.311,63.147,63.335,4903415
2015-08-26,64.696,66.854,62.722,66.671,5937685
2015-08-27,66.005,67.881,65.961,67.821,6582187
2015-08-28,67.114,67.827,66.593,67.377,2383476
2015-08-31,66.943,67.144,65.465,65.545,2980205
2015-09-01,64.256,65.437,62.821,63.253,5178442
2015-09-02,63.905,65.013,63.425,65.013,3310550
2015-09-03,65.455,66.655,64.762,65.095,2876888
2015-09-04,64.176,64.669,63.263,63.659,3322300
2015-09-08,64.814,67.05,63.877,66.816,4933675
2015-09-09,67.162,67.204,64.932,65.104,3255122
2015-09-10,65.068,65.898,64.753,65.095,4012551
2015-09-11,65.177,66.69,64.589,66.536,2379705
2015-09-14,66.304,67.395,65.455,67.251,3245146
2015-09-15,67.601,68.125,66.529,68.009,3761615
2015-09-16,67.837,69.197,67.027,68.891,2552749
2015-09-17,69.081,70.144,68.56,68.947,3483703
2015-09-18,68.152,69.009,67.666,68.052,8016645
2015-09-21,68.278,68.729,67.619,67.837,3609744
2015-09-22,66.892,67.54,66.448,67.033,2914024
2015-09-23,66.907,67.296,66.086,66.131,4116126
2015-09-24,65.853,65.979,64.677,65.78,4895444
2015-09-25,66.574,66.621,65.655,66.167,3898742
2015-09-28,65.68,66.096,63.138,63.138,5550007
2015-09-29,63.292,64.03,61.928,62.425,4291054
2015-09-30,62.848,63.868,62.659,63.668,3472731
2015-10-01,64.291,64.923,62.939,63.895,2793081
2015-10-02,63.316,64.462,62.577,64.418,2874559
2015-10-05,64.949,66.079,64.364,65.168,7009816
2015-10-06,65.213,65.898,64.851,65.375,3125756
2015-10-07,65.618,66.519,65.384,65.988,2577583
2015-10-08,65.995,67.179,65.618,67.144,2482802
2015-10-09,67.124,67.853,66.747,67.105,3256785
2015-10-12,67.124,67.124,66.131,66.502,2307859
2015-10-13,66.484,66.69,66.014,66.196,2380594
2015-10-14,65.961,67.027,65.853,66.546,2169195
2015-10-15,66.98,67.853,66.681,67.853,2367401
2015-10-16,68.269,70.364,67.54,69.813,3808063
2015-10-19,69.362,69.641,68.819,69.28,2163763
2015-10-20,68.739,69.605,68.658,69.343,1730523
2015-10-21,69.459,70.129,69.128,69.508,2629129
2015-10-22,69.659,72.114,69.659,72.114,4380627
2015-10-23,71.4,72.067,69.849,70.346,3524054
2015-10-26,70.525,70.525,68.991,69.289,2842078
2015-10-27,68.748,69.894,68.748,69.615,2699521
2015-10-28,69.596,71.445,68.867,71.427,2640550
2015-10-29,71.12,71.263,70.229,70.95,1982626
2015-10-30,70.695,71.254,70.239,70.336,2275835
2015-11-02,70.751,71.203,70.112,70.606,1703308
2015-11-03,70.21,70.364,68.45,68.947,4977131
2015-11-04,68.848,69.161,67.873,68.395,2916888
2015-11-05,68.739,69.009,67.432,68.034,3710511
2015-11-06,66.529,67.204,64.569,64.959,9777117
2015-11-09,64.949,65.563,63.913,64.266,4690254
2015-11-10,64.726,65.148,64.184,65.023,3847083
2015-11-11,65.582,65.726,64.373,65.049,3921689
2015-11-12,64.728,64.91,63.882,64.471,4323481
2015-11-13,64.216,65.209,64.181,64.355,3307903
2015-11-16,64.58,65.573,64.509,65.154,2637524
2015-11-17,65.563,65.591,64.235,64.972,4670876
2015-11-18,65.326,66.418,64.718,65.998,4157095
2015-11-19,66.611,67.045,65.781,66.69,3110617
2015-11-20,67.447,68.718,66.747,66.973,4402329
2015-11-23,67.317,67.782,67.189,67.354,2975907
2015-11-24,67.045,67.754,67.001,67.717,1830359
2015-11-25,67.701,68.127,67.156,67.873,2621693
2015-11-27,67.811,68.201,67.49,67.845,854798
2015-11-30,67.763,68.073,66.836,67.009,4618753
2015-12-01,67.5,68.201,67.108,67.717,4123143
2015-12-02,67.48,67.853,66.31,66.418,2824811
2015-12-03,66.654,67.001,64.647,64.981,3320152
2015-12-04,64.927,66.135,64.629,65.672,4944043
2015-12-07,65.4,65.655,64.426,64.953,3654969
2015-12-08,64.561,65.159,64.188,65.045,4971292
2015-12-09,64.708,65.626,64.108,64.471,4333597
2015-12-10,64.409,64.864,64.117,64.417,3006257
2015-12-11,63.735,64.281,63.098,63.371,4130372
2015-12-14,63.717,64.638,63.442,64.537,4283351
2015-12-15,65.225,66.154,65.154,65.483,4584221
2015-12-16,66.028,66.562,65.373,66.389,2393831
2015-12-17,66.338,66.654,65.382,65.4,2642256
2015-12-18,64.943,65.416,64.226,64.264,7223176
2015-12-21,64.652,65.697,64.515,65.441,5962938
2015-12-22,65.68,67.099,65.386,66.863,5511849
2015-12-23,67.199,68.559,66.915,68.31,4573972
2015-12-24,68.585,68.585,67.733,67.808,2140617
2015-12-28,67.577,67.646,66.824,67.311,5913849
2015-12-29,67.523,68.632,67.294,68.476,4746679
2015-12-30,68.438,68.723,67.577,67.612,1473874
2015-12-31,67.267,67.384,66.588,66.707,1766915
2016-01-04,65.441,66.787,65.412,66.65,5040495
2016-01-05,66.687,67.458,66.264,67.285,3433426
2016-01-06,66.193,67.551,66.038,67.412,3114682
2016-01-07,66.019,66.915,65.872,65.918,3874405
2016-01-08,66.184,66.44,65.184,65.257,2664131
2016-01-11,65.412,66.495,64.882,66.254,3631638
2016-01-12,66.787,67.247,66.129,67.138,2988471
2016-01-13,67.099,67.328,64.763,64.919,3291702
2016-01-14,65.056,65.578,64.455,64.854,4461108
2016-01-15,63.168,64.313,62.506,63.441,6432011
2016-01-19,64.185,64.652,63.764,64.332,5570484
2016-01-20,63.515,65.623,63.022,65.248,4323230
2016-01-21,66.009,67.228,65.392,66.972,5263818
2016-01-22,67.475,68.302,66.478,68.201,2953799
2016-01-25,67.569,68.456,67.237,67.87,3974378
2016-01-26,67.267,69.677,67.267,69.659,3643476
2016-01-27,69.556,70.731,68.896,69.649,5171152
2016-01-28,69.924,70.583,69.198,69.824,3171871
2016-01-29,70.503,71.713,70.042,71.565,4276576
2016-02-01,70.932,71.033,69.375,70.602,3350376
2016-02-02,69.649,70.409,69.419,69.649,5554861
2016-02-03,70.015,70.015,67.688,68.659,6481994
2016-02-04,68.796,68.943,66.853,67.98,6683900
2016-02-05,68.1,68.356,66.137,66.724,9762900
2016-02-08,66.091,66.193,64.341,65.294,4659510
2016-02-09,64.727,65.972,64.185,65.56,4427713
2016-02-10,66.074,67.199,65.746,66.111,2434333
2016-02-11,65.002,65.972,64.336,65.497,2451676
2016-02-12,66.193,66.422,65.111,65.937,2901264
2016-02-16,66.834,66.981,65.937,66.293,3349850
2016-02-17,66.924,68.201,66.469,68.063,3575027
2016-02-18,67.917,68.11,67.237,67.337,2547390
2016-02-19,66.834,67.562,66.771,67.402,2709271
2016-02-22,68.201,68.201,66.203,67.228,2876828
2016-02-23,67.019,67.376,66.522,66.763,2706997
2016-02-24,66.313,67.228,65.849,66.915,3445210
2016-02-25,67.302,68.741,67.228,68.723,4042161
2016-02-26,72.244,72.335,70.272,71.363,10597830
2016-02-29,70.849,71.509,70.529,70.602,3947990
2016-03-01,71.2,71.437,70.52,71.191,5198552
2016-03-02,71.152,71.328,69.787,71.043,5271653
2016-03-03,70.869,71.098,70.1,70.932,3239067
2016-03-04,71.427,71.437,69.915,70.777,3274591
2016-03-07,70.602,70.952,69.806,70.135,2444012
2016-03-08,69.685,70.731,69.621,69.942,2735064
2016-03-09,70.289,70.592,69.494,70.256,2612201
2016-03-10,70.574,70.727,69.265,69.878,2298465
2016-03-11,70.833,70.915,70.051,70.548,2252434
2016-03-14,70.484,71.3,69.768,71.117,2485034
2016-03-15,71.014,71.346,70.427,71.308,3190175
2016-03-16,72.024,72.145,71.073,72.07,3681197
2016-03-17,71.654,72.135,70.879,72.051,4879008
2016-03-18,72.394,72.403,70.907,71.405,9831960
2016-03-21,71.092,71.582,70.354,70.741,3468245
2016-03-22,71.11,71.141,70.224,70.601,2831870
2016-03-23,70.721,71.175,70.391,70.944,2485631
2016-03-24,70.907,71.368,70.065,70.621,3634293
2016-03-28,70.769,71.979,70.252,71.822,3582598
2016-03-29,71.654,72.792,71.146,72.783,3759192
2016-03-30,72.892,73.011,72.291,72.873,3269403
2016-03-31,72.921,72.921,72.301,72.56,3240457
2016-04-01,72.532,73.114,72.148,73.04,3339161
2016-04-04,72.939,73.05,72.394,72.828,3319676
2016-04-05,72.475,72.828,71.941,72.051,2528507
2016-04-06,72.43,72.43,71.582,72.376,2293688
2016-04-07,72.06,72.31,71.141,71.582,3024045
2016-04-08,72.015,72.596,71.619,72.475,2218512
2016-04-11,72.716,72.966,71.903,71.96,2838040
2016-04-12,72.042,72.624,71.619,72.348,2224949
2016-04-13,72.672,72.716,71.203,71.49,3163455
2016-04-14,71.49,71.871,71.017,71.275,3279182
2016-04-15,71.634,72.31,71.239,72.09,3018984
2016-04-18,71.969,72.376,71.368,72.357,2071131
2016-04-19,72.357,72.854,71.912,72.319,2419822
2016-04-20,72.357,72.672,71.582,71.969,1741648
2016-04-21,71.849,71.969,70.788,70.879,1893023
2016-04-22,70.84,72.18,70.84,72.135,2276148
2016-04-25,71.932,72.818,71.619,72.716,2097348
2016-04-26,72.699,73.473,72.515,72.689,2240531
2016-04-27,73.17,73.428,72.034,73.06,2109019
2016-04-28,72.551,73.179,72.127,72.376,1739245
2016-04-29,71.683,72.306,71.239,72.108,3007445
2016-05-02,72.108,74.121,72.042,73.447,3400236
2016-05-03,72.986,73.234,72.248,72.672,2266654
2016-05-04,72.485,74.167,72.31,73.87,4424834
2016-05-05,76.624,77.742,76.199,76.633,8075763
2016-05-06,76.503,77.62,75.682,77.593,3583575
2016-05-09,77.586,78.313,77.252,77.826,3198659
2016-05-10,77.991,79.617,77.796,79.561,3528866
2016-05-11,79.404,79.93,78.685,78.701,2281699
2016-05-12,78.952,80.04,78.647,79.747,2337435
2016-05-13,79.459,79.848,78.25,78.627,2601461
2016-05-16,78.813,79.652,78.546,79.313,1797716
2016-05-17,79.146,79.486,75.525,75.875,7496792
2016-05-18,75.69,75.995,74.314,74.98,8392530
2016-05-19,74.675,76.679,74.454,76.66,3605333
2016-05-20,76.106,76.531,75.571,76.126,2530129
2016-05-23,76.208,76.893,76.126,76.484,1869069
2016-05-24,76.78,77.931,76.383,77.786,2236483
2016-05-25,77.71,78.842,77.309,78.369,2545281
2016-05-26,78.138,78.881,77.893,77.942,2170343
2016-05-27,77.801,78.359,77.653,78.211,1114936
2016-05-31,78.268,78.527,76.884,77.365,3369130
2016-06-01,77.272,78.109,77.188,78.07,1803135
2016-06-02,78.007,78.852,77.7,78.842,2052979
2016-06-03,79.048,79.44,78.769,79.327,2797489
2016-06-06,79.513,79.606,78.759,79.038,2293829
2016-06-07,79.206,79.68,78.696,78.815,1980523
2016-06-08,79.103,79.44,78.424,79.216,1634891
2016-06-09,78.974,79.728,78.842,79.624,1948583
2016-06-10,79.606,79.606,78.779,79.362,1684966
2016-06-13,79.299,79.746,78.716,79.001,2626717
2016-06-14,78.991,79.318,78.424,78.937,2535134
2016-06-15,79.048,79.411,78.452,78.898,2709649
2016-06-16,78.749,79.346,78.1,79.309,2156525
2016-06-17,79.362,79.391,78.138,78.888,2538361
2016-06-20,79.503,80.442,79.268,79.513,2599652
2016-06-21,79.549,80.387,79.503,79.69,1880943
2016-06-22,79.922,79.968,79.121,79.243,1323824
2016-06-23,79.922,80.338,79.444,80.321,1754220
2016-06-24,77.841,79.141,77.579,77.866,5647004
2016-06-27,77.401,77.978,76.724,77.772,3189956
2016-06-28,78.005,78.852,77.188,78.834,3148893
2016-06-29,79.076,80.286,78.769,80.07,3056737
2016-06-30,80.34,82.424,80.137,82.283,5158633
2016-07-01,82.377,83.138,81.978,82.061,2385705
2016-07-05,82.014,83.225,81.372,82.526,3057238
2016-07-06,82.442,83.48,82.071,83.456,3125846
2016-07-07,83.297,83.53,82.591,83.056,2332248
2016-07-08,83.632,83.941,82.889,83.557,3520444
2016-07-11,83.632,83.837,83.056,83.55,2599742
2016-07-12,83.225,83.437,81.493,81.65,4116161
2016-07-13,81.68,82.842,81.493,82.786,2529406
2016-07-14,82.898,82.997,81.708,82.145,2598023
2016-07-15,82.675,82.972,81.96,82.628,1913958
2016-07-18,82.842,83.046,82.34,82.86,1643332
2016-07-19,82.62,82.87,82.079,82.74,1598125
2016-07-20,82.646,82.721,81.781,81.996,2079342
2016-07-21,81.93,82.014,81.212,81.503,1888803
2016-07-22,81.857,82.292,81.665,81.986,1965224
2016-07-25,81.986,82.239,81.68,82.219,1333891
2016-07-26,82.34,82.572,80.945,80.962,1395225
2016-07-27,81.261,81.334,79.233,79.634,3776621
2016-07-28,79.68,80.173,79.27,79.94,2241966
2016-07-29,80.191,80.564,79.848,80.34,1615189
2016-08-01,80.258,80.517,79.532,79.949,2438498
2016-08-02,79.746,79.746,78.711,79.187,2610997
2016-08-03,79.336,79.489,78.349,78.956,2332137
2016-08-04,79.17,79.642,78.749,79.549,2879076
2016-08-05,83.557,84.154,82.302,82.572,4586322
2016-08-08,82.498,82.572,81.456,82.536,2055874
2016-08-09,82.703,83.688,82.521,83.493,2178101
2016-08-10,83.484,83.652,82.74,83.094,1279190
2016-08-11,83.427,84.096,83.037,83.177,2497512
2016-08-12,82.982,84.134,82.982,83.289,1339641
2016-08-15,83.427,83.596,82.628,82.842,1282412
2016-08-16,82.796,82.925,82.074,82.73,2064255
2016-08-17,82.815,83.205,82.061,83.148,1659107
2016-08-18,83.046,83.567,82.86,83.476,1447424
2016-08-19,83.326,83.884,83.094,83.624,1527870
2016-08-22,83.586,84.062,83.25,83.669,1996601
2016-08-23,83.931,84.144,83.092,83.205,1923018
2016-08-24,83.177,83.318,82.418,83.28,1747661
2016-08-25,83.318,84.207,83.039,83.233,1712516
2016-08-26,83.363,83.749,82.315,82.549,1683591
2016-08-29,82.718,83.148,82.511,82.923,1407259
2016-08-30,82.98,83.162,82.175,82.363,1697300
2016-08-31,82.494,84.093,82.494,83.785,2525471
2016-09-01,83.86,83.99,82.896,83.775,2060071
2016-09-02,84.169,84.769,83.429,83.897,1943075
2016-09-06,83.972,84.431,83.453,84.01,1392194
2016-09-07,83.542,84.084,83.289,84.067,3068540
2016-09-08,83.98,84.067,83.055,83.504,1959243
2016-09-09,82.616,82.736,80.471,80.498,2682432
2016-09-12,80.125,83.045,79.909,82.915,2627165
2016-09-13,83.579,83.579,81.876,82.642,2194779
2016-09-14,82.511,83.157,81.81,82.091,1735303
2016-09-15,81.791,83.57,81.755,83.486,1758578
2016-09-16,83.167,83.448,82.063,83.27,4034569
2016-09-19,83.215,83.327,81.359,81.426,3977408
2016-09-20,81.903,82.128,81.547,81.566,2819939
2016-09-21,81.698,82.54,81.229,82.305,2263861
2016-09-22,82.98,83.477,82.708,83.373,1278996
2016-09-23,83.504,83.794,83.018,83.167,1354498
2016-09-26,83.12,83.308,82.447,82.887,1313315
2016-09-27,83.102,83.785,82.877,83.542,1077443
2016-09-28,83.869,83.907,83.148,83.842,1476574
2016-09-29,83.542,83.729,82.773,82.906,1037192
2016-09-30,83.327,84.179,83.187,83.804,1373188
2016-10-03,83.56,83.758,83.094,83.401,1631848
2016-10-04,83.599,83.599,82.1,82.408,1697847
2016-10-05,82.69,82.69,81.771,81.81,1726839
2016-10-06,81.482,82.072,81.247,81.911,1023833
2016-10-07,82.166,82.166,81.173,81.829,1586633
2016-10-10,81.866,83.018,81.866,82.858,1860343
2016-10-11,82.616,82.858,81.511,81.679,2288501
2016-10-12,82.821,82.821,81.453,81.585,2930227
2016-10-13,81.257,81.755,80.986,81.501,2708053
2016-10-14,81.771,83.045,81.511,82.906,2215753
2016-10-17,83.064,83.327,82.418,83.167,2073932
2016-10-18,84.347,84.403,83.233,83.26,2352322
2016-10-19,83.26,83.28,81.97,82.466,2521122
2016-10-20,81.659,83.102,81.659,82.353,2539186
2016-10-21,82.063,82.559,81.434,82.315,1687994
2016-10-24,82.961,83.532,82.869,83.241,1740031
2016-10-25,83.542,83.963,82.549,82.728,2510680
2016-10-26,82.868,83.045,82.305,82.466,1506731
2016-10-27,82.549,82.737,81.622,82.1,2005798
2016-10-28,81.903,83.018,81.903,82.466,1727330
2016-10-31,82.803,83.477,82.681,83.28,3821744
2016-11-01,83.327,83.494,82.494,82.737,2715816
2016-11-02,82.98,83.036,82.372,82.531,2048419
2016-11-03,82.502,82.737,80.64,80.753,5385242
2016-11-04,76.801,79.807,75.837,78.694,8357954
2016-11-07,79.881,80.601,78.926,80.547,3726277
2016-11-08,80.733,83.177,80.583,82.708,2660283
2016-11-09,80.686,81.426,78.814,79.526,5120891
2016-11-10,79.61,80.077,75.424,76.23,7794068
2016-11-11,75.837,76.53,75.049,76.033,4281978
2016-11-14,75.846,76.427,74.825,74.975,4767348
2016-11-15,75.433,76.51,75.106,75.967,6113662
2016-11-16,76.192,77.475,76.108,77.137,3152330
2016-11-17,77.063,77.56,76.304,77.56,3205665
2016-11-18,77.428,77.643,76.792,77.269,2766562
2016-11-21,77.269,78.476,76.965,78.31,2364405
2016-11-22,78.513,79.083,78.364,78.729,2551142
2016-11-23,78.457,78.936,76.52,77.185,3488361
2016-11-25,77.363,77.98,77.363,77.661,1282926
2016-11-28,77.661,78.335,77.11,77.915,1890831
2016-11-29,78.083,79.113,77.832,78.635,2542481
2016-11-30,78.362,78.748,76.997,76.997,3335197
2016-12-01,76.864,77.117,75.373,75.9,2994707
2016-12-02,76.139,76.874,75.77,76.297,2858863
2016-12-05,76.297,76.524,75.547,75.704,4387007
2016-12-06,76.014,76.266,75.146,75.402,3519628
2016-12-07,75.855,78.466,75.694,78.23,4810550
2016-12-08,77.88,77.924,77.193,77.616,2558613
2016-12-09,77.846,79.013,77.39,79.004,2233777
2016-12-12,78.834,79.995,78.542,79.4,2524923
2016-12-13,79.776,80.719,79.239,80.098,3128685
2016-12-14,80.136,80.532,78.948,79.55,3046032
2016-12-15,80.279,81.153,79.333,80.502,4550442
2016-12-16,80.984,81.624,80.021,81.53,5869648
2016-12-19,81.427,81.936,80.833,81.662,3531694
2016-12-20,81.36,81.662,80.466,81.078,2746091
2016-12-21,81.032,82.03,80.909,81.672,2266367
2016-12-22,81.522,82.313,81.38,82.303,1972678
2016-12-23,82.135,82.626,82.002,82.577,2064597
2016-12-27,82.662,83.058,82.323,82.587,2064436
2016-12-28,82.511,82.766,82.069,82.333,1416380
2016-12-29,82.323,83.124,82.323,82.917,1772114
2016-12-30,83.002,83.132,82.106,82.342,2175783
2017-01-03,82.841,82.955,81.475,82.54,3223328
2017-01-04,82.531,82.955,81.946,82.069,2334197
2017-01-05,81.946,82.323,81.172,81.598,3090081
2017-01-06,81.598,81.617,80.937,81.39,2412145
2017-01-09,81.333,81.544,80.709,81.162,2609208
2017-01-10,80.955,81.38,80.542,81.013,1945532
2017-01-11,81.211,82.077,81.135,81.813,2324828
2017-01-12,81.881,82.766,81.568,82.436,2597480
2017-01-13,82.436,82.446,81.642,82.069,1817673
2017-01-17,81.766,82.959,81.766,82.909,2344102
2017-01-18,82.795,83.539,82.795,83.314,2332568
2017-01-19,83.152,83.387,82.559,82.841,1627400
2017-01-20,83.314,83.926,82.993,83.879,2736965
2017-01-23,83.605,83.879,83.172,83.738,2747118
2017-01-24,83.842,84.104,83.285,83.633,2197301
2017-01-25,83.86,84.181,83.369,83.775,1728360
2017-01-26,84.388,84.776,83.657,84.313,3247349
2017-01-27,83.888,84.652,83.719,84.332,1926196
2017-01-30,84.011,84.397,83.577,83.991,1734465
2017-01-31,83.832,84.454,83.77,84.2,2487339
2017-02-01,83.822,84.241,83.272,83.369,1744336
2017-02-02,83.465,84.021,83.285,83.549,1643600
2017-02-03,84.124,84.256,83.587,84.181,2338369
2017-02-06,84.209,84.303,83.587,83.643,1363880
2017-02-07,83.653,83.945,83.455,83.748,2656664
2017-02-08,83.748,84.218,83.728,84.104,3293092
2017-02-09,84.181,85.236,83.964,84.661,2545839
2017-02-10,84.493,85.377,84.246,85.059,1942015
2017-02-13,85.162,85.436,84.582,85.416,1830677
2017-02-14,85.406,85.871,84.963,85.634,2416673
2017-02-15,85.933,86.094,85.113,85.902,3100420
2017-02-16,84.021,84.717,81.427,82.303,10887038
2017-02-17,86.755,92.195,86.614,91.141,31343416
2017-02-21,86.585,90.036,86.143,89.462,14546061
2017-02-22,89.444,89.584,87.688,88.038,5123419
2017-02-23,87.971,88.283,87.085,87.642,2924945
2017-02-24,88.179,88.452,87.292,87.773,2751176
2017-02-27,87.321,87.565,85.181,85.453,6215498
2017-02-28,85.509,86.736,85.2,86.294,4261885
2017-03-01,87.109,87.242,86.047,86.786,2895818
2017-03-02,86.852,87.034,86.17,86.644,2562309
2017-03-03,86.616,86.852,86.197,86.852,1679680
2017-03-06,86.398,86.862,86.179,86.53,2057617
2017-03-07,86.197,86.796,86.112,86.189,1479033
2017-03-08,86.064,86.54,85.847,86.285,2035443
2017-03-09,86.161,86.933,86.018,86.882,2134987
2017-03-10,87.403,87.413,86.625,86.857,1555454
2017-03-13,86.607,86.852,86.398,86.549,2299742
2017-03-14,86.53,86.711,86.064,86.435,2209562
2017-03-15,86.938,87.461,86.464,87.176,2187384
2017-03-16,88.031,88.533,87.479,88.058,4360506
2017-03-17,88.846,88.912,87.156,87.309,5452895
2017-03-20,87.356,88.229,87.223,87.668,2173379
2017-03-21,87.622,88.067,86.938,87.233,2500286
2017-03-22,87.564,88.039,87.366,87.603,1622745
2017-03-23,87.375,88.067,87.233,87.337,1931410
2017-03-24,87.556,87.707,86.682,87.025,1704675
2017-03-27,86.852,86.938,86.465,86.616,1764838
2017-03-28,86.17,87.01,86.17,86.768,1871371
2017-03-29,86.568,86.947,86.435,86.843,1469298
2017-03-30,86.786,87.015,86.417,86.473,1161462
2017-03-31,86.265,86.559,85.97,86.197,2146672
2017-04-03,86.189,86.644,86.028,86.435,3597708
2017-04-04,86.093,86.616,85.684,86.587,2286760
2017-04-05,86.473,87.727,86.407,86.777,2650720
2017-04-06,86.843,87.128,86.047,86.331,2098534
2017-04-07,86.54,86.843,86.064,86.093,2107323
2017-04-10,86.047,86.379,85.581,86.275,2370938
2017-04-11,86.275,86.444,85.797,86.216,1471265
2017-04-12,86.407,87.461,86.388,87.261,2069035
2017-04-13,87.375,87.375,86.834,86.852,1770791
2017-04-17,87.138,87.289,86.407,86.929,1741529
2017-04-18,86.892,87.925,86.692,87.801,2152006
2017-04-19,87.737,87.756,87.034,87.186,2015877
2017-04-20,87.432,87.707,86.902,87.366,1711826
2017-04-21,87.452,87.556,86.91,86.947,1926195
2017-04-24,87.337,88.154,87.337,87.86,2269413
2017-04-25,87.935,88.177,87.594,87.603,1980711
2017-04-26,87.632,87.641,86.265,86.301,2882989
2017-04-27,86.301,86.777,86.055,86.216,2413212
2017-04-28,86.568,86.597,85.267,85.799,3049408
2017-05-01,86.047,86.142,84.813,84.926,3543554
2017-05-02,85.087,85.267,84.252,84.48,3216921
2017-05-03,85.638,85.638,84.385,84.612,2837860
2017-05-04,83.53,87.138,82.714,85.144,6733137
2017-05-05,85.297,85.524,84.651,85.077,2388566
2017-05-08,85.03,85.211,84.48,84.936,2435331
2017-05-09,84.698,85.098,84.357,84.67,2422178
2017-05-10,84.584,84.859,84.423,84.794,1742883
2017-05-11,84.29,84.918,84.29,84.745,1476156
2017-05-12,84.803,84.908,84.167,84.432,1925001
2017-05-15,84.252,84.926,84.063,84.908,2134654
2017-05-16,84.726,85.267,84.338,84.584,2080257
2017-05-17,84.966,86.143,84.584,85.54,4046723
2017-05-18,85.674,86.706,84.966,86.162,2987230
2017-05-19,85.769,86.534,85.436,86.277,2833283
2017-05-22,86.113,87.279,86.047,87.136,1910044
2017-05-23,87.164,87.919,86.973,87.794,1887364
2017-05-24,87.919,88.55,87.709,88.484,1899187
2017-05-25,88.579,88.884,88.283,88.695,1742953
2017-05-26,88.78,88.962,88.416,88.865,1368712
2017-05-30,88.818,88.875,88.099,88.359,2043316
2017-05-31,88.521,88.828,87.89,88.111,2389314
2017-06-01,88.253,88.626,87.366,88.618,2580441
2017-06-02,88.818,89.4,88.283,89.39,2622391
2017-06-05,89.43,89.544,88.923,89.295,1786705
2017-06-06,89.305,89.707,88.952,89.076,1840079
2017-06-07,89.305,89.717,89.008,89.611,2079370
2017-06-08,89.315,89.515,88.374,88.464,2563176
2017-06-09,88.378,88.436,86.447,86.802,2930908
2017-06-12,86.581,88.32,86.418,87.203,2846837
2017-06-13,86.659,87.595,86.171,87.527,1998452
2017-06-14,88.063,88.349,86.954,87.403,1776039
2017-06-15,87.117,87.767,86.973,87.585,2420060
2017-06-16,86.839,87.174,84.966,85.444,7817363
2017-06-19,85.97,86.238,85.072,85.866,3486232
2017-06-20,85.683,85.791,85.187,85.32,2782936
2017-06-21,85.349,85.719,85.158,85.436,2287649
2017-06-22,85.501,85.769,84.952,85.148,2847242
2017-06-23,85.436,85.436,84.641,84.91,4408883
2017-06-26,85.559,85.751,84.928,84.995,1783392
2017-06-27,84.824,85.005,83.601,83.628,3099545
2017-06-28,84.202,84.565,83.342,83.925,3173018
2017-06-29,83.8,83.918,81.659,81.957,5429272
2017-06-30,83.333,83.399,81.708,81.842,3573540
2017-07-03,82.148,82.282,80.648,80.723,3040312
2017-07-05,80.713,81.001,79.935,80.073,4811413
2017-07-06,79.606,79.902,78.956,79.147,3552962
2017-07-07,78.917,80.179,78.554,79.357,3547783
2017-07-10,79.691,80.017,79.088,79.098,3118965
2017-07-11,78.554,80.266,78.554,80.035,5255776
2017-07-12,80.589,81.403,80.552,80.944,4213255
2017-07-13,80.981,81.268,80.594,81.087,2748396
2017-07-14,81.526,81.898,81.067,81.852,2651206
2017-07-17,81.881,81.947,81.317,81.803,1916493
2017-07-18,81.89,82.042,81.396,81.803,1660428
2017-07-19,81.832,82.042,81.431,81.89,2285940
2017-07-20,82.282,82.282,81.866,82.09,2896386
2017-07-21,81.862,82.368,81.622,82.339,2958876
2017-07-24,82.299,82.482,81.803,82.395,1968670
2017-07-25,82.415,83.725,82.324,83.543,3152231
2017-07-26,83.619,86.372,83.533,83.771,3070799
2017-07-27,83.648,84.307,83.438,84.279,3163736
2017-07-28,83.905,84.164,83.209,83.754,1990823
2017-07-31,83.895,84.087,83.122,83.581,2713468
2017-08-01,83.504,83.877,82.711,82.826,3425245
2017-08-02,82.463,83.275,81.689,83.017,3945206
2017-08-03,83.045,83.714,82.501,82.673,4150056
2017-08-04,83.304,83.657,82.167,82.817,8373743
2017-08-07,82.702,83.36,82.434,83.16,3343407
2017-08-08,82.798,83.122,82.204,82.339,3270521
2017-08-09,82.185,82.893,81.717,82.626,2644340
2017-08-10,82.109,82.567,81.784,82.08,3154456
2017-08-11,82.09,82.73,81.842,82.634,2656719
2017-08-14,82.903,83.418,82.663,83.16,2542739
2017-08-15,83.19,83.333,82.664,82.893,1847714
2017-08-16,83.211,83.432,83.046,83.258,1994887
2017-08-17,83.037,83.508,81.892,81.92,3095694
2017-08-18,81.738,82.084,81.007,81.324,2943840
2017-08-21,81.554,81.554,81.093,81.382,1833358
2017-08-22,81.584,81.94,81.478,81.863,2114214
2017-08-23,81.767,81.969,81.315,81.574,1753269
2017-08-24,81.334,81.42,79.591,79.697,3571700
2017-08-25,80.16,80.198,79.359,79.505,3413561
2017-08-28,79.678,79.89,78.567,79.063,2747195
2017-08-29,78.714,79.033,78.048,78.388,3627501
2017-08-30,78.446,79.11,78.186,78.86,3560254
2017-08-31,78.061,79.023,77.282,77.725,5577617
2017-09-01,77.725,78.061,77.099,77.821,5080587
2017-09-05,77.695,78.446,77.532,78.109,3430646
2017-09-06,78.186,78.349,77.801,78.282,2615007
2017-09-07,78.398,78.658,77.801,78.408,3384021
2017-09-08,78.398,78.947,77.638,78.658,3739306
2017-09-11,79.023,79.465,78.888,79.455,3005424
2017-09-12,79.717,79.87,78.984,79.1,2332685
2017-09-13,79.177,79.264,78.608,78.84,3053603
2017-09-14,78.907,78.927,77.964,78.233,3098137
2017-09-15,78.282,78.811,77.502,78.378,6179334
2017-09-18,78.196,78.552,78.003,78.349,2855288
2017-09-19,78.253,78.369,77.579,77.801,2425731
2017-09-20,77.474,77.541,76.164,76.878,6423022
2017-09-21,76.994,77.445,75.982,76.04,3076560
2017-09-22,76.05,76.269,74.499,74.615,4979065
2017-09-25,74.691,75.511,74.567,75.482,4501251
2017-09-26,75.654,75.953,75.106,75.645,3283365
2017-09-27,75.693,75.847,74.885,75.299,3240962
2017-09-28,75.346,75.798,74.817,75.048,2911691
2017-09-29,75.106,75.335,74.539,74.625,3929079
2017-10-02,74.644,75.336,74.009,74.932,3777600
2017-10-03,75.029,75.211,74.394,74.904,2460980
2017-10-04,74.336,75.221,73.884,74.856,3824375
2017-10-05,75.029,75.543,74.789,75.317,2956053
2017-10-06,75.886,75.982,75.062,75.25,2447626
2017-10-09,75.356,75.674,74.302,74.432,2777836
2017-10-10,74.836,75.317,74.75,75.211,3100700
2017-10-11,75.135,75.712,75,75.26,2418299
2017-10-12,75.414,75.701,75.115,75.221,2633452
2017-10-13,75.607,75.654,74.75,74.827,3852231
2017-10-16,74.875,75.168,74.577,74.74,3565894
2017-10-17,74.817,75.087,74.442,74.635,4541169
2017-10-18,74.544,74.559,73.797,74.21,3350600
2017-10-19,74.114,74.199,73.451,73.605,4012727
2017-10-20,73.893,74.21,73.268,73.835,4941254
2017-10-23,73.999,74.21,73.585,74.172,4405864
2017-10-24,74.23,74.519,74.048,74.326,3168773
2017-10-25,73.854,74.519,73.373,74.432,4072800
2017-10-26,74.682,75.02,74.26,74.403,2959744
2017-10-27,73.942,74.567,73.378,74.403,3878920
2017-10-30,74.23,74.326,72.391,72.45,5419332
2017-10-31,73.325,74.499,73.172,74.432,5024401
2017-11-01,74.797,74.942,74.191,74.789,4210381
2017-11-02,73.96,75.26,72.68,75.106,6787784
2017-11-03,74.952,75.26,74.664,75.077,4236639
2017-11-06,75.164,75.289,73.643,74.114,4864172
2017-11-07,74.048,75.693,73.633,75.25,3554894
2017-11-08,75.693,77.09,75.289,76.598,4216764
2017-11-09,76.289,76.944,76.058,76.435,3565118
2017-11-10,76.011,76.887,76.011,76.733,3535467
2017-11-13,76.675,77.359,76.618,76.858,3380982
2017-11-14,76.559,76.887,76.068,76.405,2949738
2017-11-15,76.511,76.897,75.626,75.838,3405008
2017-11-16,76.371,77.767,76.168,77.293,3122097
2017-11-17,77.254,77.68,76.909,77.254,4394504
2017-11-20,77.322,78.544,77.254,77.545,3845090
2017-11-21,77.73,77.894,77.38,77.623,2531157
2017-11-22,77.652,77.807,77.215,77.438,3013822
2017-11-24,77.855,77.952,77.167,77.371,1180045
2017-11-27,77.38,77.652,77.08,77.234,4702543
2017-11-28,77.322,77.477,76.366,76.624,3262849
2017-11-29,76.594,79.126,76.527,78.671,4179399
2017-11-30,79.01,79.729,78.098,78.942,4539993
2017-12-01,78.534,79.166,77.894,78.788,3457290
2017-12-04,78.893,79.834,78.743,79.475,2997389
2017-12-05,79.602,80.019,78.108,78.233,3347883
2017-12-06,78.34,78.718,77.847,78.088,2642566
2017-12-07,77.777,78.098,76.943,76.993,2610208
2017-12-08,77.224,77.327,75.61,76.139,5495978
2017-12-11,75.847,76.052,74.887,76.032,4111070
2017-12-12,75.992,76.73,75.789,76.594,3230084
2017-12-13,76.886,77.224,76.42,76.914,3073649
2017-12-14,76.914,77.322,76.517,76.624,3416800
2017-12-15,77.419,77.448,76.652,77.157,6890478
2017-12-18,77.593,77.961,76.923,77.002,2804869
2017-12-19,77.147,77.438,76.052,76.176,2974838
2017-12-20,76.458,76.507,75.013,75.071,3829088
2017-12-21,75.517,75.838,74.77,75.556,4697967
2017-12-22,75.808,76.255,75.556,75.905,3186453
2017-12-26,75.789,76.129,75.673,75.779,2610104
2017-12-27,75.905,76.255,75.624,75.653,1811295
2017-12-28,75.886,75.954,75.401,75.595,1941734
2017-12-29,75.382,76.333,75.372,75.439,2518604
2018-01-02,75.886,75.973,74.585,74.702,4132124
2018-01-03,75.022,75.275,74.605,74.712,3471940
2018-01-04,74.926,75.886,74.761,75.586,3714089
2018-01-05,75.711,75.992,74.926,75.517,4280184
2018-01-08,75.498,76.236,75.498,76.139,3223238
2018-01-09,76.196,76.371,75.721,76.273,3542306
2018-01-10,76.303,76.303,75.091,75.566,3933886
2018-01-11,75.692,75.867,74.722,74.829,3593590
2018-01-12,75.042,75.255,74.314,75.042,4353156
2018-01-16,75.643,76.565,75.245,76.293,5491632
2018-01-17,76.749,78.263,76.439,77.68,6719358
2018-01-18,77.767,78.195,76.662,76.905,3541705
2018-01-19,77.157,77.574,76.739,77.284,3864014
2018-01-22,77.438,78.049,77.38,77.777,4086869
2018-01-23,77.38,78.128,77.187,77.874,2842163
2018-01-24,78.098,78.185,77.331,77.477,3209886
2018-01-25,77.613,78.045,77.013,77.293,3017289
2018-01-26,77.516,77.613,76.06,77.02,4889633
2018-01-29,76.808,77.496,76.052,76.079,3373915
2018-01-30,76.293,77.284,76.089,76.158,3431256
2018-01-31,76.273,76.527,75.527,76.052,4971893
2018-02-01,75.789,76.594,75.285,76.226,3215778
2018-02-02,75.789,76.002,74.363,74.887,5379798
2018-02-05,74.984,75.612,71.961,72.045,5526040
2018-02-06,71.636,72.102,69.9,72.093,7788841
2018-02-07,71.636,72.48,71.326,71.345,6948189
2018-02-08,71.404,71.831,69.124,69.444,8454152
2018-02-09,69.851,70.492,68.149,69.25,7063339
2018-02-12,69.386,70.462,69.318,69.667,4498387
2018-02-13,69.386,69.841,68.571,69.57,4128686
2018-02-14,69.211,69.891,68.59,69.774,5671497
2018-02-15,70.036,70.608,68.542,70.541,7596580
2018-02-16,67.853,69.124,65.631,68.687,15459611
2018-02-20,66.66,68.687,66.66,66.66,8967002
2018-02-21,66.864,66.873,65.427,65.457,6831112
2018-02-22,65.37,66.213,65.049,65.621,6152212
2018-02-23,65.932,67.048,65.34,66.961,5916562
2018-02-26,67.523,67.912,66.515,67.659,7751757
2018-02-27,67.533,67.927,65.835,65.845,5578549
2018-02-28,66.234,66.543,65.03,65.049,6383517
2018-03-01,65.136,65.961,64.379,64.894,5369789
2018-03-02,65.021,65.592,64.536,65.166,4969067
2018-03-05,64.73,65.709,64.73,65.417,4031131
2018-03-06,65.681,65.845,65.223,65.748,3648306
2018-03-07,65.34,65.574,64.74,65.447,3418454
2018-03-08,65.771,65.957,65.08,65.593,3583066
2018-03-09,65.799,66.191,65.143,65.829,5015516
2018-03-12,65.859,66.475,65.701,66.289,2709687
2018-03-13,66.427,66.533,65.761,65.967,3432264
2018-03-14,66.201,66.495,64.84,65.193,3983881
2018-03-15,65.017,65.281,63.758,64.095,4992309
2018-03-16,64.086,64.468,63.587,63.998,7357868
2018-03-19,63.821,63.998,62.255,62.617,7095063
2018-03-20,62.695,62.872,61.511,61.863,7662158
2018-03-21,61.227,61.452,60.463,60.698,7239586
2018-03-22,60.443,60.669,59.229,59.269,8330237
2018-03-23,59.464,60.372,58.701,58.779,6450707
2018-03-26,59.611,60.443,59.269,60.365,5423582
2018-03-27,60.453,60.688,59.131,59.435,5388848
2018-03-28,59.572,60.669,59.485,60.091,4879939
2018-03-29,60.502,61.315,60.4,60.992,5108338
2018-04-02,60.649,60.708,58.544,58.808,5406913
2018-04-03,59.357,59.396,58.24,58.985,6459884
2018-04-04,58.544,60.535,58.482,60.101,4865852
2018-04-05,60.414,60.61,59.68,60.032,4363598
2018-04-06,59.817,60.688,58.906,59.278,4015660
2018-04-09,59.621,60.12,59.083,59.386,4768632
2018-04-10,60.365,60.532,59.357,59.974,4780454
2018-04-11,60.257,60.541,59.513,60.257,3934547
2018-04-12,60.248,60.419,59.513,59.67,5255290
2018-04-13,59.797,59.856,59.229,59.65,3825777
2018-04-16,58.769,60.032,58.671,59.915,5561900
2018-04-17,60.404,60.522,59.817,60.404,4538639
2018-04-18,60.375,60.512,59.092,59.523,5643367
2018-04-19,59.484,59.621,58.387,58.485,7620570
2018-04-20,58.603,58.904,56.35,57.007,9973604
2018-04-23,56.791,56.978,56.214,56.478,8073380
2018-04-24,56.742,56.791,54.94,55.352,8442769
2018-04-25,55.342,56.204,55.117,55.666,6910583
2018-04-26,55.842,56.268,55.332,56.135,5256910
2018-04-27,56.233,57.046,56.164,56.458,4183315
2018-04-30,56.694,56.948,55.186,55.205,6905489
2018-05-01,55.146,55.264,54.148,54.54,6485381
2018-05-02,54.716,54.784,52.982,53.07,9237593
2018-05-03,55.098,55.224,53.795,53.804,10601739
2018-05-04,53.854,57.232,53.55,56.801,9417585
2018-05-07,57.281,58.01,56.978,57.604,7493578
2018-05-08,57.467,57.898,56.419,57.536,7315656
2018-05-09,57.711,58.084,56.88,57.261,5108787
2018-05-10,57.526,58.113,57.33,57.81,4017937
2018-05-11,57.741,58.612,57.741,58.006,4064971
2018-05-14,58.133,58.358,57.692,58.045,4318670
2018-05-15,57.927,58.25,57.398,57.81,5783098
2018-05-16,57.829,58.084,57.31,58.054,4426262
2018-05-17,58.104,58.223,57.114,57.451,4743884
2018-05-18,57.006,57.055,55.13,56.194,9630004
2018-05-21,56.402,56.748,55.613,55.858,4636943
2018-05-22,55.986,56.655,55.62,55.986,4223868
2018-05-23,55.709,56.481,55.709,56.382,3168132
2018-05-24,56.402,56.56,55.788,56.461,2779797
2018-05-25,56.521,57.51,56.501,57.164,3330953
2018-05-29,56.966,57.253,56.343,56.798,4276302
2018-05-30,57.045,58.44,56.837,58.223,5646509
2018-05-31,58.173,58.322,56.55,56.877,6859338
2018-06-01,57.035,57.57,56.679,57.045,4795894
2018-06-04,57.243,58.045,57.144,57.807,3664795
2018-06-05,58.163,58.175,57.062,57.312,4972425
2018-06-06,57.48,57.48,56.412,57.312,4878006
2018-06-07,56.907,57.55,56.471,57.065,4549503
2018-06-08,57.184,57.975,57.065,57.857,4311944
2018-06-11,57.985,59.509,57.965,59.252,5307713
2018-06-12,59.598,60.014,58.668,59.489,4355030
2018-06-13,59.727,60.043,59.024,59.469,3514792
2018-06-14,59.756,60.37,59.311,60.033,3610619
2018-06-15,60.172,60.993,59.756,60.964,7697128
2018-06-18,60.785,61.993,59.836,60.231,4538902
2018-06-19,59.954,61.617,59.865,61.488,6037697
2018-06-20,61.617,62.675,61.349,62.379,6091553
2018-06-21,62.388,62.537,61.597,61.913,5008520
2018-06-22,62.151,62.784,62.003,62.547,4292190
2018-06-25,62.191,63.863,62.161,62.656,5029273
2018-06-26,62.913,62.943,61.696,62.547,4234846
2018-06-27,62.329,63.145,61.854,62.032,3284557
2018-06-28,62.181,62.656,61.849,61.993,3727151
2018-06-29,62.25,62.567,61.478,62.161,3852941
2018-07-02,61.844,61.933,60.875,61.439,3705450
2018-07-03,61.676,62.468,61.676,61.983,1691748
2018-07-05,62.616,63.328,61.983,63.279,2864528
2018-07-06,63.328,63.942,63.002,63.754,3365287
2018-07-09,63.972,64.071,62.952,63.299,3112550
2018-07-10,63.665,63.665,62.665,63.328,3145940
2018-07-11,63.239,63.606,62.844,63.071,2547634
2018-07-12,63.259,63.378,62.626,62.972,2688078
2018-07-13,62.972,63.912,62.834,63.18,4040266
2018-07-16,63.22,63.319,61.933,61.983,4209061
2018-07-17,61.983,62.715,61.894,62.388,5085635
2018-07-18,62.388,62.517,60.894,60.944,5251480
2018-07-19,60.667,61.359,60.241,60.696,6912047
2018-07-20,60.627,60.736,59.915,60.053,5871875
2018-07-23,59.766,60.251,59.509,59.667,4908986
2018-07-24,59.667,59.836,58.529,59.044,6441561
2018-07-25,59.083,59.529,58.322,59.212,3753486
2018-07-26,60.083,61.053,59.598,59.845,4125532
2018-07-27,59.964,60.409,59.258,59.628,3811135
2018-07-30,59.469,59.984,59.192,59.648,3782776
2018-07-31,59.974,60.528,59.38,59.618,6553554
2018-08-01,59.37,59.469,58.628,58.658,4055776
2018-08-02,58.48,59.024,57.631,58.777,6513421
2018-08-03,60.36,64.308,59.746,63.803,16371514
2018-08-06,63.18,63.447,61.498,61.646,7532188
2018-08-07,61.844,61.884,60.434,60.677,6611796
2018-08-08,59.45,60.212,58.876,59.648,11171073
2018-08-09,59.786,59.984,59.054,59.37,6638701
2018-08-10,59.133,59.37,58.48,59.024,5172299
2018-08-13,58.856,59.083,58.213,58.658,5852984
2018-08-14,58.876,59.43,58.806,58.895,4486946
2018-08-15,58.935,58.955,58.361,58.47,5355926
2018-08-16,58.97,60.15,58.83,60.03,6262302
2018-08-17,60.3,61.31,59.77,61.02,6417202
2018-08-20,61.03,61.6817,60.61,60.64,4646952
2018-08-21,60.75,60.75,59.59,59.84,4849817
2018-08-22,59.98,60.1,59.34,59.55,3224914
